%YAML 1.1
%TAG !u! tag:unity3d.com,2011:
--- !u!21 &2100000
Material:
  serializedVersion: 6
  m_ObjectHideFlags: 0
  m_CorrespondingSourceObject: {fileID: 0}
  m_PrefabInstance: {fileID: 0}
  m_PrefabAsset: {fileID: 0}
  m_Name: M_AcidWaterfall 1
  m_Shader: {fileID: -6465566751694194690, guid: c5a73384bc41b7247af726436e296b3c, type: 3}
  m_ShaderKeywords: 
  m_LightmapFlags: 4
  m_EnableInstancingVariants: 0
  m_DoubleSidedGI: 0
  m_CustomRenderQueue: 3000
  stringTagMap: {}
  disabledShaderPasses: []
  m_SavedProperties:
    serializedVersion: 3
    m_TexEnvs:
    - unity_Lightmaps:
        m_Texture: {fileID: 0}
        m_Scale: {x: 1, y: 1}
        m_Offset: {x: 0, y: 0}
    - unity_LightmapsInd:
        m_Texture: {fileID: 0}
        m_Scale: {x: 1, y: 1}
        m_Offset: {x: 0, y: 0}
    - unity_ShadowMasks:
        m_Texture: {fileID: 0}
        m_Scale: {x: 1, y: 1}
        m_Offset: {x: 0, y: 0}
    m_Floats:
    - Vector1_187e1661a7bd43f4aa9e785b9c4357aa: 0
    - Vector1_6fe0ab878a8547039b2f07d51d58dc96: 3.39
    - Vector1_7a6091bc25f442f087df6942b46b5213: 0.1
    - Vector1_97c00913b60446c8913e2c78dd352942: 0.27
    - Vector1_a184b8abae854b2f98e31e9c76ecb481: 0
    - Vector1_bc98eff162514e4d9984aa93b22a3e3d: 0.2
    - Vector1_c6934374f5944933932da83dee48377f: 0
    - Vector1_f8536deb9fc5464cbf0d56b4a45f3c57: 0
    - _VoronoiAgitation: 1
    - _VoronoiPower: 2
    - _VoronoiScale: 5
    m_Colors:
    - Vector2_a9c109d463e843c293a55006421a0fbc: {r: 0, g: 0.3, b: 0, a: 0}
    - Vector2_a9c109d463e843c293a55006421a0fbc_1: {r: 1, g: 1, b: 0, a: 0}
    - Vector2_f857dd9e1fde4765b430d47cb6143a91: {r: 0, g: 0.2, b: 0, a: 0}
    - _BaseColor: {r: 0.3874041, g: 1.1486983, b: 0.40609223, a: 0}
    - _VoronoiColor: {r: 0.93669206, g: 5.5908804, b: 0, a: 0}
  m_BuildTextureStacks: []
