%YAML 1.1
%TAG !u! tag:unity3d.com,2011:
--- !u!21 &2100000
Material:
  serializedVersion: 6
  m_ObjectHideFlags: 0
  m_CorrespondingSourceObject: {fileID: 0}
  m_PrefabInstance: {fileID: 0}
  m_PrefabAsset: {fileID: 0}
  m_Name: Shader Graphs_S_CRT_Monitor
  m_Shader: {fileID: -6465566751694194690, guid: 18ad51a9af51aa64f8aa73950fad5d1e, type: 3}
  m_ShaderKeywords: 
  m_LightmapFlags: 4
  m_EnableInstancingVariants: 0
  m_DoubleSidedGI: 0
  m_CustomRenderQueue: -1
  stringTagMap: {}
  disabledShaderPasses: []
  m_SavedProperties:
    serializedVersion: 3
    m_TexEnvs:
    - Texture2D_b526289c5b9a449f9074b8949ed4be1a:
        m_Texture: {fileID: 8400000, guid: 35163afd654020c42b8182678f22b396, type: 2}
        m_Scale: {x: 1, y: 1}
        m_Offset: {x: 0, y: 0}
    - unity_Lightmaps:
        m_Texture: {fileID: 0}
        m_Scale: {x: 1, y: 1}
        m_Offset: {x: 0, y: 0}
    - unity_LightmapsInd:
        m_Texture: {fileID: 0}
        m_Scale: {x: 1, y: 1}
        m_Offset: {x: 0, y: 0}
    - unity_ShadowMasks:
        m_Texture: {fileID: 0}
        m_Scale: {x: 1, y: 1}
        m_Offset: {x: 0, y: 0}
    m_Floats:
    - Vector1_39ae0d83fb8d48e49d288879e2210400: 3.14
    - Vector1_41be720bf00a4aaf9620d0087b49c58f: 0.7
    - Vector1_6d9a1c1a668e473ba28b1f1e2ee4ae00: 1.18
    - Vector1_9dde101b7a3646bead059cf4d9c6ac78: 0.7
    m_Colors:
    - Vector2_58256470fcf44446977a4c80c4eb0e7b: {r: 1000, g: 1000, b: 0, a: 0}
    - Vector4_055cb7e5819d4a43a98f371ae584cdc9: {r: 50, g: 100, b: 90, a: 1}
  m_BuildTextureStacks: []
