{
    "m_SGVersion": 2,
    "m_Type": "UnityEditor.ShaderGraph.GraphData",
    "m_ObjectId": "184d1a1e9b9d4efa9cb8c88c4fed3c35",
    "m_Properties": [
        {
            "m_Id": "69c77a0c5a6944418d7516e4980fc9f3"
        },
        {
            "m_Id": "d5941834a1f842f09530d13bea5bcbc7"
        },
        {
            "m_Id": "1c94b6a5c3be451da6f48fc54a7c3565"
        }
    ],
    "m_Keywords": [],
    "m_Nodes": [
        {
            "m_Id": "783b2f74e93a4a36889b924b7295e13d"
        },
        {
            "m_Id": "f81fc8ee3a2e422dad2df56fc32511b3"
        },
        {
            "m_Id": "ef899bc6e2744fdbacdce35c8fe8ad3d"
        },
        {
            "m_Id": "80d4caada96245afa4d136a3a3a4626d"
        },
        {
            "m_Id": "fce400b76a8f4b4c849b12e0d8955999"
        }
    ],
    "m_GroupDatas": [],
    "m_StickyNoteDatas": [],
    "m_Edges": [
        {
            "m_OutputSlot": {
                "m_Node": {
                    "m_Id": "80d4caada96245afa4d136a3a3a4626d"
                },
                "m_SlotId": 0
            },
            "m_InputSlot": {
                "m_Node": {
                    "m_Id": "f81fc8ee3a2e422dad2df56fc32511b3"
                },
                "m_SlotId": 1
            }
        },
        {
            "m_OutputSlot": {
                "m_Node": {
                    "m_Id": "ef899bc6e2744fdbacdce35c8fe8ad3d"
                },
                "m_SlotId": 0
            },
            "m_InputSlot": {
                "m_Node": {
                    "m_Id": "f81fc8ee3a2e422dad2df56fc32511b3"
                },
                "m_SlotId": 0
            }
        },
        {
            "m_OutputSlot": {
                "m_Node": {
                    "m_Id": "f81fc8ee3a2e422dad2df56fc32511b3"
                },
                "m_SlotId": 3
            },
            "m_InputSlot": {
                "m_Node": {
                    "m_Id": "783b2f74e93a4a36889b924b7295e13d"
                },
                "m_SlotId": 1
            }
        },
        {
            "m_OutputSlot": {
                "m_Node": {
                    "m_Id": "f81fc8ee3a2e422dad2df56fc32511b3"
                },
                "m_SlotId": 4
            },
            "m_InputSlot": {
                "m_Node": {
                    "m_Id": "783b2f74e93a4a36889b924b7295e13d"
                },
                "m_SlotId": 2
            }
        },
        {
            "m_OutputSlot": {
                "m_Node": {
                    "m_Id": "f81fc8ee3a2e422dad2df56fc32511b3"
                },
                "m_SlotId": 5
            },
            "m_InputSlot": {
                "m_Node": {
                    "m_Id": "783b2f74e93a4a36889b924b7295e13d"
                },
                "m_SlotId": 3
            }
        },
        {
            "m_OutputSlot": {
                "m_Node": {
                    "m_Id": "fce400b76a8f4b4c849b12e0d8955999"
                },
                "m_SlotId": 0
            },
            "m_InputSlot": {
                "m_Node": {
                    "m_Id": "f81fc8ee3a2e422dad2df56fc32511b3"
                },
                "m_SlotId": 2
            }
        }
    ],
    "m_VertexContext": {
        "m_Position": {
            "x": 0.0,
            "y": 0.0
        },
        "m_Blocks": []
    },
    "m_FragmentContext": {
        "m_Position": {
            "x": 0.0,
            "y": 0.0
        },
        "m_Blocks": []
    },
    "m_PreviewData": {
        "serializedMesh": {
            "m_SerializedMesh": "{\"mesh\":{\"instanceID\":0}}",
            "m_Guid": ""
        }
    },
    "m_Path": "Sub Graphs",
    "m_ConcretePrecision": 0,
    "m_PreviewMode": 2,
    "m_OutputNode": {
        "m_Id": "783b2f74e93a4a36889b924b7295e13d"
    },
    "m_ActiveTargets": []
}

{
    "m_SGVersion": 0,
    "m_Type": "UnityEditor.ShaderGraph.Vector2MaterialSlot",
    "m_ObjectId": "00b0b5cbea044faaa2c53988e12b5098",
    "m_Id": 0,
    "m_DisplayName": "UV",
    "m_SlotType": 1,
    "m_Hidden": false,
    "m_ShaderOutputName": "Out",
    "m_StageCapability": 3,
    "m_Value": {
        "x": 0.0,
        "y": 0.0
    },
    "m_DefaultValue": {
        "x": 0.0,
        "y": 0.0
    },
    "m_Labels": []
}

{
    "m_SGVersion": 0,
    "m_Type": "UnityEditor.ShaderGraph.Vector1MaterialSlot",
    "m_ObjectId": "060cdeefd3874c7e8ea9c41324411c46",
    "m_Id": 1,
    "m_DisplayName": "Out",
    "m_SlotType": 0,
    "m_Hidden": false,
    "m_ShaderOutputName": "Out",
    "m_StageCapability": 3,
    "m_Value": 0.0,
    "m_DefaultValue": 0.0,
    "m_Labels": []
}

{
    "m_SGVersion": 1,
    "m_Type": "UnityEditor.ShaderGraph.Internal.Vector1ShaderProperty",
    "m_ObjectId": "1c94b6a5c3be451da6f48fc54a7c3565",
    "m_Guid": {
        "m_GuidSerialized": "5e972b5e-4458-4a2a-aeff-7fafa95a0d09"
    },
    "m_Name": "Angle offset",
    "m_DefaultReferenceName": "Vector1_1c94b6a5c3be451da6f48fc54a7c3565",
    "m_OverrideReferenceName": "",
    "m_GeneratePropertyBlock": true,
    "m_Precision": 0,
    "overrideHLSLDeclaration": true,
    "hlslDeclarationOverride": 2,
    "m_Hidden": false,
    "m_Value": 20.0,
    "m_FloatType": 0,
    "m_RangeValues": {
        "x": 0.0,
        "y": 1.0
    }
}

{
    "m_SGVersion": 0,
    "m_Type": "UnityEditor.ShaderGraph.Vector1MaterialSlot",
    "m_ObjectId": "27a224ea19e743b4b19c248f4e26a258",
    "m_Id": 2,
    "m_DisplayName": "Cells",
    "m_SlotType": 0,
    "m_Hidden": false,
    "m_ShaderOutputName": "Cells",
    "m_StageCapability": 3,
    "m_Value": 0.0,
    "m_DefaultValue": 0.0,
    "m_Labels": []
}

{
    "m_SGVersion": 0,
    "m_Type": "UnityEditor.ShaderGraph.Vector1MaterialSlot",
    "m_ObjectId": "2ffc05733ee94056b7e780cab00b2d34",
    "m_Id": 3,
    "m_DisplayName": "Out",
    "m_SlotType": 1,
    "m_Hidden": false,
    "m_ShaderOutputName": "Out",
    "m_StageCapability": 3,
    "m_Value": 0.0,
    "m_DefaultValue": 0.0,
    "m_Labels": []
}

{
    "m_SGVersion": 0,
    "m_Type": "UnityEditor.ShaderGraph.Vector2MaterialSlot",
    "m_ObjectId": "355c8ce6a96c4b33ab9902c28c037380",
    "m_Id": 3,
    "m_DisplayName": "Center",
    "m_SlotType": 0,
    "m_Hidden": false,
    "m_ShaderOutputName": "Center",
    "m_StageCapability": 3,
    "m_Value": {
        "x": 0.0,
        "y": 0.0
    },
    "m_DefaultValue": {
        "x": 0.0,
        "y": 0.0
    },
    "m_Labels": []
}

{
    "m_SGVersion": 0,
    "m_Type": "UnityEditor.ShaderGraph.Vector2MaterialSlot",
    "m_ObjectId": "5bb6c2d1719a4f6c9f913742bbb24f8f",
    "m_Id": 5,
    "m_DisplayName": "Center",
    "m_SlotType": 1,
    "m_Hidden": false,
    "m_ShaderOutputName": "Center",
    "m_StageCapability": 3,
    "m_Value": {
        "x": 0.0,
        "y": 0.0
    },
    "m_DefaultValue": {
        "x": 0.0,
        "y": 0.0
    },
    "m_Labels": []
}

{
    "m_SGVersion": 1,
    "m_Type": "UnityEditor.ShaderGraph.Internal.Vector2ShaderProperty",
    "m_ObjectId": "69c77a0c5a6944418d7516e4980fc9f3",
    "m_Guid": {
        "m_GuidSerialized": "5716633d-99f5-463c-beff-f49aac41e116"
    },
    "m_Name": "UV",
    "m_DefaultReferenceName": "Vector2_69c77a0c5a6944418d7516e4980fc9f3",
    "m_OverrideReferenceName": "",
    "m_GeneratePropertyBlock": true,
    "m_Precision": 0,
    "overrideHLSLDeclaration": true,
    "hlslDeclarationOverride": 2,
    "m_Hidden": false,
    "m_Value": {
        "x": 0.0,
        "y": 0.0,
        "z": 0.0,
        "w": 0.0
    }
}

{
    "m_SGVersion": 0,
    "m_Type": "UnityEditor.ShaderGraph.SubGraphOutputNode",
    "m_ObjectId": "783b2f74e93a4a36889b924b7295e13d",
    "m_Group": {
        "m_Id": ""
    },
    "m_Name": "Output",
    "m_DrawState": {
        "m_Expanded": true,
        "m_Position": {
            "serializedVersion": "2",
            "x": 236.0,
            "y": -163.0,
            "width": 90.0,
            "height": 125.0
        }
    },
    "m_Slots": [
        {
            "m_Id": "060cdeefd3874c7e8ea9c41324411c46"
        },
        {
            "m_Id": "27a224ea19e743b4b19c248f4e26a258"
        },
        {
            "m_Id": "355c8ce6a96c4b33ab9902c28c037380"
        }
    ],
    "synonyms": [],
    "m_Precision": 0,
    "m_PreviewExpanded": true,
    "m_PreviewMode": 0,
    "m_CustomColors": {
        "m_SerializableColors": []
    },
    "IsFirstSlotValid": true
}

{
    "m_SGVersion": 0,
    "m_Type": "UnityEditor.ShaderGraph.PropertyNode",
    "m_ObjectId": "80d4caada96245afa4d136a3a3a4626d",
    "m_Group": {
        "m_Id": ""
    },
    "m_Name": "Property",
    "m_DrawState": {
        "m_Expanded": true,
        "m_Position": {
            "serializedVersion": "2",
            "x": -358.0000305175781,
            "y": -81.00001525878906,
            "width": 137.0,
            "height": 34.0
        }
    },
    "m_Slots": [
        {
            "m_Id": "c595d9bdcbdf45b899d3f6f477026821"
        }
    ],
    "synonyms": [],
    "m_Precision": 0,
    "m_PreviewExpanded": true,
    "m_PreviewMode": 0,
    "m_CustomColors": {
        "m_SerializableColors": []
    },
    "m_Property": {
        "m_Id": "d5941834a1f842f09530d13bea5bcbc7"
    }
}

{
    "m_SGVersion": 0,
    "m_Type": "UnityEditor.ShaderGraph.Vector1MaterialSlot",
    "m_ObjectId": "87af214b150b4e008354ebbccefdf426",
    "m_Id": 2,
    "m_DisplayName": "AngleOffset",
    "m_SlotType": 0,
    "m_Hidden": false,
    "m_ShaderOutputName": "AngleOffset",
    "m_StageCapability": 3,
    "m_Value": 18.40999984741211,
    "m_DefaultValue": 0.0,
    "m_Labels": []
}

{
    "m_SGVersion": 0,
    "m_Type": "UnityEditor.ShaderGraph.Vector1MaterialSlot",
    "m_ObjectId": "bc1c3eca7f144822b6a13a6aa11e362c",
    "m_Id": 4,
    "m_DisplayName": "Cells",
    "m_SlotType": 1,
    "m_Hidden": false,
    "m_ShaderOutputName": "Cells",
    "m_StageCapability": 3,
    "m_Value": 0.0,
    "m_DefaultValue": 0.0,
    "m_Labels": []
}

{
    "m_SGVersion": 0,
    "m_Type": "UnityEditor.ShaderGraph.Vector1MaterialSlot",
    "m_ObjectId": "c595d9bdcbdf45b899d3f6f477026821",
    "m_Id": 0,
    "m_DisplayName": "Cell density",
    "m_SlotType": 1,
    "m_Hidden": false,
    "m_ShaderOutputName": "Out",
    "m_StageCapability": 3,
    "m_Value": 0.0,
    "m_DefaultValue": 0.0,
    "m_Labels": []
}

{
    "m_SGVersion": 0,
    "m_Type": "UnityEditor.ShaderGraph.Vector1MaterialSlot",
    "m_ObjectId": "d33b6451daa340738659224396ca314b",
    "m_Id": 0,
    "m_DisplayName": "Angle offset",
    "m_SlotType": 1,
    "m_Hidden": false,
    "m_ShaderOutputName": "Out",
    "m_StageCapability": 3,
    "m_Value": 0.0,
    "m_DefaultValue": 0.0,
    "m_Labels": []
}

{
    "m_SGVersion": 1,
    "m_Type": "UnityEditor.ShaderGraph.Internal.Vector1ShaderProperty",
    "m_ObjectId": "d5941834a1f842f09530d13bea5bcbc7",
    "m_Guid": {
        "m_GuidSerialized": "c2daa54c-258e-435d-94a9-369cf4883ab2"
    },
    "m_Name": "Cell density",
    "m_DefaultReferenceName": "Vector1_d5941834a1f842f09530d13bea5bcbc7",
    "m_OverrideReferenceName": "",
    "m_GeneratePropertyBlock": true,
    "m_Precision": 0,
    "overrideHLSLDeclaration": true,
    "hlslDeclarationOverride": 2,
    "m_Hidden": false,
    "m_Value": 2.0,
    "m_FloatType": 0,
    "m_RangeValues": {
        "x": 0.0,
        "y": 1.0
    }
}

{
    "m_SGVersion": 0,
    "m_Type": "UnityEditor.ShaderGraph.Vector1MaterialSlot",
    "m_ObjectId": "da9376a69be748779696e57a24ffe27a",
    "m_Id": 1,
    "m_DisplayName": "CellDensity",
    "m_SlotType": 0,
    "m_Hidden": false,
    "m_ShaderOutputName": "CellDensity",
    "m_StageCapability": 3,
    "m_Value": 1.590000033378601,
    "m_DefaultValue": 0.0,
    "m_Labels": []
}

{
    "m_SGVersion": 0,
    "m_Type": "UnityEditor.ShaderGraph.Vector2MaterialSlot",
    "m_ObjectId": "e23b9ba00bde4f618d4e32cd50346680",
    "m_Id": 0,
    "m_DisplayName": "UV",
    "m_SlotType": 0,
    "m_Hidden": false,
    "m_ShaderOutputName": "UV",
    "m_StageCapability": 3,
    "m_Value": {
        "x": 0.0,
        "y": 0.0
    },
    "m_DefaultValue": {
        "x": 0.0,
        "y": 0.0
    },
    "m_Labels": []
}

{
    "m_SGVersion": 0,
    "m_Type": "UnityEditor.ShaderGraph.PropertyNode",
    "m_ObjectId": "ef899bc6e2744fdbacdce35c8fe8ad3d",
    "m_Group": {
        "m_Id": ""
    },
    "m_Name": "Property",
    "m_DrawState": {
        "m_Expanded": true,
        "m_Position": {
            "serializedVersion": "2",
            "x": -314.0000305175781,
            "y": -123.0000228881836,
            "width": 93.0,
            "height": 34.0
        }
    },
    "m_Slots": [
        {
            "m_Id": "00b0b5cbea044faaa2c53988e12b5098"
        }
    ],
    "synonyms": [],
    "m_Precision": 0,
    "m_PreviewExpanded": true,
    "m_PreviewMode": 0,
    "m_CustomColors": {
        "m_SerializableColors": []
    },
    "m_Property": {
        "m_Id": "69c77a0c5a6944418d7516e4980fc9f3"
    }
}

{
    "m_SGVersion": 1,
    "m_Type": "UnityEditor.ShaderGraph.CustomFunctionNode",
    "m_ObjectId": "f81fc8ee3a2e422dad2df56fc32511b3",
    "m_Group": {
        "m_Id": ""
    },
    "m_Name": "Voranoi (Custom Function)",
    "m_DrawState": {
        "m_Expanded": true,
        "m_Position": {
            "serializedVersion": "2",
            "x": -104.0,
            "y": -163.0,
            "width": 208.00001525878907,
            "height": 326.0
        }
    },
    "m_Slots": [
        {
            "m_Id": "e23b9ba00bde4f618d4e32cd50346680"
        },
        {
            "m_Id": "da9376a69be748779696e57a24ffe27a"
        },
        {
            "m_Id": "87af214b150b4e008354ebbccefdf426"
        },
        {
            "m_Id": "2ffc05733ee94056b7e780cab00b2d34"
        },
        {
            "m_Id": "bc1c3eca7f144822b6a13a6aa11e362c"
        },
        {
            "m_Id": "5bb6c2d1719a4f6c9f913742bbb24f8f"
        }
    ],
    "synonyms": [],
    "m_Precision": 0,
    "m_PreviewExpanded": true,
    "m_PreviewMode": 0,
    "m_CustomColors": {
        "m_SerializableColors": []
    },
    "m_SourceType": 1,
    "m_FunctionName": "Voranoi",
    "m_FunctionSource": "",
    "m_FunctionBody": "float2 g = floor(UV * CellDensity);\r\nfloat2 f = frac(UV * CellDensity);\r\nfloat t = 8.0;\r\nfloat3 res = float3(8.0, 0.0, 0.0);\r\nfor(int y=-1; y<=1; y++)\r\n{\r\n    for(int x=-1; x<=1; x++)\r\n    {\r\n        float2 lattice = float2(x,y);\r\n        float2 sUV = lattice + g;\r\n        float2x2 m = float2x2(15.27, 47.63, 99.41, 89.98);\r\n        sUV = frac(sin(mul(sUV, m)) * 46839.32);\r\n        float2 offset = float2(sin(sUV.y*+AngleOffset)*0.5+0.5, cos(sUV.x*AngleOffset)*0.5+0.5);\r\n        float d = distance(lattice + offset, f);\r\n        float2 sign = (lattice + offset) - f;\r\n        if(d < res.x)\r\n        {\r\n            res = float3(d, offset.x, offset.y);\r\n            Out = res.x;\r\n            Cells = res.y;\r\n            Center = (offset + lattice + g) / CellDensity;\r\n        }\r\n    }\r\n}"
}

{
    "m_SGVersion": 0,
    "m_Type": "UnityEditor.ShaderGraph.PropertyNode",
    "m_ObjectId": "fce400b76a8f4b4c849b12e0d8955999",
    "m_Group": {
        "m_Id": ""
    },
    "m_Name": "Property",
    "m_DrawState": {
        "m_Expanded": true,
        "m_Position": {
            "serializedVersion": "2",
            "x": -358.0000305175781,
            "y": -38.00001907348633,
            "width": 139.0,
            "height": 34.0
        }
    },
    "m_Slots": [
        {
            "m_Id": "d33b6451daa340738659224396ca314b"
        }
    ],
    "synonyms": [],
    "m_Precision": 0,
    "m_PreviewExpanded": true,
    "m_PreviewMode": 0,
    "m_CustomColors": {
        "m_SerializableColors": []
    },
    "m_Property": {
        "m_Id": "1c94b6a5c3be451da6f48fc54a7c3565"
    }
}

