{
    "m_SGVersion": 2,
    "m_Type": "UnityEditor.ShaderGraph.GraphData",
    "m_ObjectId": "64aa2fb40ece4e349e9d704f82419354",
    "m_Properties": [
        {
            "m_Id": "db2a2c4448ca4d45a709a4172bdd17e9"
        },
        {
            "m_Id": "36a14c9e94dc479da67c10f488b5517c"
        }
    ],
    "m_Keywords": [],
    "m_Nodes": [
        {
            "m_Id": "fffef87e5f044bfaab96b39fd67d52bf"
        },
        {
            "m_Id": "6062671f81fa4882817a13e45ff42a77"
        },
        {
            "m_Id": "e1f35489c9fe49df955366eb01cbb1d1"
        },
        {
            "m_Id": "8dc6d427ae5c40808c49480ed6fdc60b"
        },
        {
            "m_Id": "887d3658d96e4e64a8427b630ab898a5"
        },
        {
            "m_Id": "2c661dd203bb40aa9773b3049ea93237"
        },
        {
            "m_Id": "b45146b61d99413fba9a8b124e0827c0"
        },
        {
            "m_Id": "02089e6750a9485c8b0020b9b4d272ee"
        },
        {
            "m_Id": "80d9a3b4241446a4bb12b6d7414603e6"
        },
        {
            "m_Id": "94fb217ea73e4b3ebb63b6340c9e9cd2"
        },
        {
            "m_Id": "13c1da790ac940e093d288015849197f"
        },
        {
            "m_Id": "45d82e1aa2cd4468835d04ec8075185a"
        },
        {
            "m_Id": "68bf6b92899747f0b5c03fb050df6d0e"
        },
        {
            "m_Id": "14456fbafba34cf2a3221322460186ab"
        },
        {
            "m_Id": "b11cf83e822647d187639d8b180771df"
        },
        {
            "m_Id": "4ae314d62cbb42d1b05806c993b159d7"
        },
        {
            "m_Id": "e170c4b7183b4c4490929457a9d4ae08"
        },
        {
            "m_Id": "19d294f9e3dc4accbcc8a8dba7b854ad"
        },
        {
            "m_Id": "f35c2c9a477b43c584387f06aba875f2"
        },
        {
            "m_Id": "18d97efff76243f6905fa8c82f44ac06"
        },
        {
            "m_Id": "c8adab3c1b5f4c4e8524aba3068cba12"
        },
        {
            "m_Id": "e994a58dde1d4da2ad68a1c7599de1e3"
        },
        {
            "m_Id": "1a9c6e41267e46d08ddd812f81e36dbc"
        },
        {
            "m_Id": "5999582fa9b74da1843c7b54bb5c63b3"
        },
        {
            "m_Id": "35b3cea4bcdf426a9f5b46e3a89ef8e5"
        },
        {
            "m_Id": "b67786c3304541f3897462d500a66524"
        },
        {
            "m_Id": "24d6a3f7adfa469691e076d794281aa2"
        },
        {
            "m_Id": "9d371d24cbda4bd58f5e918ca944fcaa"
        },
        {
            "m_Id": "79a1f3a2e77840af9b97bb860c03a1b7"
        },
        {
            "m_Id": "17b923a7ffab481398a379dfd8e40521"
        },
        {
            "m_Id": "bc2d34e20cae4a13ba683f5e49ba9998"
        },
        {
            "m_Id": "8d3be456850b4a4a9f8641e0c05edc5a"
        },
        {
            "m_Id": "916a1ac85976423a9b04fe0ebcc0873a"
        },
        {
            "m_Id": "5bb839aba51c4635ab1ae9257f1f06e9"
        },
        {
            "m_Id": "d4b443b61bbe4fa7863a81b8f52085e8"
        },
        {
            "m_Id": "7c5fe6d880b94f439113527493f074a1"
        },
        {
            "m_Id": "39d41aa8e9a8407c885c24287e7435aa"
        }
    ],
    "m_GroupDatas": [
        {
            "m_Id": "eb0066e0361b4a7c922a9b6d13fef521"
        },
        {
            "m_Id": "10c19e06a9e2453f80703e91365ffcda"
        },
        {
            "m_Id": "1c39cf8e7e42454ebc9cdaf7bc1fa11e"
        },
        {
            "m_Id": "67fa98f4bcf346998f198de89861602d"
        },
        {
            "m_Id": "c8112ae8fc8646ef891c187c336c8bf9"
        },
        {
            "m_Id": "e03a74c82ee442e797b86f891261041c"
        }
    ],
    "m_StickyNoteDatas": [],
    "m_Edges": [
        {
            "m_OutputSlot": {
                "m_Node": {
                    "m_Id": "02089e6750a9485c8b0020b9b4d272ee"
                },
                "m_SlotId": 0
            },
            "m_InputSlot": {
                "m_Node": {
                    "m_Id": "b45146b61d99413fba9a8b124e0827c0"
                },
                "m_SlotId": 3
            }
        },
        {
            "m_OutputSlot": {
                "m_Node": {
                    "m_Id": "13c1da790ac940e093d288015849197f"
                },
                "m_SlotId": 1
            },
            "m_InputSlot": {
                "m_Node": {
                    "m_Id": "bc2d34e20cae4a13ba683f5e49ba9998"
                },
                "m_SlotId": 1
            }
        },
        {
            "m_OutputSlot": {
                "m_Node": {
                    "m_Id": "14456fbafba34cf2a3221322460186ab"
                },
                "m_SlotId": 5
            },
            "m_InputSlot": {
                "m_Node": {
                    "m_Id": "13c1da790ac940e093d288015849197f"
                },
                "m_SlotId": 0
            }
        },
        {
            "m_OutputSlot": {
                "m_Node": {
                    "m_Id": "17b923a7ffab481398a379dfd8e40521"
                },
                "m_SlotId": 5
            },
            "m_InputSlot": {
                "m_Node": {
                    "m_Id": "24d6a3f7adfa469691e076d794281aa2"
                },
                "m_SlotId": 0
            }
        },
        {
            "m_OutputSlot": {
                "m_Node": {
                    "m_Id": "18d97efff76243f6905fa8c82f44ac06"
                },
                "m_SlotId": 0
            },
            "m_InputSlot": {
                "m_Node": {
                    "m_Id": "e994a58dde1d4da2ad68a1c7599de1e3"
                },
                "m_SlotId": 3
            }
        },
        {
            "m_OutputSlot": {
                "m_Node": {
                    "m_Id": "19d294f9e3dc4accbcc8a8dba7b854ad"
                },
                "m_SlotId": 5
            },
            "m_InputSlot": {
                "m_Node": {
                    "m_Id": "b11cf83e822647d187639d8b180771df"
                },
                "m_SlotId": 0
            }
        },
        {
            "m_OutputSlot": {
                "m_Node": {
                    "m_Id": "1a9c6e41267e46d08ddd812f81e36dbc"
                },
                "m_SlotId": 1
            },
            "m_InputSlot": {
                "m_Node": {
                    "m_Id": "916a1ac85976423a9b04fe0ebcc0873a"
                },
                "m_SlotId": 0
            }
        },
        {
            "m_OutputSlot": {
                "m_Node": {
                    "m_Id": "24d6a3f7adfa469691e076d794281aa2"
                },
                "m_SlotId": 1
            },
            "m_InputSlot": {
                "m_Node": {
                    "m_Id": "916a1ac85976423a9b04fe0ebcc0873a"
                },
                "m_SlotId": 1
            }
        },
        {
            "m_OutputSlot": {
                "m_Node": {
                    "m_Id": "2c661dd203bb40aa9773b3049ea93237"
                },
                "m_SlotId": 1
            },
            "m_InputSlot": {
                "m_Node": {
                    "m_Id": "bc2d34e20cae4a13ba683f5e49ba9998"
                },
                "m_SlotId": 0
            }
        },
        {
            "m_OutputSlot": {
                "m_Node": {
                    "m_Id": "35b3cea4bcdf426a9f5b46e3a89ef8e5"
                },
                "m_SlotId": 0
            },
            "m_InputSlot": {
                "m_Node": {
                    "m_Id": "b67786c3304541f3897462d500a66524"
                },
                "m_SlotId": 4
            }
        },
        {
            "m_OutputSlot": {
                "m_Node": {
                    "m_Id": "39d41aa8e9a8407c885c24287e7435aa"
                },
                "m_SlotId": 0
            },
            "m_InputSlot": {
                "m_Node": {
                    "m_Id": "7c5fe6d880b94f439113527493f074a1"
                },
                "m_SlotId": 1
            }
        },
        {
            "m_OutputSlot": {
                "m_Node": {
                    "m_Id": "45d82e1aa2cd4468835d04ec8075185a"
                },
                "m_SlotId": 0
            },
            "m_InputSlot": {
                "m_Node": {
                    "m_Id": "14456fbafba34cf2a3221322460186ab"
                },
                "m_SlotId": 3
            }
        },
        {
            "m_OutputSlot": {
                "m_Node": {
                    "m_Id": "4ae314d62cbb42d1b05806c993b159d7"
                },
                "m_SlotId": 0
            },
            "m_InputSlot": {
                "m_Node": {
                    "m_Id": "19d294f9e3dc4accbcc8a8dba7b854ad"
                },
                "m_SlotId": 3
            }
        },
        {
            "m_OutputSlot": {
                "m_Node": {
                    "m_Id": "5999582fa9b74da1843c7b54bb5c63b3"
                },
                "m_SlotId": 0
            },
            "m_InputSlot": {
                "m_Node": {
                    "m_Id": "b67786c3304541f3897462d500a66524"
                },
                "m_SlotId": 3
            }
        },
        {
            "m_OutputSlot": {
                "m_Node": {
                    "m_Id": "5bb839aba51c4635ab1ae9257f1f06e9"
                },
                "m_SlotId": 2
            },
            "m_InputSlot": {
                "m_Node": {
                    "m_Id": "d4b443b61bbe4fa7863a81b8f52085e8"
                },
                "m_SlotId": 1
            }
        },
        {
            "m_OutputSlot": {
                "m_Node": {
                    "m_Id": "68bf6b92899747f0b5c03fb050df6d0e"
                },
                "m_SlotId": 0
            },
            "m_InputSlot": {
                "m_Node": {
                    "m_Id": "14456fbafba34cf2a3221322460186ab"
                },
                "m_SlotId": 4
            }
        },
        {
            "m_OutputSlot": {
                "m_Node": {
                    "m_Id": "79a1f3a2e77840af9b97bb860c03a1b7"
                },
                "m_SlotId": 0
            },
            "m_InputSlot": {
                "m_Node": {
                    "m_Id": "17b923a7ffab481398a379dfd8e40521"
                },
                "m_SlotId": 4
            }
        },
        {
            "m_OutputSlot": {
                "m_Node": {
                    "m_Id": "7c5fe6d880b94f439113527493f074a1"
                },
                "m_SlotId": 2
            },
            "m_InputSlot": {
                "m_Node": {
                    "m_Id": "8dc6d427ae5c40808c49480ed6fdc60b"
                },
                "m_SlotId": 0
            }
        },
        {
            "m_OutputSlot": {
                "m_Node": {
                    "m_Id": "80d9a3b4241446a4bb12b6d7414603e6"
                },
                "m_SlotId": 0
            },
            "m_InputSlot": {
                "m_Node": {
                    "m_Id": "b45146b61d99413fba9a8b124e0827c0"
                },
                "m_SlotId": 4
            }
        },
        {
            "m_OutputSlot": {
                "m_Node": {
                    "m_Id": "887d3658d96e4e64a8427b630ab898a5"
                },
                "m_SlotId": 0
            },
            "m_InputSlot": {
                "m_Node": {
                    "m_Id": "14456fbafba34cf2a3221322460186ab"
                },
                "m_SlotId": 0
            }
        },
        {
            "m_OutputSlot": {
                "m_Node": {
                    "m_Id": "887d3658d96e4e64a8427b630ab898a5"
                },
                "m_SlotId": 0
            },
            "m_InputSlot": {
                "m_Node": {
                    "m_Id": "17b923a7ffab481398a379dfd8e40521"
                },
                "m_SlotId": 0
            }
        },
        {
            "m_OutputSlot": {
                "m_Node": {
                    "m_Id": "887d3658d96e4e64a8427b630ab898a5"
                },
                "m_SlotId": 0
            },
            "m_InputSlot": {
                "m_Node": {
                    "m_Id": "19d294f9e3dc4accbcc8a8dba7b854ad"
                },
                "m_SlotId": 0
            }
        },
        {
            "m_OutputSlot": {
                "m_Node": {
                    "m_Id": "887d3658d96e4e64a8427b630ab898a5"
                },
                "m_SlotId": 0
            },
            "m_InputSlot": {
                "m_Node": {
                    "m_Id": "b45146b61d99413fba9a8b124e0827c0"
                },
                "m_SlotId": 0
            }
        },
        {
            "m_OutputSlot": {
                "m_Node": {
                    "m_Id": "887d3658d96e4e64a8427b630ab898a5"
                },
                "m_SlotId": 0
            },
            "m_InputSlot": {
                "m_Node": {
                    "m_Id": "b67786c3304541f3897462d500a66524"
                },
                "m_SlotId": 0
            }
        },
        {
            "m_OutputSlot": {
                "m_Node": {
                    "m_Id": "887d3658d96e4e64a8427b630ab898a5"
                },
                "m_SlotId": 0
            },
            "m_InputSlot": {
                "m_Node": {
                    "m_Id": "e994a58dde1d4da2ad68a1c7599de1e3"
                },
                "m_SlotId": 0
            }
        },
        {
            "m_OutputSlot": {
                "m_Node": {
                    "m_Id": "8d3be456850b4a4a9f8641e0c05edc5a"
                },
                "m_SlotId": 2
            },
            "m_InputSlot": {
                "m_Node": {
                    "m_Id": "5bb839aba51c4635ab1ae9257f1f06e9"
                },
                "m_SlotId": 0
            }
        },
        {
            "m_OutputSlot": {
                "m_Node": {
                    "m_Id": "916a1ac85976423a9b04fe0ebcc0873a"
                },
                "m_SlotId": 2
            },
            "m_InputSlot": {
                "m_Node": {
                    "m_Id": "5bb839aba51c4635ab1ae9257f1f06e9"
                },
                "m_SlotId": 1
            }
        },
        {
            "m_OutputSlot": {
                "m_Node": {
                    "m_Id": "9d371d24cbda4bd58f5e918ca944fcaa"
                },
                "m_SlotId": 0
            },
            "m_InputSlot": {
                "m_Node": {
                    "m_Id": "17b923a7ffab481398a379dfd8e40521"
                },
                "m_SlotId": 3
            }
        },
        {
            "m_OutputSlot": {
                "m_Node": {
                    "m_Id": "b11cf83e822647d187639d8b180771df"
                },
                "m_SlotId": 1
            },
            "m_InputSlot": {
                "m_Node": {
                    "m_Id": "8d3be456850b4a4a9f8641e0c05edc5a"
                },
                "m_SlotId": 0
            }
        },
        {
            "m_OutputSlot": {
                "m_Node": {
                    "m_Id": "b45146b61d99413fba9a8b124e0827c0"
                },
                "m_SlotId": 5
            },
            "m_InputSlot": {
                "m_Node": {
                    "m_Id": "2c661dd203bb40aa9773b3049ea93237"
                },
                "m_SlotId": 0
            }
        },
        {
            "m_OutputSlot": {
                "m_Node": {
                    "m_Id": "b67786c3304541f3897462d500a66524"
                },
                "m_SlotId": 5
            },
            "m_InputSlot": {
                "m_Node": {
                    "m_Id": "1a9c6e41267e46d08ddd812f81e36dbc"
                },
                "m_SlotId": 0
            }
        },
        {
            "m_OutputSlot": {
                "m_Node": {
                    "m_Id": "bc2d34e20cae4a13ba683f5e49ba9998"
                },
                "m_SlotId": 2
            },
            "m_InputSlot": {
                "m_Node": {
                    "m_Id": "d4b443b61bbe4fa7863a81b8f52085e8"
                },
                "m_SlotId": 0
            }
        },
        {
            "m_OutputSlot": {
                "m_Node": {
                    "m_Id": "c8adab3c1b5f4c4e8524aba3068cba12"
                },
                "m_SlotId": 0
            },
            "m_InputSlot": {
                "m_Node": {
                    "m_Id": "e994a58dde1d4da2ad68a1c7599de1e3"
                },
                "m_SlotId": 4
            }
        },
        {
            "m_OutputSlot": {
                "m_Node": {
                    "m_Id": "d4b443b61bbe4fa7863a81b8f52085e8"
                },
                "m_SlotId": 2
            },
            "m_InputSlot": {
                "m_Node": {
                    "m_Id": "7c5fe6d880b94f439113527493f074a1"
                },
                "m_SlotId": 0
            }
        },
        {
            "m_OutputSlot": {
                "m_Node": {
                    "m_Id": "e170c4b7183b4c4490929457a9d4ae08"
                },
                "m_SlotId": 0
            },
            "m_InputSlot": {
                "m_Node": {
                    "m_Id": "19d294f9e3dc4accbcc8a8dba7b854ad"
                },
                "m_SlotId": 4
            }
        },
        {
            "m_OutputSlot": {
                "m_Node": {
                    "m_Id": "e994a58dde1d4da2ad68a1c7599de1e3"
                },
                "m_SlotId": 5
            },
            "m_InputSlot": {
                "m_Node": {
                    "m_Id": "f35c2c9a477b43c584387f06aba875f2"
                },
                "m_SlotId": 0
            }
        },
        {
            "m_OutputSlot": {
                "m_Node": {
                    "m_Id": "f35c2c9a477b43c584387f06aba875f2"
                },
                "m_SlotId": 1
            },
            "m_InputSlot": {
                "m_Node": {
                    "m_Id": "8d3be456850b4a4a9f8641e0c05edc5a"
                },
                "m_SlotId": 1
            }
        }
    ],
    "m_VertexContext": {
        "m_Position": {
            "x": 714.0,
            "y": 578.0
        },
        "m_Blocks": [
            {
                "m_Id": "fffef87e5f044bfaab96b39fd67d52bf"
            },
            {
                "m_Id": "6062671f81fa4882817a13e45ff42a77"
            },
            {
                "m_Id": "e1f35489c9fe49df955366eb01cbb1d1"
            }
        ]
    },
    "m_FragmentContext": {
        "m_Position": {
            "x": 714.0,
            "y": 798.0
        },
        "m_Blocks": [
            {
                "m_Id": "8dc6d427ae5c40808c49480ed6fdc60b"
            },
            {
                "m_Id": "94fb217ea73e4b3ebb63b6340c9e9cd2"
            }
        ]
    },
    "m_PreviewData": {
        "serializedMesh": {
            "m_SerializedMesh": "{\"mesh\":{\"instanceID\":0}}",
            "m_Guid": ""
        }
    },
    "m_Path": "Shader Graphs",
    "m_ConcretePrecision": 0,
    "m_PreviewMode": 2,
    "m_OutputNode": {
        "m_Id": ""
    },
    "m_ActiveTargets": [
        {
            "m_Id": "df8cb268fa0d4bb99be67f59614bae8b"
        }
    ]
}

{
    "m_SGVersion": 0,
    "m_Type": "UnityEditor.ShaderGraph.PropertyNode",
    "m_ObjectId": "02089e6750a9485c8b0020b9b4d272ee",
    "m_Group": {
        "m_Id": "eb0066e0361b4a7c922a9b6d13fef521"
    },
    "m_Name": "Property",
    "m_DrawState": {
        "m_Expanded": true,
        "m_Position": {
            "serializedVersion": "2",
            "x": -825.9999389648438,
            "y": 175.0,
            "width": 103.0,
            "height": 34.0
        }
    },
    "m_Slots": [
        {
            "m_Id": "90bdcde1c9c040fab23e3e0af951609c"
        }
    ],
    "synonyms": [],
    "m_Precision": 0,
    "m_PreviewExpanded": true,
    "m_PreviewMode": 0,
    "m_CustomColors": {
        "m_SerializableColors": []
    },
    "m_Property": {
        "m_Id": "db2a2c4448ca4d45a709a4172bdd17e9"
    }
}

{
    "m_SGVersion": 0,
    "m_Type": "UnityEditor.ShaderGraph.Vector1MaterialSlot",
    "m_ObjectId": "03dd7070c0d14a9889b4e985caa3282a",
    "m_Id": 2,
    "m_DisplayName": "Max",
    "m_SlotType": 0,
    "m_Hidden": false,
    "m_ShaderOutputName": "Max",
    "m_StageCapability": 3,
    "m_Value": 3.0,
    "m_DefaultValue": 0.0,
    "m_Labels": []
}

{
    "m_SGVersion": 0,
    "m_Type": "UnityEditor.ShaderGraph.DynamicVectorMaterialSlot",
    "m_ObjectId": "057a53caf5f24b988ef46028b225c135",
    "m_Id": 1,
    "m_DisplayName": "B",
    "m_SlotType": 0,
    "m_Hidden": false,
    "m_ShaderOutputName": "B",
    "m_StageCapability": 3,
    "m_Value": {
        "x": 0.0,
        "y": 0.0,
        "z": 0.0,
        "w": 0.0
    },
    "m_DefaultValue": {
        "x": 0.0,
        "y": 0.0,
        "z": 0.0,
        "w": 0.0
    }
}

{
    "m_SGVersion": 0,
    "m_Type": "UnityEditor.ShaderGraph.Vector4MaterialSlot",
    "m_ObjectId": "0935ecce1c304d90a5f399c6c1cd1d22",
    "m_Id": 0,
    "m_DisplayName": "Seed",
    "m_SlotType": 0,
    "m_Hidden": false,
    "m_ShaderOutputName": "Seed",
    "m_StageCapability": 3,
    "m_Value": {
        "x": 0.0,
        "y": 0.0,
        "z": 0.0,
        "w": 0.0
    },
    "m_DefaultValue": {
        "x": 0.0,
        "y": 0.0,
        "z": 0.0,
        "w": 0.0
    },
    "m_Labels": []
}

{
    "m_SGVersion": 0,
    "m_Type": "UnityEditor.ShaderGraph.Vector4MaterialSlot",
    "m_ObjectId": "0aef85d445f844b991f9c78cd358340f",
    "m_Id": 0,
    "m_DisplayName": "Seed",
    "m_SlotType": 0,
    "m_Hidden": false,
    "m_ShaderOutputName": "Seed",
    "m_StageCapability": 3,
    "m_Value": {
        "x": 0.0,
        "y": 0.0,
        "z": 0.0,
        "w": 0.0
    },
    "m_DefaultValue": {
        "x": 0.0,
        "y": 0.0,
        "z": 0.0,
        "w": 0.0
    },
    "m_Labels": []
}

{
    "m_SGVersion": 0,
    "m_Type": "UnityEditor.ShaderGraph.Vector3MaterialSlot",
    "m_ObjectId": "0b1ec319dd2542e9a14ca396d9c8c8f6",
    "m_Id": 1,
    "m_DisplayName": "Out",
    "m_SlotType": 1,
    "m_Hidden": false,
    "m_ShaderOutputName": "Out",
    "m_StageCapability": 2,
    "m_Value": {
        "x": 0.0,
        "y": 0.0,
        "z": 0.0
    },
    "m_DefaultValue": {
        "x": 0.0,
        "y": 0.0,
        "z": 0.0
    },
    "m_Labels": []
}

{
    "m_SGVersion": 0,
    "m_Type": "UnityEditor.ShaderGraph.Vector1MaterialSlot",
    "m_ObjectId": "0f23c2983456467e83d6a65189d06fc7",
    "m_Id": 4,
    "m_DisplayName": "BlurY",
    "m_SlotType": 0,
    "m_Hidden": false,
    "m_ShaderOutputName": "BlurY",
    "m_StageCapability": 3,
    "m_Value": 0.0,
    "m_DefaultValue": 0.0,
    "m_Labels": []
}

{
    "m_SGVersion": 0,
    "m_Type": "UnityEditor.ShaderGraph.GroupData",
    "m_ObjectId": "10c19e06a9e2453f80703e91365ffcda",
    "m_Title": "Sample",
    "m_Position": {
        "x": -845.9999389648438,
        "y": 363.0
    }
}

{
    "m_SGVersion": 0,
    "m_Type": "UnityEditor.ShaderGraph.Vector1MaterialSlot",
    "m_ObjectId": "110af44e082a45e4a14ba30741ebe9b0",
    "m_Id": 3,
    "m_DisplayName": "BlurX",
    "m_SlotType": 0,
    "m_Hidden": false,
    "m_ShaderOutputName": "BlurX",
    "m_StageCapability": 3,
    "m_Value": 0.0,
    "m_DefaultValue": 0.0,
    "m_Labels": []
}

{
    "m_SGVersion": 0,
    "m_Type": "UnityEditor.ShaderGraph.Vector1MaterialSlot",
    "m_ObjectId": "1159ec2476fb4f63b6e54b630309b23c",
    "m_Id": 0,
    "m_DisplayName": "BlurY",
    "m_SlotType": 1,
    "m_Hidden": false,
    "m_ShaderOutputName": "Out",
    "m_StageCapability": 3,
    "m_Value": 0.0,
    "m_DefaultValue": 0.0,
    "m_Labels": []
}

{
    "m_SGVersion": 0,
    "m_Type": "UnityEditor.ShaderGraph.SceneColorNode",
    "m_ObjectId": "13c1da790ac940e093d288015849197f",
    "m_Group": {
        "m_Id": "10c19e06a9e2453f80703e91365ffcda"
    },
    "m_Name": "Scene Color",
    "m_DrawState": {
        "m_Expanded": true,
        "m_Position": {
            "serializedVersion": "2",
            "x": -351.0000305175781,
            "y": 422.0,
            "width": 137.99998474121095,
            "height": 77.0
        }
    },
    "m_Slots": [
        {
            "m_Id": "4ca32d77d5284336bf434fee07520ed8"
        },
        {
            "m_Id": "1d18bac351b34fc8845c145768426184"
        }
    ],
    "synonyms": [],
    "m_Precision": 0,
    "m_PreviewExpanded": true,
    "m_PreviewMode": 0,
    "m_CustomColors": {
        "m_SerializableColors": []
    }
}

{
    "m_SGVersion": 1,
    "m_Type": "UnityEditor.ShaderGraph.CustomFunctionNode",
    "m_ObjectId": "14456fbafba34cf2a3221322460186ab",
    "m_Group": {
        "m_Id": "10c19e06a9e2453f80703e91365ffcda"
    },
    "m_Name": "BluredColor (Custom Function)",
    "m_DrawState": {
        "m_Expanded": true,
        "m_Position": {
            "serializedVersion": "2",
            "x": -625.0,
            "y": 422.0,
            "width": 219.0,
            "height": 189.99998474121095
        }
    },
    "m_Slots": [
        {
            "m_Id": "88080baba3f84f18ab3f92f03146a85b"
        },
        {
            "m_Id": "cb887c0195e94840b3f1939fb97a852a"
        },
        {
            "m_Id": "e6da30f73f3d49b68b1c28903ab78b3e"
        },
        {
            "m_Id": "307e05e19491476bad91ef82d2bfb07c"
        },
        {
            "m_Id": "eb7a0f01db6c4e609b06b41c77df2493"
        },
        {
            "m_Id": "7e41fe9f868b4aeebd7f3d920750c7f6"
        }
    ],
    "synonyms": [],
    "m_Precision": 0,
    "m_PreviewExpanded": false,
    "m_PreviewMode": 0,
    "m_CustomColors": {
        "m_SerializableColors": []
    },
    "m_SourceType": 0,
    "m_FunctionName": "BluredColor",
    "m_FunctionSource": "c6fd03cbd9e6c87428642863811be2ba",
    "m_FunctionBody": "Enter function body here..."
}

{
    "m_SGVersion": 0,
    "m_Type": "UnityEditor.ShaderGraph.Vector1MaterialSlot",
    "m_ObjectId": "148cdb887d1048c1be779c1f1dccf425",
    "m_Id": 0,
    "m_DisplayName": "BlurX",
    "m_SlotType": 1,
    "m_Hidden": false,
    "m_ShaderOutputName": "Out",
    "m_StageCapability": 3,
    "m_Value": 0.0,
    "m_DefaultValue": 0.0,
    "m_Labels": []
}

{
    "m_SGVersion": 0,
    "m_Type": "UnityEditor.ShaderGraph.ScreenPositionMaterialSlot",
    "m_ObjectId": "14a413d0079f47fb9c80a982bf31be4c",
    "m_Id": 0,
    "m_DisplayName": "UV",
    "m_SlotType": 0,
    "m_Hidden": false,
    "m_ShaderOutputName": "UV",
    "m_StageCapability": 3,
    "m_Value": {
        "x": 0.0,
        "y": 0.0,
        "z": 0.0,
        "w": 0.0
    },
    "m_DefaultValue": {
        "x": 0.0,
        "y": 0.0,
        "z": 0.0,
        "w": 0.0
    },
    "m_Labels": [],
    "m_ScreenSpaceType": 0
}

{
    "m_SGVersion": 1,
    "m_Type": "UnityEditor.ShaderGraph.CustomFunctionNode",
    "m_ObjectId": "17b923a7ffab481398a379dfd8e40521",
    "m_Group": {
        "m_Id": "e03a74c82ee442e797b86f891261041c"
    },
    "m_Name": "BluredColor (Custom Function)",
    "m_DrawState": {
        "m_Expanded": true,
        "m_Position": {
            "serializedVersion": "2",
            "x": -581.0001220703125,
            "y": 1779.0,
            "width": 218.99998474121095,
            "height": 189.99998474121095
        }
    },
    "m_Slots": [
        {
            "m_Id": "d311a1b63f8b47eb86bc1aced645c975"
        },
        {
            "m_Id": "1e80b6ae43724d86837361ad2b69355c"
        },
        {
            "m_Id": "a2c5b28d42d742c8933c654a23c74135"
        },
        {
            "m_Id": "918f99d0788e447ba01301661acb102a"
        },
        {
            "m_Id": "73bd5853732648edbecc5b15e4766899"
        },
        {
            "m_Id": "4f311c6421404e8ea3394351b7f509fa"
        }
    ],
    "synonyms": [],
    "m_Precision": 0,
    "m_PreviewExpanded": false,
    "m_PreviewMode": 0,
    "m_CustomColors": {
        "m_SerializableColors": []
    },
    "m_SourceType": 0,
    "m_FunctionName": "BluredColor",
    "m_FunctionSource": "c6fd03cbd9e6c87428642863811be2ba",
    "m_FunctionBody": "Enter function body here..."
}

{
    "m_SGVersion": 0,
    "m_Type": "UnityEditor.ShaderGraph.PropertyNode",
    "m_ObjectId": "18d97efff76243f6905fa8c82f44ac06",
    "m_Group": {
        "m_Id": "67fa98f4bcf346998f198de89861602d"
    },
    "m_Name": "Property",
    "m_DrawState": {
        "m_Expanded": true,
        "m_Position": {
            "serializedVersion": "2",
            "x": -803.0001220703125,
            "y": 1261.0,
            "width": 103.0,
            "height": 34.0
        }
    },
    "m_Slots": [
        {
            "m_Id": "d2db43fa125946a49ccb21fca3656a40"
        }
    ],
    "synonyms": [],
    "m_Precision": 0,
    "m_PreviewExpanded": true,
    "m_PreviewMode": 0,
    "m_CustomColors": {
        "m_SerializableColors": []
    },
    "m_Property": {
        "m_Id": "db2a2c4448ca4d45a709a4172bdd17e9"
    }
}

{
    "m_SGVersion": 1,
    "m_Type": "UnityEditor.ShaderGraph.CustomFunctionNode",
    "m_ObjectId": "19d294f9e3dc4accbcc8a8dba7b854ad",
    "m_Group": {
        "m_Id": "1c39cf8e7e42454ebc9cdaf7bc1fa11e"
    },
    "m_Name": "BluredColor (Custom Function)",
    "m_DrawState": {
        "m_Expanded": true,
        "m_Position": {
            "serializedVersion": "2",
            "x": -610.9999389648438,
            "y": 785.0000610351563,
            "width": 219.00001525878907,
            "height": 190.0
        }
    },
    "m_Slots": [
        {
            "m_Id": "0935ecce1c304d90a5f399c6c1cd1d22"
        },
        {
            "m_Id": "e8a6300ab7af4c7b8cdc737e4b07ebf3"
        },
        {
            "m_Id": "03dd7070c0d14a9889b4e985caa3282a"
        },
        {
            "m_Id": "8e1e5c8d74a64e5eb0e7ae1df218331d"
        },
        {
            "m_Id": "0f23c2983456467e83d6a65189d06fc7"
        },
        {
            "m_Id": "f1305d2e5c814945b0ff09d2ee2d7574"
        }
    ],
    "synonyms": [],
    "m_Precision": 0,
    "m_PreviewExpanded": false,
    "m_PreviewMode": 0,
    "m_CustomColors": {
        "m_SerializableColors": []
    },
    "m_SourceType": 0,
    "m_FunctionName": "BluredColor",
    "m_FunctionSource": "c6fd03cbd9e6c87428642863811be2ba",
    "m_FunctionBody": "Enter function body here..."
}

{
    "m_SGVersion": 0,
    "m_Type": "UnityEditor.ShaderGraph.SceneColorNode",
    "m_ObjectId": "1a9c6e41267e46d08ddd812f81e36dbc",
    "m_Group": {
        "m_Id": "c8112ae8fc8646ef891c187c336c8bf9"
    },
    "m_Name": "Scene Color",
    "m_DrawState": {
        "m_Expanded": true,
        "m_Position": {
            "serializedVersion": "2",
            "x": -323.00018310546877,
            "y": 1482.0,
            "width": 138.0,
            "height": 77.0
        }
    },
    "m_Slots": [
        {
            "m_Id": "79eaf8bc4da241dc9ff3e9e1f3c15e1f"
        },
        {
            "m_Id": "28b6d775fdc04c088efbed226af5256d"
        }
    ],
    "synonyms": [],
    "m_Precision": 0,
    "m_PreviewExpanded": true,
    "m_PreviewMode": 0,
    "m_CustomColors": {
        "m_SerializableColors": []
    }
}

{
    "m_SGVersion": 0,
    "m_Type": "UnityEditor.ShaderGraph.GroupData",
    "m_ObjectId": "1c39cf8e7e42454ebc9cdaf7bc1fa11e",
    "m_Title": "Sample",
    "m_Position": {
        "x": -832.0,
        "y": 726.0000610351563
    }
}

{
    "m_SGVersion": 0,
    "m_Type": "UnityEditor.ShaderGraph.Vector3MaterialSlot",
    "m_ObjectId": "1d18bac351b34fc8845c145768426184",
    "m_Id": 1,
    "m_DisplayName": "Out",
    "m_SlotType": 1,
    "m_Hidden": false,
    "m_ShaderOutputName": "Out",
    "m_StageCapability": 2,
    "m_Value": {
        "x": 0.0,
        "y": 0.0,
        "z": 0.0
    },
    "m_DefaultValue": {
        "x": 0.0,
        "y": 0.0,
        "z": 0.0
    },
    "m_Labels": []
}

{
    "m_SGVersion": 0,
    "m_Type": "UnityEditor.ShaderGraph.Vector1MaterialSlot",
    "m_ObjectId": "1e80b6ae43724d86837361ad2b69355c",
    "m_Id": 1,
    "m_DisplayName": "Min",
    "m_SlotType": 0,
    "m_Hidden": false,
    "m_ShaderOutputName": "Min",
    "m_StageCapability": 3,
    "m_Value": 5.0,
    "m_DefaultValue": 0.0,
    "m_Labels": []
}

{
    "m_SGVersion": 0,
    "m_Type": "UnityEditor.ShaderGraph.Vector4MaterialSlot",
    "m_ObjectId": "1ed236dcf10640039722b20f6fdc7785",
    "m_Id": 0,
    "m_DisplayName": "Seed",
    "m_SlotType": 0,
    "m_Hidden": false,
    "m_ShaderOutputName": "Seed",
    "m_StageCapability": 3,
    "m_Value": {
        "x": 0.0,
        "y": 0.0,
        "z": 0.0,
        "w": 0.0
    },
    "m_DefaultValue": {
        "x": 0.0,
        "y": 0.0,
        "z": 0.0,
        "w": 0.0
    },
    "m_Labels": []
}

{
    "m_SGVersion": 0,
    "m_Type": "UnityEditor.ShaderGraph.Vector1MaterialSlot",
    "m_ObjectId": "200df0829ff14c358fa403cce89afd7d",
    "m_Id": 0,
    "m_DisplayName": "Out",
    "m_SlotType": 1,
    "m_Hidden": false,
    "m_ShaderOutputName": "Out",
    "m_StageCapability": 3,
    "m_Value": 0.0,
    "m_DefaultValue": 0.0,
    "m_Labels": []
}

{
    "m_SGVersion": 0,
    "m_Type": "UnityEditor.ShaderGraph.SceneColorNode",
    "m_ObjectId": "24d6a3f7adfa469691e076d794281aa2",
    "m_Group": {
        "m_Id": "e03a74c82ee442e797b86f891261041c"
    },
    "m_Name": "Scene Color",
    "m_DrawState": {
        "m_Expanded": true,
        "m_Position": {
            "serializedVersion": "2",
            "x": -322.99993896484377,
            "y": 1779.0,
            "width": 138.0,
            "height": 77.0
        }
    },
    "m_Slots": [
        {
            "m_Id": "61cf821592e940c3a65330e7d1992476"
        },
        {
            "m_Id": "bc859d73f669440080b5369a684b21d9"
        }
    ],
    "synonyms": [],
    "m_Precision": 0,
    "m_PreviewExpanded": true,
    "m_PreviewMode": 0,
    "m_CustomColors": {
        "m_SerializableColors": []
    }
}

{
    "m_SGVersion": 0,
    "m_Type": "UnityEditor.ShaderGraph.DynamicVectorMaterialSlot",
    "m_ObjectId": "25a811f3e8744593a5cd3e7c7bdde76d",
    "m_Id": 0,
    "m_DisplayName": "A",
    "m_SlotType": 0,
    "m_Hidden": false,
    "m_ShaderOutputName": "A",
    "m_StageCapability": 3,
    "m_Value": {
        "x": 0.0,
        "y": 0.0,
        "z": 0.0,
        "w": 0.0
    },
    "m_DefaultValue": {
        "x": 0.0,
        "y": 0.0,
        "z": 0.0,
        "w": 0.0
    }
}

{
    "m_SGVersion": 0,
    "m_Type": "UnityEditor.ShaderGraph.Vector3MaterialSlot",
    "m_ObjectId": "28b6d775fdc04c088efbed226af5256d",
    "m_Id": 1,
    "m_DisplayName": "Out",
    "m_SlotType": 1,
    "m_Hidden": false,
    "m_ShaderOutputName": "Out",
    "m_StageCapability": 2,
    "m_Value": {
        "x": 0.0,
        "y": 0.0,
        "z": 0.0
    },
    "m_DefaultValue": {
        "x": 0.0,
        "y": 0.0,
        "z": 0.0
    },
    "m_Labels": []
}

{
    "m_SGVersion": 0,
    "m_Type": "UnityEditor.ShaderGraph.SceneColorNode",
    "m_ObjectId": "2c661dd203bb40aa9773b3049ea93237",
    "m_Group": {
        "m_Id": "eb0066e0361b4a7c922a9b6d13fef521"
    },
    "m_Name": "Scene Color",
    "m_DrawState": {
        "m_Expanded": true,
        "m_Position": {
            "serializedVersion": "2",
            "x": -356.0000305175781,
            "y": 63.999996185302737,
            "width": 137.99998474121095,
            "height": 77.0
        }
    },
    "m_Slots": [
        {
            "m_Id": "14a413d0079f47fb9c80a982bf31be4c"
        },
        {
            "m_Id": "beb62e1a9c9447a381e09ac735c34f8e"
        }
    ],
    "synonyms": [],
    "m_Precision": 0,
    "m_PreviewExpanded": true,
    "m_PreviewMode": 0,
    "m_CustomColors": {
        "m_SerializableColors": []
    }
}

{
    "m_SGVersion": 0,
    "m_Type": "UnityEditor.ShaderGraph.Vector1MaterialSlot",
    "m_ObjectId": "2eaa4a9a218e40988f885610eea151e3",
    "m_Id": 0,
    "m_DisplayName": "BlurY",
    "m_SlotType": 1,
    "m_Hidden": false,
    "m_ShaderOutputName": "Out",
    "m_StageCapability": 3,
    "m_Value": 0.0,
    "m_DefaultValue": 0.0,
    "m_Labels": []
}

{
    "m_SGVersion": 0,
    "m_Type": "UnityEditor.ShaderGraph.Vector1MaterialSlot",
    "m_ObjectId": "2f21e58803294ef080f1a5fce63204fc",
    "m_Id": 4,
    "m_DisplayName": "BlurY",
    "m_SlotType": 0,
    "m_Hidden": false,
    "m_ShaderOutputName": "BlurY",
    "m_StageCapability": 3,
    "m_Value": 0.0,
    "m_DefaultValue": 0.0,
    "m_Labels": []
}

{
    "m_SGVersion": 0,
    "m_Type": "UnityEditor.ShaderGraph.DynamicVectorMaterialSlot",
    "m_ObjectId": "303d83c98d314176b6e12f14db34887d",
    "m_Id": 2,
    "m_DisplayName": "Out",
    "m_SlotType": 1,
    "m_Hidden": false,
    "m_ShaderOutputName": "Out",
    "m_StageCapability": 3,
    "m_Value": {
        "x": 0.0,
        "y": 0.0,
        "z": 0.0,
        "w": 0.0
    },
    "m_DefaultValue": {
        "x": 0.0,
        "y": 0.0,
        "z": 0.0,
        "w": 0.0
    }
}

{
    "m_SGVersion": 0,
    "m_Type": "UnityEditor.ShaderGraph.Vector1MaterialSlot",
    "m_ObjectId": "307e05e19491476bad91ef82d2bfb07c",
    "m_Id": 3,
    "m_DisplayName": "BlurX",
    "m_SlotType": 0,
    "m_Hidden": false,
    "m_ShaderOutputName": "BlurX",
    "m_StageCapability": 3,
    "m_Value": 0.0,
    "m_DefaultValue": 0.0,
    "m_Labels": []
}

{
    "m_SGVersion": 0,
    "m_Type": "UnityEditor.ShaderGraph.DynamicVectorMaterialSlot",
    "m_ObjectId": "31646c7b5d8948dc960e2c59c70de923",
    "m_Id": 1,
    "m_DisplayName": "B",
    "m_SlotType": 0,
    "m_Hidden": false,
    "m_ShaderOutputName": "B",
    "m_StageCapability": 3,
    "m_Value": {
        "x": 0.0,
        "y": 0.0,
        "z": 0.0,
        "w": 0.0
    },
    "m_DefaultValue": {
        "x": 0.0,
        "y": 0.0,
        "z": 0.0,
        "w": 0.0
    }
}

{
    "m_SGVersion": 0,
    "m_Type": "UnityEditor.ShaderGraph.DynamicVectorMaterialSlot",
    "m_ObjectId": "343b3ed4b56644cdacca8510750f2023",
    "m_Id": 0,
    "m_DisplayName": "A",
    "m_SlotType": 0,
    "m_Hidden": false,
    "m_ShaderOutputName": "A",
    "m_StageCapability": 3,
    "m_Value": {
        "x": 0.0,
        "y": 0.0,
        "z": 0.0,
        "w": 0.0
    },
    "m_DefaultValue": {
        "x": 0.0,
        "y": 0.0,
        "z": 0.0,
        "w": 0.0
    }
}

{
    "m_SGVersion": 0,
    "m_Type": "UnityEditor.ShaderGraph.PropertyNode",
    "m_ObjectId": "35b3cea4bcdf426a9f5b46e3a89ef8e5",
    "m_Group": {
        "m_Id": "c8112ae8fc8646ef891c187c336c8bf9"
    },
    "m_Name": "Property",
    "m_DrawState": {
        "m_Expanded": true,
        "m_Position": {
            "serializedVersion": "2",
            "x": -793.0001220703125,
            "y": 1638.0,
            "width": 103.0,
            "height": 34.0
        }
    },
    "m_Slots": [
        {
            "m_Id": "c619a927b31149918020d5258010c9e1"
        }
    ],
    "synonyms": [],
    "m_Precision": 0,
    "m_PreviewExpanded": true,
    "m_PreviewMode": 0,
    "m_CustomColors": {
        "m_SerializableColors": []
    },
    "m_Property": {
        "m_Id": "36a14c9e94dc479da67c10f488b5517c"
    }
}

{
    "m_SGVersion": 1,
    "m_Type": "UnityEditor.ShaderGraph.Internal.Vector1ShaderProperty",
    "m_ObjectId": "36a14c9e94dc479da67c10f488b5517c",
    "m_Guid": {
        "m_GuidSerialized": "436e17ba-b0d7-4268-9318-1b5492a6dc81"
    },
    "m_Name": "BlurY",
    "m_DefaultReferenceName": "Vector1_36a14c9e94dc479da67c10f488b5517c",
    "m_OverrideReferenceName": "_BlurY",
    "m_GeneratePropertyBlock": true,
    "m_Precision": 0,
    "overrideHLSLDeclaration": false,
    "hlslDeclarationOverride": 0,
    "m_Hidden": false,
    "m_Value": 0.0,
    "m_FloatType": 1,
    "m_RangeValues": {
        "x": 0.0,
        "y": 0.014999999664723874
    }
}

{
    "m_SGVersion": 0,
    "m_Type": "UnityEditor.ShaderGraph.DynamicVectorMaterialSlot",
    "m_ObjectId": "37f2ca3e041a426eb1dd7dfc4f85903b",
    "m_Id": 2,
    "m_DisplayName": "Out",
    "m_SlotType": 1,
    "m_Hidden": false,
    "m_ShaderOutputName": "Out",
    "m_StageCapability": 3,
    "m_Value": {
        "x": 0.0,
        "y": 0.0,
        "z": 0.0,
        "w": 0.0
    },
    "m_DefaultValue": {
        "x": 0.0,
        "y": 0.0,
        "z": 0.0,
        "w": 0.0
    }
}

{
    "m_SGVersion": 0,
    "m_Type": "UnityEditor.ShaderGraph.Vector1Node",
    "m_ObjectId": "39d41aa8e9a8407c885c24287e7435aa",
    "m_Group": {
        "m_Id": ""
    },
    "m_Name": "Float",
    "m_DrawState": {
        "m_Expanded": true,
        "m_Position": {
            "serializedVersion": "2",
            "x": 378.0000305175781,
            "y": 1055.0,
            "width": 126.0,
            "height": 77.0
        }
    },
    "m_Slots": [
        {
            "m_Id": "ec98e1c410af4714b4f52757b05fa20e"
        },
        {
            "m_Id": "200df0829ff14c358fa403cce89afd7d"
        }
    ],
    "synonyms": [
        "Vector 1"
    ],
    "m_Precision": 0,
    "m_PreviewExpanded": true,
    "m_PreviewMode": 0,
    "m_CustomColors": {
        "m_SerializableColors": []
    },
    "m_Value": 0.0
}

{
    "m_SGVersion": 0,
    "m_Type": "UnityEditor.ShaderGraph.PropertyNode",
    "m_ObjectId": "45d82e1aa2cd4468835d04ec8075185a",
    "m_Group": {
        "m_Id": "10c19e06a9e2453f80703e91365ffcda"
    },
    "m_Name": "Property",
    "m_DrawState": {
        "m_Expanded": true,
        "m_Position": {
            "serializedVersion": "2",
            "x": -820.9999389648438,
            "y": 533.0,
            "width": 103.0,
            "height": 34.0
        }
    },
    "m_Slots": [
        {
            "m_Id": "148cdb887d1048c1be779c1f1dccf425"
        }
    ],
    "synonyms": [],
    "m_Precision": 0,
    "m_PreviewExpanded": true,
    "m_PreviewMode": 0,
    "m_CustomColors": {
        "m_SerializableColors": []
    },
    "m_Property": {
        "m_Id": "db2a2c4448ca4d45a709a4172bdd17e9"
    }
}

{
    "m_SGVersion": 0,
    "m_Type": "UnityEditor.ShaderGraph.Vector1MaterialSlot",
    "m_ObjectId": "4665ddcc4c8a447394d87d26cf8d7a87",
    "m_Id": 4,
    "m_DisplayName": "BlurY",
    "m_SlotType": 0,
    "m_Hidden": false,
    "m_ShaderOutputName": "BlurY",
    "m_StageCapability": 3,
    "m_Value": 0.0,
    "m_DefaultValue": 0.0,
    "m_Labels": []
}

{
    "m_SGVersion": 0,
    "m_Type": "UnityEditor.ShaderGraph.PropertyNode",
    "m_ObjectId": "4ae314d62cbb42d1b05806c993b159d7",
    "m_Group": {
        "m_Id": "1c39cf8e7e42454ebc9cdaf7bc1fa11e"
    },
    "m_Name": "Property",
    "m_DrawState": {
        "m_Expanded": true,
        "m_Position": {
            "serializedVersion": "2",
            "x": -807.0,
            "y": 896.0,
            "width": 103.0,
            "height": 34.000003814697269
        }
    },
    "m_Slots": [
        {
            "m_Id": "b0b6073dcf4c474fbc8104833e352b1c"
        }
    ],
    "synonyms": [],
    "m_Precision": 0,
    "m_PreviewExpanded": true,
    "m_PreviewMode": 0,
    "m_CustomColors": {
        "m_SerializableColors": []
    },
    "m_Property": {
        "m_Id": "db2a2c4448ca4d45a709a4172bdd17e9"
    }
}

{
    "m_SGVersion": 0,
    "m_Type": "UnityEditor.ShaderGraph.Vector1MaterialSlot",
    "m_ObjectId": "4bf84ef8bb314823a8b1447e00db9fdd",
    "m_Id": 0,
    "m_DisplayName": "BlurY",
    "m_SlotType": 1,
    "m_Hidden": false,
    "m_ShaderOutputName": "Out",
    "m_StageCapability": 3,
    "m_Value": 0.0,
    "m_DefaultValue": 0.0,
    "m_Labels": []
}

{
    "m_SGVersion": 0,
    "m_Type": "UnityEditor.ShaderGraph.ScreenPositionMaterialSlot",
    "m_ObjectId": "4ca32d77d5284336bf434fee07520ed8",
    "m_Id": 0,
    "m_DisplayName": "UV",
    "m_SlotType": 0,
    "m_Hidden": false,
    "m_ShaderOutputName": "UV",
    "m_StageCapability": 3,
    "m_Value": {
        "x": 0.0,
        "y": 0.0,
        "z": 0.0,
        "w": 0.0
    },
    "m_DefaultValue": {
        "x": 0.0,
        "y": 0.0,
        "z": 0.0,
        "w": 0.0
    },
    "m_Labels": [],
    "m_ScreenSpaceType": 0
}

{
    "m_SGVersion": 0,
    "m_Type": "UnityEditor.ShaderGraph.Vector4MaterialSlot",
    "m_ObjectId": "4f311c6421404e8ea3394351b7f509fa",
    "m_Id": 5,
    "m_DisplayName": "Out",
    "m_SlotType": 1,
    "m_Hidden": false,
    "m_ShaderOutputName": "Out",
    "m_StageCapability": 3,
    "m_Value": {
        "x": 0.0,
        "y": 0.0,
        "z": 0.0,
        "w": 0.0
    },
    "m_DefaultValue": {
        "x": 0.0,
        "y": 0.0,
        "z": 0.0,
        "w": 0.0
    },
    "m_Labels": []
}

{
    "m_SGVersion": 0,
    "m_Type": "UnityEditor.ShaderGraph.DynamicVectorMaterialSlot",
    "m_ObjectId": "58efc6208c6545b2966708daf6525fd7",
    "m_Id": 0,
    "m_DisplayName": "A",
    "m_SlotType": 0,
    "m_Hidden": false,
    "m_ShaderOutputName": "A",
    "m_StageCapability": 3,
    "m_Value": {
        "x": 0.0,
        "y": 0.0,
        "z": 0.0,
        "w": 0.0
    },
    "m_DefaultValue": {
        "x": 0.0,
        "y": 0.0,
        "z": 0.0,
        "w": 0.0
    }
}

{
    "m_SGVersion": 0,
    "m_Type": "UnityEditor.ShaderGraph.PropertyNode",
    "m_ObjectId": "5999582fa9b74da1843c7b54bb5c63b3",
    "m_Group": {
        "m_Id": "c8112ae8fc8646ef891c187c336c8bf9"
    },
    "m_Name": "Property",
    "m_DrawState": {
        "m_Expanded": true,
        "m_Position": {
            "serializedVersion": "2",
            "x": -793.0001220703125,
            "y": 1593.0,
            "width": 103.0,
            "height": 34.0
        }
    },
    "m_Slots": [
        {
            "m_Id": "76356fddae3f442c8a16e19ba5103b27"
        }
    ],
    "synonyms": [],
    "m_Precision": 0,
    "m_PreviewExpanded": true,
    "m_PreviewMode": 0,
    "m_CustomColors": {
        "m_SerializableColors": []
    },
    "m_Property": {
        "m_Id": "db2a2c4448ca4d45a709a4172bdd17e9"
    }
}

{
    "m_SGVersion": 0,
    "m_Type": "UnityEditor.ShaderGraph.AddNode",
    "m_ObjectId": "5bb839aba51c4635ab1ae9257f1f06e9",
    "m_Group": {
        "m_Id": ""
    },
    "m_Name": "Add",
    "m_DrawState": {
        "m_Expanded": true,
        "m_Position": {
            "serializedVersion": "2",
            "x": 139.00001525878907,
            "y": 1227.0,
            "width": 130.0,
            "height": 118.00000762939453
        }
    },
    "m_Slots": [
        {
            "m_Id": "343b3ed4b56644cdacca8510750f2023"
        },
        {
            "m_Id": "e67992694e8c4961bd7424fccaaa8e3e"
        },
        {
            "m_Id": "303d83c98d314176b6e12f14db34887d"
        }
    ],
    "synonyms": [],
    "m_Precision": 0,
    "m_PreviewExpanded": false,
    "m_PreviewMode": 0,
    "m_CustomColors": {
        "m_SerializableColors": []
    }
}

{
    "m_SGVersion": 0,
    "m_Type": "UnityEditor.ShaderGraph.Vector1MaterialSlot",
    "m_ObjectId": "5be1e7d948574c3ebd6168c87b2d6ac2",
    "m_Id": 1,
    "m_DisplayName": "Min",
    "m_SlotType": 0,
    "m_Hidden": false,
    "m_ShaderOutputName": "Min",
    "m_StageCapability": 3,
    "m_Value": 3.0,
    "m_DefaultValue": 0.0,
    "m_Labels": []
}

{
    "m_SGVersion": 0,
    "m_Type": "UnityEditor.ShaderGraph.BlockNode",
    "m_ObjectId": "6062671f81fa4882817a13e45ff42a77",
    "m_Group": {
        "m_Id": ""
    },
    "m_Name": "VertexDescription.Normal",
    "m_DrawState": {
        "m_Expanded": true,
        "m_Position": {
            "serializedVersion": "2",
            "x": 0.0,
            "y": 0.0,
            "width": 0.0,
            "height": 0.0
        }
    },
    "m_Slots": [
        {
            "m_Id": "61bc7d1eddac4c729baddc49e86f920e"
        }
    ],
    "synonyms": [],
    "m_Precision": 0,
    "m_PreviewExpanded": true,
    "m_PreviewMode": 0,
    "m_CustomColors": {
        "m_SerializableColors": []
    },
    "m_SerializedDescriptor": "VertexDescription.Normal"
}

{
    "m_SGVersion": 0,
    "m_Type": "UnityEditor.ShaderGraph.NormalMaterialSlot",
    "m_ObjectId": "61bc7d1eddac4c729baddc49e86f920e",
    "m_Id": 0,
    "m_DisplayName": "Normal",
    "m_SlotType": 0,
    "m_Hidden": false,
    "m_ShaderOutputName": "Normal",
    "m_StageCapability": 1,
    "m_Value": {
        "x": 0.0,
        "y": 0.0,
        "z": 0.0
    },
    "m_DefaultValue": {
        "x": 0.0,
        "y": 0.0,
        "z": 0.0
    },
    "m_Labels": [],
    "m_Space": 0
}

{
    "m_SGVersion": 0,
    "m_Type": "UnityEditor.ShaderGraph.ScreenPositionMaterialSlot",
    "m_ObjectId": "61cf821592e940c3a65330e7d1992476",
    "m_Id": 0,
    "m_DisplayName": "UV",
    "m_SlotType": 0,
    "m_Hidden": false,
    "m_ShaderOutputName": "UV",
    "m_StageCapability": 3,
    "m_Value": {
        "x": 0.0,
        "y": 0.0,
        "z": 0.0,
        "w": 0.0
    },
    "m_DefaultValue": {
        "x": 0.0,
        "y": 0.0,
        "z": 0.0,
        "w": 0.0
    },
    "m_Labels": [],
    "m_ScreenSpaceType": 0
}

{
    "m_SGVersion": 0,
    "m_Type": "UnityEditor.ShaderGraph.Vector1MaterialSlot",
    "m_ObjectId": "639b07310be14dfd999569aa54596f43",
    "m_Id": 4,
    "m_DisplayName": "BlurY",
    "m_SlotType": 0,
    "m_Hidden": false,
    "m_ShaderOutputName": "BlurY",
    "m_StageCapability": 3,
    "m_Value": 0.0,
    "m_DefaultValue": 0.0,
    "m_Labels": []
}

{
    "m_SGVersion": 0,
    "m_Type": "UnityEditor.ShaderGraph.Vector1MaterialSlot",
    "m_ObjectId": "6593bdf63ba048fcbc9fe930421d87df",
    "m_Id": 3,
    "m_DisplayName": "BlurX",
    "m_SlotType": 0,
    "m_Hidden": false,
    "m_ShaderOutputName": "BlurX",
    "m_StageCapability": 3,
    "m_Value": 0.0,
    "m_DefaultValue": 0.0,
    "m_Labels": []
}

{
    "m_SGVersion": 0,
    "m_Type": "UnityEditor.ShaderGraph.DynamicVectorMaterialSlot",
    "m_ObjectId": "67a585b1c7644b8a9856a0dd39fc71af",
    "m_Id": 0,
    "m_DisplayName": "A",
    "m_SlotType": 0,
    "m_Hidden": false,
    "m_ShaderOutputName": "A",
    "m_StageCapability": 3,
    "m_Value": {
        "x": 0.0,
        "y": 0.0,
        "z": 0.0,
        "w": 0.0
    },
    "m_DefaultValue": {
        "x": 0.0,
        "y": 0.0,
        "z": 0.0,
        "w": 0.0
    }
}

{
    "m_SGVersion": 0,
    "m_Type": "UnityEditor.ShaderGraph.GroupData",
    "m_ObjectId": "67fa98f4bcf346998f198de89861602d",
    "m_Title": "Sample",
    "m_Position": {
        "x": -828.0,
        "y": 1091.0001220703125
    }
}

{
    "m_SGVersion": 0,
    "m_Type": "UnityEditor.ShaderGraph.PropertyNode",
    "m_ObjectId": "68bf6b92899747f0b5c03fb050df6d0e",
    "m_Group": {
        "m_Id": "10c19e06a9e2453f80703e91365ffcda"
    },
    "m_Name": "Property",
    "m_DrawState": {
        "m_Expanded": true,
        "m_Position": {
            "serializedVersion": "2",
            "x": -820.9999389648438,
            "y": 578.0,
            "width": 103.0,
            "height": 34.0
        }
    },
    "m_Slots": [
        {
            "m_Id": "4bf84ef8bb314823a8b1447e00db9fdd"
        }
    ],
    "synonyms": [],
    "m_Precision": 0,
    "m_PreviewExpanded": true,
    "m_PreviewMode": 0,
    "m_CustomColors": {
        "m_SerializableColors": []
    },
    "m_Property": {
        "m_Id": "36a14c9e94dc479da67c10f488b5517c"
    }
}

{
    "m_SGVersion": 0,
    "m_Type": "UnityEditor.ShaderGraph.Vector1MaterialSlot",
    "m_ObjectId": "6b217f4932c2473fbf3f2649af42a9aa",
    "m_Id": 2,
    "m_DisplayName": "Max",
    "m_SlotType": 0,
    "m_Hidden": false,
    "m_ShaderOutputName": "Max",
    "m_StageCapability": 3,
    "m_Value": 5.0,
    "m_DefaultValue": 0.0,
    "m_Labels": []
}

{
    "m_SGVersion": 0,
    "m_Type": "UnityEditor.ShaderGraph.DynamicVectorMaterialSlot",
    "m_ObjectId": "6b62d87798e843c8b0971c67abca2139",
    "m_Id": 2,
    "m_DisplayName": "Out",
    "m_SlotType": 1,
    "m_Hidden": false,
    "m_ShaderOutputName": "Out",
    "m_StageCapability": 3,
    "m_Value": {
        "x": 0.0,
        "y": 0.0,
        "z": 0.0,
        "w": 0.0
    },
    "m_DefaultValue": {
        "x": 0.0,
        "y": 0.0,
        "z": 0.0,
        "w": 0.0
    }
}

{
    "m_SGVersion": 0,
    "m_Type": "UnityEditor.ShaderGraph.Vector4MaterialSlot",
    "m_ObjectId": "6fe6396ed94d4f3786a206041b7d615e",
    "m_Id": 5,
    "m_DisplayName": "Out",
    "m_SlotType": 1,
    "m_Hidden": false,
    "m_ShaderOutputName": "Out",
    "m_StageCapability": 3,
    "m_Value": {
        "x": 0.0,
        "y": 0.0,
        "z": 0.0,
        "w": 0.0
    },
    "m_DefaultValue": {
        "x": 0.0,
        "y": 0.0,
        "z": 0.0,
        "w": 0.0
    },
    "m_Labels": []
}

{
    "m_SGVersion": 0,
    "m_Type": "UnityEditor.ShaderGraph.Vector1MaterialSlot",
    "m_ObjectId": "73bd5853732648edbecc5b15e4766899",
    "m_Id": 4,
    "m_DisplayName": "BlurY",
    "m_SlotType": 0,
    "m_Hidden": false,
    "m_ShaderOutputName": "BlurY",
    "m_StageCapability": 3,
    "m_Value": 0.0,
    "m_DefaultValue": 0.0,
    "m_Labels": []
}

{
    "m_SGVersion": 0,
    "m_Type": "UnityEditor.ShaderGraph.Vector1MaterialSlot",
    "m_ObjectId": "76356fddae3f442c8a16e19ba5103b27",
    "m_Id": 0,
    "m_DisplayName": "BlurX",
    "m_SlotType": 1,
    "m_Hidden": false,
    "m_ShaderOutputName": "Out",
    "m_StageCapability": 3,
    "m_Value": 0.0,
    "m_DefaultValue": 0.0,
    "m_Labels": []
}

{
    "m_SGVersion": 0,
    "m_Type": "UnityEditor.ShaderGraph.ScreenPositionMaterialSlot",
    "m_ObjectId": "78b5c11f7f3c468782028a545a5c83f2",
    "m_Id": 0,
    "m_DisplayName": "UV",
    "m_SlotType": 0,
    "m_Hidden": false,
    "m_ShaderOutputName": "UV",
    "m_StageCapability": 3,
    "m_Value": {
        "x": 0.0,
        "y": 0.0,
        "z": 0.0,
        "w": 0.0
    },
    "m_DefaultValue": {
        "x": 0.0,
        "y": 0.0,
        "z": 0.0,
        "w": 0.0
    },
    "m_Labels": [],
    "m_ScreenSpaceType": 0
}

{
    "m_SGVersion": 0,
    "m_Type": "UnityEditor.ShaderGraph.PropertyNode",
    "m_ObjectId": "79a1f3a2e77840af9b97bb860c03a1b7",
    "m_Group": {
        "m_Id": "e03a74c82ee442e797b86f891261041c"
    },
    "m_Name": "Property",
    "m_DrawState": {
        "m_Expanded": true,
        "m_Position": {
            "serializedVersion": "2",
            "x": -776.9998779296875,
            "y": 1934.9998779296875,
            "width": 103.0,
            "height": 34.0
        }
    },
    "m_Slots": [
        {
            "m_Id": "1159ec2476fb4f63b6e54b630309b23c"
        }
    ],
    "synonyms": [],
    "m_Precision": 0,
    "m_PreviewExpanded": true,
    "m_PreviewMode": 0,
    "m_CustomColors": {
        "m_SerializableColors": []
    },
    "m_Property": {
        "m_Id": "36a14c9e94dc479da67c10f488b5517c"
    }
}

{
    "m_SGVersion": 0,
    "m_Type": "UnityEditor.ShaderGraph.Vector1MaterialSlot",
    "m_ObjectId": "79c0f325ace54f6d80e080493bd49889",
    "m_Id": 0,
    "m_DisplayName": "BlurY",
    "m_SlotType": 1,
    "m_Hidden": false,
    "m_ShaderOutputName": "Out",
    "m_StageCapability": 3,
    "m_Value": 0.0,
    "m_DefaultValue": 0.0,
    "m_Labels": []
}

{
    "m_SGVersion": 0,
    "m_Type": "UnityEditor.ShaderGraph.ScreenPositionMaterialSlot",
    "m_ObjectId": "79eaf8bc4da241dc9ff3e9e1f3c15e1f",
    "m_Id": 0,
    "m_DisplayName": "UV",
    "m_SlotType": 0,
    "m_Hidden": false,
    "m_ShaderOutputName": "UV",
    "m_StageCapability": 3,
    "m_Value": {
        "x": 0.0,
        "y": 0.0,
        "z": 0.0,
        "w": 0.0
    },
    "m_DefaultValue": {
        "x": 0.0,
        "y": 0.0,
        "z": 0.0,
        "w": 0.0
    },
    "m_Labels": [],
    "m_ScreenSpaceType": 0
}

{
    "m_SGVersion": 0,
    "m_Type": "UnityEditor.ShaderGraph.DivideNode",
    "m_ObjectId": "7c5fe6d880b94f439113527493f074a1",
    "m_Group": {
        "m_Id": ""
    },
    "m_Name": "Divide",
    "m_DrawState": {
        "m_Expanded": true,
        "m_Position": {
            "serializedVersion": "2",
            "x": 546.0,
            "y": 945.0,
            "width": 126.0,
            "height": 118.0
        }
    },
    "m_Slots": [
        {
            "m_Id": "d45663afaea24479a16ffbfc522cbf83"
        },
        {
            "m_Id": "b79a1a92d0e6475fbe9985a008106f7d"
        },
        {
            "m_Id": "efc96289d2634eb2b655301934913663"
        }
    ],
    "synonyms": [],
    "m_Precision": 0,
    "m_PreviewExpanded": false,
    "m_PreviewMode": 0,
    "m_CustomColors": {
        "m_SerializableColors": []
    }
}

{
    "m_SGVersion": 0,
    "m_Type": "UnityEditor.ShaderGraph.Vector1MaterialSlot",
    "m_ObjectId": "7cb4a05759aa48ed9e189d8b6976af03",
    "m_Id": 1,
    "m_DisplayName": "Min",
    "m_SlotType": 0,
    "m_Hidden": false,
    "m_ShaderOutputName": "Min",
    "m_StageCapability": 3,
    "m_Value": 4.0,
    "m_DefaultValue": 0.0,
    "m_Labels": []
}

{
    "m_SGVersion": 0,
    "m_Type": "UnityEditor.ShaderGraph.Vector4MaterialSlot",
    "m_ObjectId": "7e41fe9f868b4aeebd7f3d920750c7f6",
    "m_Id": 5,
    "m_DisplayName": "Out",
    "m_SlotType": 1,
    "m_Hidden": false,
    "m_ShaderOutputName": "Out",
    "m_StageCapability": 3,
    "m_Value": {
        "x": 0.0,
        "y": 0.0,
        "z": 0.0,
        "w": 0.0
    },
    "m_DefaultValue": {
        "x": 0.0,
        "y": 0.0,
        "z": 0.0,
        "w": 0.0
    },
    "m_Labels": []
}

{
    "m_SGVersion": 0,
    "m_Type": "UnityEditor.ShaderGraph.Vector1MaterialSlot",
    "m_ObjectId": "7fbb256d3cf7481f850a5d6586cc2c2b",
    "m_Id": 0,
    "m_DisplayName": "BlurY",
    "m_SlotType": 1,
    "m_Hidden": false,
    "m_ShaderOutputName": "Out",
    "m_StageCapability": 3,
    "m_Value": 0.0,
    "m_DefaultValue": 0.0,
    "m_Labels": []
}

{
    "m_SGVersion": 0,
    "m_Type": "UnityEditor.ShaderGraph.PropertyNode",
    "m_ObjectId": "80d9a3b4241446a4bb12b6d7414603e6",
    "m_Group": {
        "m_Id": "eb0066e0361b4a7c922a9b6d13fef521"
    },
    "m_Name": "Property",
    "m_DrawState": {
        "m_Expanded": true,
        "m_Position": {
            "serializedVersion": "2",
            "x": -825.9999389648438,
            "y": 219.99996948242188,
            "width": 103.0,
            "height": 34.0
        }
    },
    "m_Slots": [
        {
            "m_Id": "7fbb256d3cf7481f850a5d6586cc2c2b"
        }
    ],
    "synonyms": [],
    "m_Precision": 0,
    "m_PreviewExpanded": true,
    "m_PreviewMode": 0,
    "m_CustomColors": {
        "m_SerializableColors": []
    },
    "m_Property": {
        "m_Id": "36a14c9e94dc479da67c10f488b5517c"
    }
}

{
    "m_SGVersion": 0,
    "m_Type": "UnityEditor.ShaderGraph.Vector4MaterialSlot",
    "m_ObjectId": "8513270de9d3443facf0b36cfc06648a",
    "m_Id": 5,
    "m_DisplayName": "Out",
    "m_SlotType": 1,
    "m_Hidden": false,
    "m_ShaderOutputName": "Out",
    "m_StageCapability": 3,
    "m_Value": {
        "x": 0.0,
        "y": 0.0,
        "z": 0.0,
        "w": 0.0
    },
    "m_DefaultValue": {
        "x": 0.0,
        "y": 0.0,
        "z": 0.0,
        "w": 0.0
    },
    "m_Labels": []
}

{
    "m_SGVersion": 0,
    "m_Type": "UnityEditor.ShaderGraph.Vector4MaterialSlot",
    "m_ObjectId": "88080baba3f84f18ab3f92f03146a85b",
    "m_Id": 0,
    "m_DisplayName": "Seed",
    "m_SlotType": 0,
    "m_Hidden": false,
    "m_ShaderOutputName": "Seed",
    "m_StageCapability": 3,
    "m_Value": {
        "x": 0.0,
        "y": 0.0,
        "z": 0.0,
        "w": 0.0
    },
    "m_DefaultValue": {
        "x": 0.0,
        "y": 0.0,
        "z": 0.0,
        "w": 0.0
    },
    "m_Labels": []
}

{
    "m_SGVersion": 0,
    "m_Type": "UnityEditor.ShaderGraph.ScreenPositionNode",
    "m_ObjectId": "887d3658d96e4e64a8427b630ab898a5",
    "m_Group": {
        "m_Id": ""
    },
    "m_Name": "Screen Position",
    "m_DrawState": {
        "m_Expanded": true,
        "m_Position": {
            "serializedVersion": "2",
            "x": -1401.0,
            "y": 720.0,
            "width": 145.00001525878907,
            "height": 130.0
        }
    },
    "m_Slots": [
        {
            "m_Id": "a3e8165d4dff4df8b11857000497f126"
        }
    ],
    "synonyms": [],
    "m_Precision": 0,
    "m_PreviewExpanded": false,
    "m_PreviewMode": 0,
    "m_CustomColors": {
        "m_SerializableColors": []
    },
    "m_ScreenSpaceType": 0
}

{
    "m_SGVersion": 0,
    "m_Type": "UnityEditor.ShaderGraph.AddNode",
    "m_ObjectId": "8d3be456850b4a4a9f8641e0c05edc5a",
    "m_Group": {
        "m_Id": ""
    },
    "m_Name": "Add",
    "m_DrawState": {
        "m_Expanded": true,
        "m_Position": {
            "serializedVersion": "2",
            "x": -49.000091552734378,
            "y": 975.0,
            "width": 130.0,
            "height": 118.0
        }
    },
    "m_Slots": [
        {
            "m_Id": "58efc6208c6545b2966708daf6525fd7"
        },
        {
            "m_Id": "e815bc93674a471e9f431fcb31fcb30f"
        },
        {
            "m_Id": "d8b6bfa273a24f9e8851590829e2ae27"
        }
    ],
    "synonyms": [],
    "m_Precision": 0,
    "m_PreviewExpanded": false,
    "m_PreviewMode": 0,
    "m_CustomColors": {
        "m_SerializableColors": []
    }
}

{
    "m_SGVersion": 0,
    "m_Type": "UnityEditor.ShaderGraph.BlockNode",
    "m_ObjectId": "8dc6d427ae5c40808c49480ed6fdc60b",
    "m_Group": {
        "m_Id": ""
    },
    "m_Name": "SurfaceDescription.BaseColor",
    "m_DrawState": {
        "m_Expanded": true,
        "m_Position": {
            "serializedVersion": "2",
            "x": 0.0,
            "y": 0.0,
            "width": 0.0,
            "height": 0.0
        }
    },
    "m_Slots": [
        {
            "m_Id": "d3fbd609ec4d40ecbd1a424abacd30aa"
        }
    ],
    "synonyms": [],
    "m_Precision": 0,
    "m_PreviewExpanded": true,
    "m_PreviewMode": 0,
    "m_CustomColors": {
        "m_SerializableColors": []
    },
    "m_SerializedDescriptor": "SurfaceDescription.BaseColor"
}

{
    "m_SGVersion": 0,
    "m_Type": "UnityEditor.ShaderGraph.Vector1MaterialSlot",
    "m_ObjectId": "8e1e5c8d74a64e5eb0e7ae1df218331d",
    "m_Id": 3,
    "m_DisplayName": "BlurX",
    "m_SlotType": 0,
    "m_Hidden": false,
    "m_ShaderOutputName": "BlurX",
    "m_StageCapability": 3,
    "m_Value": 0.0,
    "m_DefaultValue": 0.0,
    "m_Labels": []
}

{
    "m_SGVersion": 0,
    "m_Type": "UnityEditor.ShaderGraph.Vector1MaterialSlot",
    "m_ObjectId": "90bdcde1c9c040fab23e3e0af951609c",
    "m_Id": 0,
    "m_DisplayName": "BlurX",
    "m_SlotType": 1,
    "m_Hidden": false,
    "m_ShaderOutputName": "Out",
    "m_StageCapability": 3,
    "m_Value": 0.0,
    "m_DefaultValue": 0.0,
    "m_Labels": []
}

{
    "m_SGVersion": 0,
    "m_Type": "UnityEditor.ShaderGraph.AddNode",
    "m_ObjectId": "916a1ac85976423a9b04fe0ebcc0873a",
    "m_Group": {
        "m_Id": ""
    },
    "m_Name": "Add",
    "m_DrawState": {
        "m_Expanded": true,
        "m_Position": {
            "serializedVersion": "2",
            "x": -48.99998474121094,
            "y": 1627.0,
            "width": 130.0,
            "height": 118.0
        }
    },
    "m_Slots": [
        {
            "m_Id": "67a585b1c7644b8a9856a0dd39fc71af"
        },
        {
            "m_Id": "31646c7b5d8948dc960e2c59c70de923"
        },
        {
            "m_Id": "37f2ca3e041a426eb1dd7dfc4f85903b"
        }
    ],
    "synonyms": [],
    "m_Precision": 0,
    "m_PreviewExpanded": false,
    "m_PreviewMode": 0,
    "m_CustomColors": {
        "m_SerializableColors": []
    }
}

{
    "m_SGVersion": 0,
    "m_Type": "UnityEditor.ShaderGraph.Vector1MaterialSlot",
    "m_ObjectId": "918f99d0788e447ba01301661acb102a",
    "m_Id": 3,
    "m_DisplayName": "BlurX",
    "m_SlotType": 0,
    "m_Hidden": false,
    "m_ShaderOutputName": "BlurX",
    "m_StageCapability": 3,
    "m_Value": 0.0,
    "m_DefaultValue": 0.0,
    "m_Labels": []
}

{
    "m_SGVersion": 0,
    "m_Type": "UnityEditor.ShaderGraph.Vector1MaterialSlot",
    "m_ObjectId": "93ece970e38c4834a163c17d536b72c0",
    "m_Id": 0,
    "m_DisplayName": "BlurX",
    "m_SlotType": 1,
    "m_Hidden": false,
    "m_ShaderOutputName": "Out",
    "m_StageCapability": 3,
    "m_Value": 0.0,
    "m_DefaultValue": 0.0,
    "m_Labels": []
}

{
    "m_SGVersion": 0,
    "m_Type": "UnityEditor.ShaderGraph.BlockNode",
    "m_ObjectId": "94fb217ea73e4b3ebb63b6340c9e9cd2",
    "m_Group": {
        "m_Id": ""
    },
    "m_Name": "SurfaceDescription.Alpha",
    "m_DrawState": {
        "m_Expanded": true,
        "m_Position": {
            "serializedVersion": "2",
            "x": 0.0,
            "y": 0.0,
            "width": 0.0,
            "height": 0.0
        }
    },
    "m_Slots": [
        {
            "m_Id": "9a2df5d034714c399825cd4e27011648"
        }
    ],
    "synonyms": [],
    "m_Precision": 0,
    "m_PreviewExpanded": true,
    "m_PreviewMode": 0,
    "m_CustomColors": {
        "m_SerializableColors": []
    },
    "m_SerializedDescriptor": "SurfaceDescription.Alpha"
}

{
    "m_SGVersion": 0,
    "m_Type": "UnityEditor.ShaderGraph.Vector1MaterialSlot",
    "m_ObjectId": "9a2df5d034714c399825cd4e27011648",
    "m_Id": 0,
    "m_DisplayName": "Alpha",
    "m_SlotType": 0,
    "m_Hidden": false,
    "m_ShaderOutputName": "Alpha",
    "m_StageCapability": 2,
    "m_Value": 1.0,
    "m_DefaultValue": 1.0,
    "m_Labels": []
}

{
    "m_SGVersion": 0,
    "m_Type": "UnityEditor.ShaderGraph.PropertyNode",
    "m_ObjectId": "9d371d24cbda4bd58f5e918ca944fcaa",
    "m_Group": {
        "m_Id": "e03a74c82ee442e797b86f891261041c"
    },
    "m_Name": "Property",
    "m_DrawState": {
        "m_Expanded": true,
        "m_Position": {
            "serializedVersion": "2",
            "x": -776.9998779296875,
            "y": 1889.9998779296875,
            "width": 103.0,
            "height": 34.0
        }
    },
    "m_Slots": [
        {
            "m_Id": "93ece970e38c4834a163c17d536b72c0"
        }
    ],
    "synonyms": [],
    "m_Precision": 0,
    "m_PreviewExpanded": true,
    "m_PreviewMode": 0,
    "m_CustomColors": {
        "m_SerializableColors": []
    },
    "m_Property": {
        "m_Id": "db2a2c4448ca4d45a709a4172bdd17e9"
    }
}

{
    "m_SGVersion": 0,
    "m_Type": "UnityEditor.ShaderGraph.Vector1MaterialSlot",
    "m_ObjectId": "a2c5b28d42d742c8933c654a23c74135",
    "m_Id": 2,
    "m_DisplayName": "Max",
    "m_SlotType": 0,
    "m_Hidden": false,
    "m_ShaderOutputName": "Max",
    "m_StageCapability": 3,
    "m_Value": 6.0,
    "m_DefaultValue": 0.0,
    "m_Labels": []
}

{
    "m_SGVersion": 0,
    "m_Type": "UnityEditor.ShaderGraph.Vector4MaterialSlot",
    "m_ObjectId": "a3e8165d4dff4df8b11857000497f126",
    "m_Id": 0,
    "m_DisplayName": "Out",
    "m_SlotType": 1,
    "m_Hidden": false,
    "m_ShaderOutputName": "Out",
    "m_StageCapability": 3,
    "m_Value": {
        "x": 0.0,
        "y": 0.0,
        "z": 0.0,
        "w": 0.0
    },
    "m_DefaultValue": {
        "x": 0.0,
        "y": 0.0,
        "z": 0.0,
        "w": 0.0
    },
    "m_Labels": []
}

{
    "m_SGVersion": 0,
    "m_Type": "UnityEditor.ShaderGraph.Vector1MaterialSlot",
    "m_ObjectId": "b0b6073dcf4c474fbc8104833e352b1c",
    "m_Id": 0,
    "m_DisplayName": "BlurX",
    "m_SlotType": 1,
    "m_Hidden": false,
    "m_ShaderOutputName": "Out",
    "m_StageCapability": 3,
    "m_Value": 0.0,
    "m_DefaultValue": 0.0,
    "m_Labels": []
}

{
    "m_SGVersion": 0,
    "m_Type": "UnityEditor.ShaderGraph.SceneColorNode",
    "m_ObjectId": "b11cf83e822647d187639d8b180771df",
    "m_Group": {
        "m_Id": "1c39cf8e7e42454ebc9cdaf7bc1fa11e"
    },
    "m_Name": "Scene Color",
    "m_DrawState": {
        "m_Expanded": true,
        "m_Position": {
            "serializedVersion": "2",
            "x": -337.0,
            "y": 785.0000610351563,
            "width": 138.0,
            "height": 77.0
        }
    },
    "m_Slots": [
        {
            "m_Id": "78b5c11f7f3c468782028a545a5c83f2"
        },
        {
            "m_Id": "c5f3a1689bfe4b66b493ed944042cd19"
        }
    ],
    "synonyms": [],
    "m_Precision": 0,
    "m_PreviewExpanded": true,
    "m_PreviewMode": 0,
    "m_CustomColors": {
        "m_SerializableColors": []
    }
}

{
    "m_SGVersion": 1,
    "m_Type": "UnityEditor.ShaderGraph.CustomFunctionNode",
    "m_ObjectId": "b45146b61d99413fba9a8b124e0827c0",
    "m_Group": {
        "m_Id": "eb0066e0361b4a7c922a9b6d13fef521"
    },
    "m_Name": "BluredColor (Custom Function)",
    "m_DrawState": {
        "m_Expanded": true,
        "m_Position": {
            "serializedVersion": "2",
            "x": -630.0,
            "y": 63.999996185302737,
            "width": 219.0,
            "height": 189.99998474121095
        }
    },
    "m_Slots": [
        {
            "m_Id": "fdf3f6d3ea92496a90fdda5def548aac"
        },
        {
            "m_Id": "efc07c4d041d43f6ad840c77ccbf9310"
        },
        {
            "m_Id": "d5568f81feb4449db36a165720b56ffb"
        },
        {
            "m_Id": "110af44e082a45e4a14ba30741ebe9b0"
        },
        {
            "m_Id": "4665ddcc4c8a447394d87d26cf8d7a87"
        },
        {
            "m_Id": "6fe6396ed94d4f3786a206041b7d615e"
        }
    ],
    "synonyms": [],
    "m_Precision": 0,
    "m_PreviewExpanded": false,
    "m_PreviewMode": 0,
    "m_CustomColors": {
        "m_SerializableColors": []
    },
    "m_SourceType": 0,
    "m_FunctionName": "BluredColor",
    "m_FunctionSource": "c6fd03cbd9e6c87428642863811be2ba",
    "m_FunctionBody": "Enter function body here..."
}

{
    "m_SGVersion": 1,
    "m_Type": "UnityEditor.ShaderGraph.CustomFunctionNode",
    "m_ObjectId": "b67786c3304541f3897462d500a66524",
    "m_Group": {
        "m_Id": "c8112ae8fc8646ef891c187c336c8bf9"
    },
    "m_Name": "BluredColor (Custom Function)",
    "m_DrawState": {
        "m_Expanded": true,
        "m_Position": {
            "serializedVersion": "2",
            "x": -597.0001220703125,
            "y": 1482.0,
            "width": 219.0,
            "height": 190.0
        }
    },
    "m_Slots": [
        {
            "m_Id": "0aef85d445f844b991f9c78cd358340f"
        },
        {
            "m_Id": "7cb4a05759aa48ed9e189d8b6976af03"
        },
        {
            "m_Id": "6b217f4932c2473fbf3f2649af42a9aa"
        },
        {
            "m_Id": "deab2d0d56aa4346a38cd53188380dcc"
        },
        {
            "m_Id": "639b07310be14dfd999569aa54596f43"
        },
        {
            "m_Id": "8513270de9d3443facf0b36cfc06648a"
        }
    ],
    "synonyms": [],
    "m_Precision": 0,
    "m_PreviewExpanded": false,
    "m_PreviewMode": 0,
    "m_CustomColors": {
        "m_SerializableColors": []
    },
    "m_SourceType": 0,
    "m_FunctionName": "BluredColor",
    "m_FunctionSource": "c6fd03cbd9e6c87428642863811be2ba",
    "m_FunctionBody": "Enter function body here..."
}

{
    "m_SGVersion": 0,
    "m_Type": "UnityEditor.ShaderGraph.ScreenPositionMaterialSlot",
    "m_ObjectId": "b6bdee43933e43d586a6469aba3c3d15",
    "m_Id": 0,
    "m_DisplayName": "UV",
    "m_SlotType": 0,
    "m_Hidden": false,
    "m_ShaderOutputName": "UV",
    "m_StageCapability": 3,
    "m_Value": {
        "x": 0.0,
        "y": 0.0,
        "z": 0.0,
        "w": 0.0
    },
    "m_DefaultValue": {
        "x": 0.0,
        "y": 0.0,
        "z": 0.0,
        "w": 0.0
    },
    "m_Labels": [],
    "m_ScreenSpaceType": 0
}

{
    "m_SGVersion": 0,
    "m_Type": "UnityEditor.ShaderGraph.DynamicVectorMaterialSlot",
    "m_ObjectId": "b79a1a92d0e6475fbe9985a008106f7d",
    "m_Id": 1,
    "m_DisplayName": "B",
    "m_SlotType": 0,
    "m_Hidden": false,
    "m_ShaderOutputName": "B",
    "m_StageCapability": 3,
    "m_Value": {
        "x": 2.0,
        "y": 2.0,
        "z": 2.0,
        "w": 2.0
    },
    "m_DefaultValue": {
        "x": 0.0,
        "y": 0.0,
        "z": 0.0,
        "w": 0.0
    }
}

{
    "m_SGVersion": 0,
    "m_Type": "UnityEditor.ShaderGraph.Vector1MaterialSlot",
    "m_ObjectId": "bb2326db652d42ffb26958bdb0a79040",
    "m_Id": 2,
    "m_DisplayName": "Max",
    "m_SlotType": 0,
    "m_Hidden": false,
    "m_ShaderOutputName": "Max",
    "m_StageCapability": 3,
    "m_Value": 4.0,
    "m_DefaultValue": 0.0,
    "m_Labels": []
}

{
    "m_SGVersion": 0,
    "m_Type": "UnityEditor.ShaderGraph.AddNode",
    "m_ObjectId": "bc2d34e20cae4a13ba683f5e49ba9998",
    "m_Group": {
        "m_Id": ""
    },
    "m_Name": "Add",
    "m_DrawState": {
        "m_Expanded": true,
        "m_Position": {
            "serializedVersion": "2",
            "x": -48.99997329711914,
            "y": 254.0,
            "width": 130.0,
            "height": 118.0
        }
    },
    "m_Slots": [
        {
            "m_Id": "d2f72d8325f840ab84fdc544eaf66159"
        },
        {
            "m_Id": "c491280e8da9445fb3c408b7d54a8bef"
        },
        {
            "m_Id": "beae6e20f080460a917b6bb674fe8944"
        }
    ],
    "synonyms": [],
    "m_Precision": 0,
    "m_PreviewExpanded": false,
    "m_PreviewMode": 0,
    "m_CustomColors": {
        "m_SerializableColors": []
    }
}

{
    "m_SGVersion": 0,
    "m_Type": "UnityEditor.ShaderGraph.Vector3MaterialSlot",
    "m_ObjectId": "bc859d73f669440080b5369a684b21d9",
    "m_Id": 1,
    "m_DisplayName": "Out",
    "m_SlotType": 1,
    "m_Hidden": false,
    "m_ShaderOutputName": "Out",
    "m_StageCapability": 2,
    "m_Value": {
        "x": 0.0,
        "y": 0.0,
        "z": 0.0
    },
    "m_DefaultValue": {
        "x": 0.0,
        "y": 0.0,
        "z": 0.0
    },
    "m_Labels": []
}

{
    "m_SGVersion": 0,
    "m_Type": "UnityEditor.ShaderGraph.DynamicVectorMaterialSlot",
    "m_ObjectId": "beae6e20f080460a917b6bb674fe8944",
    "m_Id": 2,
    "m_DisplayName": "Out",
    "m_SlotType": 1,
    "m_Hidden": false,
    "m_ShaderOutputName": "Out",
    "m_StageCapability": 3,
    "m_Value": {
        "x": 0.0,
        "y": 0.0,
        "z": 0.0,
        "w": 0.0
    },
    "m_DefaultValue": {
        "x": 0.0,
        "y": 0.0,
        "z": 0.0,
        "w": 0.0
    }
}

{
    "m_SGVersion": 0,
    "m_Type": "UnityEditor.ShaderGraph.Vector3MaterialSlot",
    "m_ObjectId": "beb62e1a9c9447a381e09ac735c34f8e",
    "m_Id": 1,
    "m_DisplayName": "Out",
    "m_SlotType": 1,
    "m_Hidden": false,
    "m_ShaderOutputName": "Out",
    "m_StageCapability": 2,
    "m_Value": {
        "x": 0.0,
        "y": 0.0,
        "z": 0.0
    },
    "m_DefaultValue": {
        "x": 0.0,
        "y": 0.0,
        "z": 0.0
    },
    "m_Labels": []
}

{
    "m_SGVersion": 0,
    "m_Type": "UnityEditor.ShaderGraph.DynamicVectorMaterialSlot",
    "m_ObjectId": "c491280e8da9445fb3c408b7d54a8bef",
    "m_Id": 1,
    "m_DisplayName": "B",
    "m_SlotType": 0,
    "m_Hidden": false,
    "m_ShaderOutputName": "B",
    "m_StageCapability": 3,
    "m_Value": {
        "x": 0.0,
        "y": 0.0,
        "z": 0.0,
        "w": 0.0
    },
    "m_DefaultValue": {
        "x": 0.0,
        "y": 0.0,
        "z": 0.0,
        "w": 0.0
    }
}

{
    "m_SGVersion": 0,
    "m_Type": "UnityEditor.ShaderGraph.Vector3MaterialSlot",
    "m_ObjectId": "c5f3a1689bfe4b66b493ed944042cd19",
    "m_Id": 1,
    "m_DisplayName": "Out",
    "m_SlotType": 1,
    "m_Hidden": false,
    "m_ShaderOutputName": "Out",
    "m_StageCapability": 2,
    "m_Value": {
        "x": 0.0,
        "y": 0.0,
        "z": 0.0
    },
    "m_DefaultValue": {
        "x": 0.0,
        "y": 0.0,
        "z": 0.0
    },
    "m_Labels": []
}

{
    "m_SGVersion": 0,
    "m_Type": "UnityEditor.ShaderGraph.Vector1MaterialSlot",
    "m_ObjectId": "c619a927b31149918020d5258010c9e1",
    "m_Id": 0,
    "m_DisplayName": "BlurY",
    "m_SlotType": 1,
    "m_Hidden": false,
    "m_ShaderOutputName": "Out",
    "m_StageCapability": 3,
    "m_Value": 0.0,
    "m_DefaultValue": 0.0,
    "m_Labels": []
}

{
    "m_SGVersion": 0,
    "m_Type": "UnityEditor.ShaderGraph.PositionMaterialSlot",
    "m_ObjectId": "c689b76eaa084c038f38c5494e52f4a5",
    "m_Id": 0,
    "m_DisplayName": "Position",
    "m_SlotType": 0,
    "m_Hidden": false,
    "m_ShaderOutputName": "Position",
    "m_StageCapability": 1,
    "m_Value": {
        "x": 0.0,
        "y": 0.0,
        "z": 0.0
    },
    "m_DefaultValue": {
        "x": 0.0,
        "y": 0.0,
        "z": 0.0
    },
    "m_Labels": [],
    "m_Space": 0
}

{
    "m_SGVersion": 0,
    "m_Type": "UnityEditor.ShaderGraph.GroupData",
    "m_ObjectId": "c8112ae8fc8646ef891c187c336c8bf9",
    "m_Title": "Sample",
    "m_Position": {
        "x": -818.0,
        "y": 1423.0001220703125
    }
}

{
    "m_SGVersion": 0,
    "m_Type": "UnityEditor.ShaderGraph.PropertyNode",
    "m_ObjectId": "c8adab3c1b5f4c4e8524aba3068cba12",
    "m_Group": {
        "m_Id": "67fa98f4bcf346998f198de89861602d"
    },
    "m_Name": "Property",
    "m_DrawState": {
        "m_Expanded": true,
        "m_Position": {
            "serializedVersion": "2",
            "x": -803.0001220703125,
            "y": 1306.0,
            "width": 103.0,
            "height": 34.0
        }
    },
    "m_Slots": [
        {
            "m_Id": "2eaa4a9a218e40988f885610eea151e3"
        }
    ],
    "synonyms": [],
    "m_Precision": 0,
    "m_PreviewExpanded": true,
    "m_PreviewMode": 0,
    "m_CustomColors": {
        "m_SerializableColors": []
    },
    "m_Property": {
        "m_Id": "36a14c9e94dc479da67c10f488b5517c"
    }
}

{
    "m_SGVersion": 0,
    "m_Type": "UnityEditor.ShaderGraph.Vector1MaterialSlot",
    "m_ObjectId": "cb887c0195e94840b3f1939fb97a852a",
    "m_Id": 1,
    "m_DisplayName": "Min",
    "m_SlotType": 0,
    "m_Hidden": false,
    "m_ShaderOutputName": "Min",
    "m_StageCapability": 3,
    "m_Value": 1.0,
    "m_DefaultValue": 0.0,
    "m_Labels": []
}

{
    "m_SGVersion": 0,
    "m_Type": "UnityEditor.ShaderGraph.Vector1MaterialSlot",
    "m_ObjectId": "d2db43fa125946a49ccb21fca3656a40",
    "m_Id": 0,
    "m_DisplayName": "BlurX",
    "m_SlotType": 1,
    "m_Hidden": false,
    "m_ShaderOutputName": "Out",
    "m_StageCapability": 3,
    "m_Value": 0.0,
    "m_DefaultValue": 0.0,
    "m_Labels": []
}

{
    "m_SGVersion": 0,
    "m_Type": "UnityEditor.ShaderGraph.DynamicVectorMaterialSlot",
    "m_ObjectId": "d2f72d8325f840ab84fdc544eaf66159",
    "m_Id": 0,
    "m_DisplayName": "A",
    "m_SlotType": 0,
    "m_Hidden": false,
    "m_ShaderOutputName": "A",
    "m_StageCapability": 3,
    "m_Value": {
        "x": 0.0,
        "y": 0.0,
        "z": 0.0,
        "w": 0.0
    },
    "m_DefaultValue": {
        "x": 0.0,
        "y": 0.0,
        "z": 0.0,
        "w": 0.0
    }
}

{
    "m_SGVersion": 0,
    "m_Type": "UnityEditor.ShaderGraph.Vector4MaterialSlot",
    "m_ObjectId": "d311a1b63f8b47eb86bc1aced645c975",
    "m_Id": 0,
    "m_DisplayName": "Seed",
    "m_SlotType": 0,
    "m_Hidden": false,
    "m_ShaderOutputName": "Seed",
    "m_StageCapability": 3,
    "m_Value": {
        "x": 0.0,
        "y": 0.0,
        "z": 0.0,
        "w": 0.0
    },
    "m_DefaultValue": {
        "x": 0.0,
        "y": 0.0,
        "z": 0.0,
        "w": 0.0
    },
    "m_Labels": []
}

{
    "m_SGVersion": 0,
    "m_Type": "UnityEditor.ShaderGraph.ColorRGBMaterialSlot",
    "m_ObjectId": "d3fbd609ec4d40ecbd1a424abacd30aa",
    "m_Id": 0,
    "m_DisplayName": "Base Color",
    "m_SlotType": 0,
    "m_Hidden": false,
    "m_ShaderOutputName": "BaseColor",
    "m_StageCapability": 2,
    "m_Value": {
        "x": 0.5,
        "y": 0.5,
        "z": 0.5
    },
    "m_DefaultValue": {
        "x": 0.0,
        "y": 0.0,
        "z": 0.0
    },
    "m_Labels": [],
    "m_ColorMode": 0,
    "m_DefaultColor": {
        "r": 0.5,
        "g": 0.5,
        "b": 0.5,
        "a": 1.0
    }
}

{
    "m_SGVersion": 0,
    "m_Type": "UnityEditor.ShaderGraph.DynamicVectorMaterialSlot",
    "m_ObjectId": "d45663afaea24479a16ffbfc522cbf83",
    "m_Id": 0,
    "m_DisplayName": "A",
    "m_SlotType": 0,
    "m_Hidden": false,
    "m_ShaderOutputName": "A",
    "m_StageCapability": 3,
    "m_Value": {
        "x": 0.0,
        "y": 0.0,
        "z": 0.0,
        "w": 0.0
    },
    "m_DefaultValue": {
        "x": 0.0,
        "y": 0.0,
        "z": 0.0,
        "w": 0.0
    }
}

{
    "m_SGVersion": 0,
    "m_Type": "UnityEditor.ShaderGraph.AddNode",
    "m_ObjectId": "d4b443b61bbe4fa7863a81b8f52085e8",
    "m_Group": {
        "m_Id": ""
    },
    "m_Name": "Add",
    "m_DrawState": {
        "m_Expanded": true,
        "m_Position": {
            "serializedVersion": "2",
            "x": 332.00006103515627,
            "y": 744.0,
            "width": 130.0,
            "height": 118.00000762939453
        }
    },
    "m_Slots": [
        {
            "m_Id": "25a811f3e8744593a5cd3e7c7bdde76d"
        },
        {
            "m_Id": "057a53caf5f24b988ef46028b225c135"
        },
        {
            "m_Id": "6b62d87798e843c8b0971c67abca2139"
        }
    ],
    "synonyms": [],
    "m_Precision": 0,
    "m_PreviewExpanded": false,
    "m_PreviewMode": 0,
    "m_CustomColors": {
        "m_SerializableColors": []
    }
}

{
    "m_SGVersion": 0,
    "m_Type": "UnityEditor.ShaderGraph.Vector1MaterialSlot",
    "m_ObjectId": "d5568f81feb4449db36a165720b56ffb",
    "m_Id": 2,
    "m_DisplayName": "Max",
    "m_SlotType": 0,
    "m_Hidden": false,
    "m_ShaderOutputName": "Max",
    "m_StageCapability": 3,
    "m_Value": 1.0,
    "m_DefaultValue": 0.0,
    "m_Labels": []
}

{
    "m_SGVersion": 0,
    "m_Type": "UnityEditor.ShaderGraph.DynamicVectorMaterialSlot",
    "m_ObjectId": "d8b6bfa273a24f9e8851590829e2ae27",
    "m_Id": 2,
    "m_DisplayName": "Out",
    "m_SlotType": 1,
    "m_Hidden": false,
    "m_ShaderOutputName": "Out",
    "m_StageCapability": 3,
    "m_Value": {
        "x": 0.0,
        "y": 0.0,
        "z": 0.0,
        "w": 0.0
    },
    "m_DefaultValue": {
        "x": 0.0,
        "y": 0.0,
        "z": 0.0,
        "w": 0.0
    }
}

{
    "m_SGVersion": 1,
    "m_Type": "UnityEditor.ShaderGraph.Internal.Vector1ShaderProperty",
    "m_ObjectId": "db2a2c4448ca4d45a709a4172bdd17e9",
    "m_Guid": {
        "m_GuidSerialized": "35b2e99b-36fe-4352-af08-74107e4ff35e"
    },
    "m_Name": "BlurX",
    "m_DefaultReferenceName": "Vector1_db2a2c4448ca4d45a709a4172bdd17e9",
    "m_OverrideReferenceName": "_BlurX",
    "m_GeneratePropertyBlock": true,
    "m_Precision": 0,
    "overrideHLSLDeclaration": false,
    "hlslDeclarationOverride": 0,
    "m_Hidden": false,
    "m_Value": 0.0,
    "m_FloatType": 1,
    "m_RangeValues": {
        "x": 0.0,
        "y": 0.014999999664723874
    }
}

{
    "m_SGVersion": 0,
    "m_Type": "UnityEditor.ShaderGraph.Vector1MaterialSlot",
    "m_ObjectId": "deab2d0d56aa4346a38cd53188380dcc",
    "m_Id": 3,
    "m_DisplayName": "BlurX",
    "m_SlotType": 0,
    "m_Hidden": false,
    "m_ShaderOutputName": "BlurX",
    "m_StageCapability": 3,
    "m_Value": 0.0,
    "m_DefaultValue": 0.0,
    "m_Labels": []
}

{
    "m_SGVersion": 0,
    "m_Type": "UnityEditor.Rendering.Universal.ShaderGraph.UniversalTarget",
    "m_ObjectId": "df8cb268fa0d4bb99be67f59614bae8b",
    "m_ActiveSubTarget": {
        "m_Id": "f115731e51f44a8698e24889033fc7ab"
    },
    "m_SurfaceType": 1,
    "m_AlphaMode": 0,
    "m_TwoSided": false,
    "m_AlphaClip": false,
    "m_CustomEditorGUI": ""
}

{
    "m_SGVersion": 0,
    "m_Type": "UnityEditor.ShaderGraph.GroupData",
    "m_ObjectId": "e03a74c82ee442e797b86f891261041c",
    "m_Title": "Sample",
    "m_Position": {
        "x": -801.9998168945313,
        "y": 1720.0001220703125
    }
}

{
    "m_SGVersion": 0,
    "m_Type": "UnityEditor.ShaderGraph.PropertyNode",
    "m_ObjectId": "e170c4b7183b4c4490929457a9d4ae08",
    "m_Group": {
        "m_Id": "1c39cf8e7e42454ebc9cdaf7bc1fa11e"
    },
    "m_Name": "Property",
    "m_DrawState": {
        "m_Expanded": true,
        "m_Position": {
            "serializedVersion": "2",
            "x": -807.0,
            "y": 941.0,
            "width": 103.0,
            "height": 34.000003814697269
        }
    },
    "m_Slots": [
        {
            "m_Id": "79c0f325ace54f6d80e080493bd49889"
        }
    ],
    "synonyms": [],
    "m_Precision": 0,
    "m_PreviewExpanded": true,
    "m_PreviewMode": 0,
    "m_CustomColors": {
        "m_SerializableColors": []
    },
    "m_Property": {
        "m_Id": "36a14c9e94dc479da67c10f488b5517c"
    }
}

{
    "m_SGVersion": 0,
    "m_Type": "UnityEditor.ShaderGraph.BlockNode",
    "m_ObjectId": "e1f35489c9fe49df955366eb01cbb1d1",
    "m_Group": {
        "m_Id": ""
    },
    "m_Name": "VertexDescription.Tangent",
    "m_DrawState": {
        "m_Expanded": true,
        "m_Position": {
            "serializedVersion": "2",
            "x": 0.0,
            "y": 0.0,
            "width": 0.0,
            "height": 0.0
        }
    },
    "m_Slots": [
        {
            "m_Id": "faa7d67d09174f9380bdf0aa77ed49f7"
        }
    ],
    "synonyms": [],
    "m_Precision": 0,
    "m_PreviewExpanded": true,
    "m_PreviewMode": 0,
    "m_CustomColors": {
        "m_SerializableColors": []
    },
    "m_SerializedDescriptor": "VertexDescription.Tangent"
}

{
    "m_SGVersion": 0,
    "m_Type": "UnityEditor.ShaderGraph.DynamicVectorMaterialSlot",
    "m_ObjectId": "e67992694e8c4961bd7424fccaaa8e3e",
    "m_Id": 1,
    "m_DisplayName": "B",
    "m_SlotType": 0,
    "m_Hidden": false,
    "m_ShaderOutputName": "B",
    "m_StageCapability": 3,
    "m_Value": {
        "x": 0.0,
        "y": 0.0,
        "z": 0.0,
        "w": 0.0
    },
    "m_DefaultValue": {
        "x": 0.0,
        "y": 0.0,
        "z": 0.0,
        "w": 0.0
    }
}

{
    "m_SGVersion": 0,
    "m_Type": "UnityEditor.ShaderGraph.Vector1MaterialSlot",
    "m_ObjectId": "e6da30f73f3d49b68b1c28903ab78b3e",
    "m_Id": 2,
    "m_DisplayName": "Max",
    "m_SlotType": 0,
    "m_Hidden": false,
    "m_ShaderOutputName": "Max",
    "m_StageCapability": 3,
    "m_Value": 2.0,
    "m_DefaultValue": 0.0,
    "m_Labels": []
}

{
    "m_SGVersion": 0,
    "m_Type": "UnityEditor.ShaderGraph.DynamicVectorMaterialSlot",
    "m_ObjectId": "e815bc93674a471e9f431fcb31fcb30f",
    "m_Id": 1,
    "m_DisplayName": "B",
    "m_SlotType": 0,
    "m_Hidden": false,
    "m_ShaderOutputName": "B",
    "m_StageCapability": 3,
    "m_Value": {
        "x": 0.0,
        "y": 0.0,
        "z": 0.0,
        "w": 0.0
    },
    "m_DefaultValue": {
        "x": 0.0,
        "y": 0.0,
        "z": 0.0,
        "w": 0.0
    }
}

{
    "m_SGVersion": 0,
    "m_Type": "UnityEditor.ShaderGraph.Vector1MaterialSlot",
    "m_ObjectId": "e8a6300ab7af4c7b8cdc737e4b07ebf3",
    "m_Id": 1,
    "m_DisplayName": "Min",
    "m_SlotType": 0,
    "m_Hidden": false,
    "m_ShaderOutputName": "Min",
    "m_StageCapability": 3,
    "m_Value": 2.0,
    "m_DefaultValue": 0.0,
    "m_Labels": []
}

{
    "m_SGVersion": 1,
    "m_Type": "UnityEditor.ShaderGraph.CustomFunctionNode",
    "m_ObjectId": "e994a58dde1d4da2ad68a1c7599de1e3",
    "m_Group": {
        "m_Id": "67fa98f4bcf346998f198de89861602d"
    },
    "m_Name": "BluredColor (Custom Function)",
    "m_DrawState": {
        "m_Expanded": true,
        "m_Position": {
            "serializedVersion": "2",
            "x": -607.0,
            "y": 1150.0,
            "width": 219.0,
            "height": 190.0
        }
    },
    "m_Slots": [
        {
            "m_Id": "1ed236dcf10640039722b20f6fdc7785"
        },
        {
            "m_Id": "5be1e7d948574c3ebd6168c87b2d6ac2"
        },
        {
            "m_Id": "bb2326db652d42ffb26958bdb0a79040"
        },
        {
            "m_Id": "6593bdf63ba048fcbc9fe930421d87df"
        },
        {
            "m_Id": "2f21e58803294ef080f1a5fce63204fc"
        },
        {
            "m_Id": "f03ac8e7fc40447b974d759a1ba92a6a"
        }
    ],
    "synonyms": [],
    "m_Precision": 0,
    "m_PreviewExpanded": false,
    "m_PreviewMode": 0,
    "m_CustomColors": {
        "m_SerializableColors": []
    },
    "m_SourceType": 0,
    "m_FunctionName": "BluredColor",
    "m_FunctionSource": "c6fd03cbd9e6c87428642863811be2ba",
    "m_FunctionBody": "Enter function body here..."
}

{
    "m_SGVersion": 0,
    "m_Type": "UnityEditor.ShaderGraph.GroupData",
    "m_ObjectId": "eb0066e0361b4a7c922a9b6d13fef521",
    "m_Title": "Sample",
    "m_Position": {
        "x": -850.9999389648438,
        "y": 5.0
    }
}

{
    "m_SGVersion": 0,
    "m_Type": "UnityEditor.ShaderGraph.Vector1MaterialSlot",
    "m_ObjectId": "eb7a0f01db6c4e609b06b41c77df2493",
    "m_Id": 4,
    "m_DisplayName": "BlurY",
    "m_SlotType": 0,
    "m_Hidden": false,
    "m_ShaderOutputName": "BlurY",
    "m_StageCapability": 3,
    "m_Value": 0.0,
    "m_DefaultValue": 0.0,
    "m_Labels": []
}

{
    "m_SGVersion": 0,
    "m_Type": "UnityEditor.ShaderGraph.Vector1MaterialSlot",
    "m_ObjectId": "ec98e1c410af4714b4f52757b05fa20e",
    "m_Id": 1,
    "m_DisplayName": "X",
    "m_SlotType": 0,
    "m_Hidden": false,
    "m_ShaderOutputName": "X",
    "m_StageCapability": 3,
    "m_Value": 6.0,
    "m_DefaultValue": 0.0,
    "m_Labels": []
}

{
    "m_SGVersion": 0,
    "m_Type": "UnityEditor.ShaderGraph.Vector1MaterialSlot",
    "m_ObjectId": "efc07c4d041d43f6ad840c77ccbf9310",
    "m_Id": 1,
    "m_DisplayName": "Min",
    "m_SlotType": 0,
    "m_Hidden": false,
    "m_ShaderOutputName": "Min",
    "m_StageCapability": 3,
    "m_Value": 0.0,
    "m_DefaultValue": 0.0,
    "m_Labels": []
}

{
    "m_SGVersion": 0,
    "m_Type": "UnityEditor.ShaderGraph.DynamicVectorMaterialSlot",
    "m_ObjectId": "efc96289d2634eb2b655301934913663",
    "m_Id": 2,
    "m_DisplayName": "Out",
    "m_SlotType": 1,
    "m_Hidden": false,
    "m_ShaderOutputName": "Out",
    "m_StageCapability": 3,
    "m_Value": {
        "x": 0.0,
        "y": 0.0,
        "z": 0.0,
        "w": 0.0
    },
    "m_DefaultValue": {
        "x": 0.0,
        "y": 0.0,
        "z": 0.0,
        "w": 0.0
    }
}

{
    "m_SGVersion": 0,
    "m_Type": "UnityEditor.ShaderGraph.Vector4MaterialSlot",
    "m_ObjectId": "f03ac8e7fc40447b974d759a1ba92a6a",
    "m_Id": 5,
    "m_DisplayName": "Out",
    "m_SlotType": 1,
    "m_Hidden": false,
    "m_ShaderOutputName": "Out",
    "m_StageCapability": 3,
    "m_Value": {
        "x": 0.0,
        "y": 0.0,
        "z": 0.0,
        "w": 0.0
    },
    "m_DefaultValue": {
        "x": 0.0,
        "y": 0.0,
        "z": 0.0,
        "w": 0.0
    },
    "m_Labels": []
}

{
    "m_SGVersion": 0,
    "m_Type": "UnityEditor.Rendering.Universal.ShaderGraph.UniversalUnlitSubTarget",
    "m_ObjectId": "f115731e51f44a8698e24889033fc7ab"
}

{
    "m_SGVersion": 0,
    "m_Type": "UnityEditor.ShaderGraph.Vector4MaterialSlot",
    "m_ObjectId": "f1305d2e5c814945b0ff09d2ee2d7574",
    "m_Id": 5,
    "m_DisplayName": "Out",
    "m_SlotType": 1,
    "m_Hidden": false,
    "m_ShaderOutputName": "Out",
    "m_StageCapability": 3,
    "m_Value": {
        "x": 0.0,
        "y": 0.0,
        "z": 0.0,
        "w": 0.0
    },
    "m_DefaultValue": {
        "x": 0.0,
        "y": 0.0,
        "z": 0.0,
        "w": 0.0
    },
    "m_Labels": []
}

{
    "m_SGVersion": 0,
    "m_Type": "UnityEditor.ShaderGraph.SceneColorNode",
    "m_ObjectId": "f35c2c9a477b43c584387f06aba875f2",
    "m_Group": {
        "m_Id": "67fa98f4bcf346998f198de89861602d"
    },
    "m_Name": "Scene Color",
    "m_DrawState": {
        "m_Expanded": true,
        "m_Position": {
            "serializedVersion": "2",
            "x": -333.00006103515627,
            "y": 1150.0,
            "width": 138.0,
            "height": 77.0
        }
    },
    "m_Slots": [
        {
            "m_Id": "b6bdee43933e43d586a6469aba3c3d15"
        },
        {
            "m_Id": "0b1ec319dd2542e9a14ca396d9c8c8f6"
        }
    ],
    "synonyms": [],
    "m_Precision": 0,
    "m_PreviewExpanded": true,
    "m_PreviewMode": 0,
    "m_CustomColors": {
        "m_SerializableColors": []
    }
}

{
    "m_SGVersion": 0,
    "m_Type": "UnityEditor.ShaderGraph.TangentMaterialSlot",
    "m_ObjectId": "faa7d67d09174f9380bdf0aa77ed49f7",
    "m_Id": 0,
    "m_DisplayName": "Tangent",
    "m_SlotType": 0,
    "m_Hidden": false,
    "m_ShaderOutputName": "Tangent",
    "m_StageCapability": 1,
    "m_Value": {
        "x": 0.0,
        "y": 0.0,
        "z": 0.0
    },
    "m_DefaultValue": {
        "x": 0.0,
        "y": 0.0,
        "z": 0.0
    },
    "m_Labels": [],
    "m_Space": 0
}

{
    "m_SGVersion": 0,
    "m_Type": "UnityEditor.ShaderGraph.Vector4MaterialSlot",
    "m_ObjectId": "fdf3f6d3ea92496a90fdda5def548aac",
    "m_Id": 0,
    "m_DisplayName": "Seed",
    "m_SlotType": 0,
    "m_Hidden": false,
    "m_ShaderOutputName": "Seed",
    "m_StageCapability": 3,
    "m_Value": {
        "x": 0.0,
        "y": 0.0,
        "z": 0.0,
        "w": 0.0
    },
    "m_DefaultValue": {
        "x": 0.0,
        "y": 0.0,
        "z": 0.0,
        "w": 0.0
    },
    "m_Labels": []
}

{
    "m_SGVersion": 0,
    "m_Type": "UnityEditor.ShaderGraph.BlockNode",
    "m_ObjectId": "fffef87e5f044bfaab96b39fd67d52bf",
    "m_Group": {
        "m_Id": ""
    },
    "m_Name": "VertexDescription.Position",
    "m_DrawState": {
        "m_Expanded": true,
        "m_Position": {
            "serializedVersion": "2",
            "x": 0.0,
            "y": 0.0,
            "width": 0.0,
            "height": 0.0
        }
    },
    "m_Slots": [
        {
            "m_Id": "c689b76eaa084c038f38c5494e52f4a5"
        }
    ],
    "synonyms": [],
    "m_Precision": 0,
    "m_PreviewExpanded": true,
    "m_PreviewMode": 0,
    "m_CustomColors": {
        "m_SerializableColors": []
    },
    "m_SerializedDescriptor": "VertexDescription.Position"
}

