# Wavefront OBJ file
# Exported by Misfit Model 3D 1.3.8
# Sat Jul 07 07:31:50 2018

mtllib hunter.mtl

# 158 Vertices
v -1.2375 1.6425 -0.495
v 0.32625 3.015 -2.8125
v -0.25875 3.015 -2.80125
v -0.01125 3.2625 -2.80125
v -0.0225 3.555 -4.42125
v 0.0 3.78 -1.45125
v 1.22625 2.9475 -0.50625
v 0.32625 2.475 -0.34875
v 0.66375 3.375 0.30375
v -0.32625 2.475 -0.34875
v -0.68625 3.375 0.30375
v -1.215 2.9475 -0.48375
v 0.0 4.725 -0.66375
v -0.36 4.6125 -0.37125
v 0.3375 4.6125 -0.37125
v 0.7425 5.895 -0.19125
v 0.8775 5.895 0.16875
v 1.26 5.3325 0.03375
v 1.26 3.8025 -0.34875
v 1.26 3.8475 0.21375
v 1.2825 5.4 -0.61875
v 1.81125 5.535 -0.82125
v 1.87875 5.5575 -0.12375
v 1.18125 6.345 0.25875
v 0.86625 6.525 -0.39375
v 0.37125 6.75 -0.05625
v 0.0225 6.885 -0.57375
v 1.0125 7.3125 -0.50625
v 1.395 7.7175 -0.16875
v 0.6525 8.415 -0.61875
v -0.6525 8.415 -0.6075
v -0.0225 8.055 -1.08
v -0.9675 7.3125 -0.5175
v -1.395 7.7175 -0.1575
v 0.8325 7.83 1.0575
v -0.0 6.9525 1.1925
v -0.8775 7.8075 1.035
v 0.18 7.29 1.71
v -0.18 7.29 1.71
v -0.0225 6.6825 0.225
v -0.4275 6.705 -0.09
v -0.8775 6.48 -0.4275
v -1.1925 6.345 0.2475
v -0.855 5.895 0.1575
v -1.2375 5.3775 -0.0
v -1.89 5.58 -0.18
v -1.27125 5.3325 -0.675
v -1.83375 5.5575 -0.8775
v 0.0225 6.0075 0.8325
v -0.6525 5.9175 -0.2025
v 0.0225 4.6575 -0.0225
v 1.20375 1.62 -0.54
v -1.6425 4.5675 0.225
v -1.36125 4.59 0.1575
v -1.36125 4.5225 -0.18
v -1.67625 4.5225 -0.2025
v -0.66375 7.3125 0.95625
v -0.01125 7.83 1.18439
v 0.84375 7.8075 1.09439
v 0.66375 7.335 0.97875
v 0.70875 7.2675 0.91125
v -0.52875 5.445 0.03375
v 0.46125 5.445 0.045
v -0.03375 5.5575 0.4275
v -0.03375 5.58 -0.3375
v 0.30375 3.3975 -1.3725
v 0.9675 2.385 -0.8325
v 1.71 4.4775 -0.2025
v 1.33875 4.095 -0.3375
v 1.33875 4.545 -0.19125
v 1.38375 4.6125 0.1575
v 1.65375 4.59 0.225
v 1.305 4.14 0.405
v -0.3375 3.375 -1.4175
v -1.0575 2.475 -0.8775
v 1.13625 1.3725 0.0675
v -1.26 1.35 0.1125
v -0.045 3.015 -1.5075
v 0.01125 2.79 -2.89125
v -0.03375 3.15 -5.805
v 0.28125 3.42 -4.41
v -0.01125 8.4375 0.7425
v 0.68625 8.3025 0.315
v -0.0 8.5275 0.0225
v -0.6975 8.3025 0.315
v -1.13625 7.785 -0.16875
v -0.79875 7.83 -0.79875
v -0.39375 7.3125 -0.88875
v -0.39375 6.9975 -0.16875
v 0.32625 6.9975 -0.16875
v 0.34875 7.3125 -0.88875
v 0.73125 7.83 -0.79875
v 1.04625 7.785 -0.19125
v 1.09125 7.5375 0.19125
v -1.15875 7.5375 0.2025
v 0.59625 8.19 1.21814
v -0.70875 8.1675 1.21814
v -0.05625 7.9875 1.30814
v -0.91125 7.8075 1.06064
v -0.79875 7.2675 0.9225
v -0.5175 7.2675 1.3725
v -0.045 7.2225 1.755
v -0.01125 6.705 1.35
v 0.39375 7.2675 1.3725
v 1.6425 0.0 -1.4175
v 0.8325 0.0 -1.4175
v -0.945 1.3725 0.225
v -0.81 1.62 -0.36
v -0.855 1.4625 -1.08
v -0.91125 -0.0225 -1.4175
v -1.74375 -0.0225 -1.4175
v 0.79875 1.44 -1.1025
v 0.79875 1.5975 -0.3825
v -0.6525 8.28 1.0125
v 0.6075 8.28 1.0125
v 0.5175 7.0425 0.765
v -0.585 7.0425 0.765
v 0.2025 7.6275 1.755
v -0.2475 7.6275 1.755
v -1.215 3.7575 -0.36
v -1.215 3.735 0.2025
v 0.93375 1.35 0.18
v 0.63 -0.0225 -0.23625
v -1.98 -0.0225 -0.07875
v -0.54 -0.0225 -0.23625
v 2.025 -0.0225 -0.07875
v -1.6875 4.05 0.43875
v -1.31625 4.14 0.43875
v -1.33875 4.1175 -0.30375
v -1.67625 4.0275 -0.32625
v -0.48375 7.74 1.45125
v -0.30375 7.6275 2.03625
v 0.32625 7.6275 2.03625
v 0.48375 7.74 1.45125
v 0.0225 6.8625 0.66375
v 1.71 4.0725 -0.30375
v 1.65375 4.05 0.405
v -1.31625 1.4175 -1.1475
v 1.20375 1.4175 -1.1025
v 1.04625 1.08 -0.7425
v -1.1925 0.6075 -0.495
v 1.1475 0.6075 -0.495
v 1.3725 0.0 0.6075
v -1.17 0.0 0.6075
v -1.1475 1.125 -0.6975
v 0.045 3.2175 -4.3425
v -0.1575 3.42 -4.3875
v -0.01125 7.9875 1.2375
v 0.64125 8.1675 1.08
v 0.88875 8.235 -0.82125
v 0.91125 8.37 -1.09125
v 1.11375 8.6175 -0.66375
v -0.93375 8.235 -0.82125
v -1.27125 8.6175 -0.6525
v -1.00125 8.37 -1.08
v -0.05625 8.1675 1.215
v -0.70875 8.1675 1.08
v -0.05625 7.83 1.1475

# 900 Texture Coordinates
vt 0.889567 0.329985
vt 0.828967 0.168585
vt 0.828967 0.329985
vt 0.828967 0.168585
vt 0.889567 0.329985
vt 0.889567 0.168585
vt 0.889567 0.329985
vt 0.828967 0.168585
vt 0.828967 0.329985
vt 0.889567 0.329985
vt 0.889567 0.168585
vt 0.828967 0.168585
vt 0.828967 0.329985
vt 0.889567 0.329985
vt 0.828967 0.168585
vt 0.889567 0.329985
vt 0.889567 0.168585
vt 0.828967 0.168585
vt 0.828967 0.329985
vt 0.889567 0.329985
vt 0.828967 0.168585
vt 0.828967 0.168585
vt 0.828967 0.329985
vt 0.889567 0.329985
vt 0.889567 0.168585
vt 0.828967 0.168585
vt 0.889567 0.329985
vt 0.828967 0.168585
vt 0.828967 0.329985
vt 0.889567 0.329985
vt 0.889567 0.168585
vt 0.828967 0.168585
vt 0.889567 0.329985
vt 0.889567 0.329985
vt 0.889567 0.168585
vt 0.828967 0.168585
vt 0.828967 0.329985
vt 0.889567 0.329985
vt 0.828967 0.168585
vt 0.889567 0.329985
vt 0.828967 0.168585
vt 0.828967 0.329985
vt 0.828967 0.168585
vt 0.889567 0.329985
vt 0.828967 0.329985
vt 0.889567 0.329985
vt 0.828967 0.168585
vt 0.828967 0.329985
vt 0.889567 0.329985
vt 0.889567 0.168585
vt 0.828967 0.168585
vt 0.828967 0.329985
vt 0.889567 0.329985
vt 0.828967 0.168585
vt 0.889567 0.329985
vt 0.889567 0.168585
vt 0.828967 0.168585
vt 0.828967 0.329985
vt 0.889567 0.329985
vt 0.828967 0.168585
vt 0.889567 0.168585
vt 0.828967 0.168585
vt 0.828967 0.329985
vt 0.889567 0.329985
vt 0.889567 0.168585
vt 0.828967 0.329985
vt 0.828967 0.329985
vt 0.889567 0.329985
vt 0.889567 0.168585
vt 0.828967 0.168585
vt 0.828967 0.329985
vt 0.889567 0.168585
vt 0.889567 0.329985
vt 0.889567 0.168585
vt 0.828967 0.168585
vt 0.828967 0.329985
vt 0.889567 0.329985
vt 0.828967 0.168585
vt 0.889567 0.329985
vt 0.889567 0.168585
vt 0.828967 0.168585
vt 0.828967 0.329985
vt 0.889567 0.329985
vt 0.828967 0.168585
vt 0.891467 0.329985
vt 0.952067 0.168585
vt 0.891467 0.168585
vt 0.889567 0.329985
vt 0.889567 0.168585
vt 0.828967 0.168585
vt 0.828967 0.329985
vt 0.889567 0.329985
vt 0.828967 0.168585
vt 0.889567 0.329985
vt 0.889567 0.168585
vt 0.828967 0.168585
vt 0.828967 0.329985
vt 0.889567 0.329985
vt 0.828967 0.168585
vt 0.889567 0.329985
vt 0.828967 0.168585
vt 0.828967 0.329985
vt 0.0605 0.1667
vt 0.0605 0.0052
vt 0.0 0.0052
vt 0.0 0.1667
vt 0.0605 0.1667
vt 0.0 0.0052
vt 0.063367 0.001885
vt 0.123867 0.001885
vt 0.123867 0.163385
vt 0.063367 0.163385
vt 0.063367 0.001885
vt 0.123867 0.163385
vt 0.828967 0.168585
vt 0.889567 0.168585
vt 0.889567 0.329985
vt 0.828967 0.329985
vt 0.828967 0.168585
vt 0.889567 0.329985
vt 0.889567 0.329985
vt 0.889567 0.168585
vt 0.828967 0.168585
vt 0.828967 0.329985
vt 0.889567 0.329985
vt 0.828967 0.168585
vt 0.889567 0.329985
vt 0.889567 0.168585
vt 0.828967 0.168585
vt 0.828967 0.329985
vt 0.889567 0.329985
vt 0.828967 0.168585
vt 0.952067 0.329985
vt 0.952067 0.168585
vt 0.891467 0.168585
vt 0.891467 0.329985
vt 0.952067 0.329985
vt 0.891467 0.168585
vt 0.889567 0.329985
vt 0.889567 0.168585
vt 0.828967 0.168585
vt 0.828967 0.329985
vt 0.889567 0.329985
vt 0.828967 0.168585
vt 0.889567 0.329985
vt 0.889567 0.168585
vt 0.828967 0.168585
vt 0.828967 0.329985
vt 0.889567 0.329985
vt 0.828967 0.168585
vt 0.889567 0.329985
vt 0.889567 0.168585
vt 0.828967 0.168585
vt 0.828967 0.329985
vt 0.889567 0.329985
vt 0.828967 0.168585
vt 0.186367 0.163385
vt 0.186367 0.001885
vt 0.125867 0.001885
vt 0.125867 0.163385
vt 0.186367 0.163385
vt 0.125867 0.001885
vt 0.889567 0.329985
vt 0.889567 0.168585
vt 0.828967 0.168585
vt 0.828967 0.329985
vt 0.889567 0.329985
vt 0.828967 0.168585
vt 0.186367 0.163385
vt 0.186367 0.001885
vt 0.125867 0.001885
vt 0.125867 0.163385
vt 0.186367 0.163385
vt 0.125867 0.001885
vt 0.186367 0.163385
vt 0.186367 0.001885
vt 0.125867 0.001885
vt 0.125867 0.163385
vt 0.186367 0.163385
vt 0.125867 0.001885
vt 0.186367 0.163385
vt 0.186367 0.001885
vt 0.125867 0.001885
vt 0.125867 0.163385
vt 0.186367 0.163385
vt 0.125867 0.001885
vt 0.889567 0.329985
vt 0.889567 0.168585
vt 0.828967 0.168585
vt 0.828967 0.329985
vt 0.889567 0.329985
vt 0.828967 0.168585
vt 0.889567 0.329985
vt 0.889567 0.168585
vt 0.828967 0.168585
vt 0.828967 0.329985
vt 0.889567 0.329985
vt 0.828967 0.168585
vt 0.889567 0.329985
vt 0.889567 0.168585
vt 0.828967 0.168585
vt 0.828967 0.329985
vt 0.889567 0.329985
vt 0.828967 0.168585
vt 0.123867 0.163385
vt 0.123867 0.001885
vt 0.063367 0.001885
vt 0.063367 0.163385
vt 0.123867 0.163385
vt 0.063367 0.001885
vt 0.889567 0.329985
vt 0.889567 0.168585
vt 0.828967 0.168585
vt 0.828967 0.329985
vt 0.889567 0.329985
vt 0.828967 0.168585
vt 0.889567 0.329985
vt 0.889567 0.168585
vt 0.828967 0.168585
vt 0.828967 0.329985
vt 0.889567 0.329985
vt 0.828967 0.168585
vt 0.889567 0.329985
vt 0.828967 0.168585
vt 0.828967 0.329985
vt 0.952067 0.329985
vt 0.952067 0.168585
vt 0.891467 0.168585
vt 0.891467 0.329985
vt 0.952067 0.329985
vt 0.891467 0.168585
vt 0.189814 0.005748
vt 0.24742 0.159522
vt 0.24742 0.005748
vt 0.889567 0.329985
vt 0.889567 0.168585
vt 0.828967 0.168585
vt 0.828967 0.329985
vt 0.889567 0.329985
vt 0.828967 0.168585
vt 0.889567 0.329985
vt 0.828967 0.168585
vt 0.828967 0.329985
vt 0.828967 0.168585
vt 0.889567 0.329985
vt 0.889567 0.168585
vt 0.311367 0.163385
vt 0.311367 0.001885
vt 0.250867 0.001885
vt 0.250867 0.163385
vt 0.311367 0.163385
vt 0.250867 0.001885
vt 0.952067 0.329985
vt 0.952067 0.168585
vt 0.891467 0.168585
vt 0.891467 0.329985
vt 0.952067 0.329985
vt 0.891467 0.168585
vt 0.889567 0.329985
vt 0.889567 0.168585
vt 0.828967 0.168585
vt 0.828967 0.329985
vt 0.889567 0.329985
vt 0.828967 0.168585
vt 0.891467 0.329985
vt 0.952067 0.168585
vt 0.891467 0.168585
vt 0.373867 0.163385
vt 0.373867 0.001885
vt 0.313367 0.001885
vt 0.313367 0.163385
vt 0.373867 0.163385
vt 0.313367 0.001885
vt 0.311367 0.163385
vt 0.311367 0.001885
vt 0.250867 0.001885
vt 0.250867 0.163385
vt 0.311367 0.163385
vt 0.250867 0.001885
vt 0.889567 0.329985
vt 0.828967 0.168585
vt 0.828967 0.329985
vt 0.889567 0.168585
vt 0.828967 0.329985
vt 0.889567 0.329985
vt 0.889567 0.329985
vt 0.889567 0.168585
vt 0.828967 0.168585
vt 0.828967 0.329985
vt 0.889567 0.329985
vt 0.828967 0.168585
vt 0.889567 0.329985
vt 0.828967 0.168585
vt 0.828967 0.329985
vt 0.889567 0.329985
vt 0.889567 0.168585
vt 0.828967 0.168585
vt 0.828967 0.329985
vt 0.889567 0.329985
vt 0.828967 0.168585
vt 0.889567 0.329985
vt 0.889567 0.168585
vt 0.828967 0.168585
vt 0.828967 0.329985
vt 0.889567 0.329985
vt 0.828967 0.168585
vt 0.889567 0.329985
vt 0.828967 0.168585
vt 0.828967 0.329985
vt 0.889567 0.329985
vt 0.828967 0.168585
vt 0.828967 0.329985
vt 0.889567 0.329985
vt 0.889567 0.168585
vt 0.828967 0.168585
vt 0.828967 0.329985
vt 0.889567 0.329985
vt 0.828967 0.168585
vt 0.889567 0.329985
vt 0.889567 0.168585
vt 0.828967 0.168585
vt 0.828967 0.329985
vt 0.889567 0.329985
vt 0.828967 0.168585
vt 0.952067 0.329985
vt 0.952067 0.168585
vt 0.891467 0.168585
vt 0.891467 0.329985
vt 0.952067 0.329985
vt 0.891467 0.168585
vt 0.889567 0.329985
vt 0.889567 0.168585
vt 0.828967 0.168585
vt 0.828967 0.329985
vt 0.889567 0.329985
vt 0.828967 0.168585
vt 0.667793 0.897368
vt 0.669886 0.902941
vt 0.667793 0.902941
vt 0.889567 0.329985
vt 0.889567 0.168585
vt 0.828967 0.168585
vt 0.828967 0.329985
vt 0.889567 0.329985
vt 0.828967 0.168585
vt 0.889567 0.329985
vt 0.889567 0.168585
vt 0.828967 0.168585
vt 0.828967 0.329985
vt 0.889567 0.329985
vt 0.828967 0.168585
vt 0.889567 0.168585
vt 0.828967 0.329985
vt 0.889567 0.329985
vt 0.889567 0.168585
vt 0.828967 0.329985
vt 0.889567 0.329985
vt 0.889567 0.168585
vt 0.828967 0.329985
vt 0.889567 0.329985
vt 0.952067 0.329985
vt 0.891467 0.168585
vt 0.891467 0.329985
vt 0.952067 0.329985
vt 0.891467 0.168585
vt 0.891467 0.329985
vt 0.311367 0.163385
vt 0.311367 0.001885
vt 0.250867 0.001885
vt 0.250867 0.163385
vt 0.311367 0.163385
vt 0.250867 0.001885
vt 0.436367 0.163385
vt 0.436367 0.001885
vt 0.375867 0.001885
vt 0.375867 0.163385
vt 0.436367 0.163385
vt 0.375867 0.001885
vt 0.375867 0.001885
vt 0.436367 0.001885
vt 0.436367 0.163385
vt 0.375867 0.163385
vt 0.375867 0.001885
vt 0.436367 0.163385
vt 0.497275 0.159134
vt 0.497275 0.006136
vt 0.43996 0.006136
vt 0.43996 0.159134
vt 0.497275 0.159134
vt 0.43996 0.006136
vt 0.891467 0.329985
vt 0.952067 0.168585
vt 0.891467 0.168585
vt 0.891467 0.329985
vt 0.952067 0.168585
vt 0.891467 0.168585
vt 0.952067 0.329985
vt 0.891467 0.168585
vt 0.891467 0.329985
vt 0.891467 0.168585
vt 0.952067 0.329985
vt 0.891467 0.329985
vt 0.373867 0.163385
vt 0.373867 0.001885
vt 0.313367 0.001885
vt 0.313367 0.163385
vt 0.373867 0.163385
vt 0.313367 0.001885
vt 0.889567 0.329985
vt 0.828967 0.168585
vt 0.828967 0.329985
vt 0.889567 0.329985
vt 0.828967 0.168585
vt 0.828967 0.329985
vt 0.889567 0.168585
vt 0.828967 0.329985
vt 0.889567 0.329985
vt 0.889567 0.329985
vt 0.889567 0.168585
vt 0.828967 0.168585
vt 0.828967 0.329985
vt 0.889567 0.329985
vt 0.828967 0.168585
vt 0.828967 0.168585
vt 0.889567 0.329985
vt 0.889567 0.168585
vt 0.1864 0.3906
vt 0.2839 0.4016
vt 0.3482 0.2456
vt 0.1781 0.2456
vt 0.1864 0.3906
vt 0.3482 0.2456
vt 0.8904 0.1631
vt 0.8962 0.1195
vt 0.6975 0.1195
vt 0.7073 0.1532
vt 0.8904 0.1631
vt 0.6975 0.1195
vt 0.8878 0.9035
vt 0.8827 0.8614
vt 0.6833 0.8614
vt 0.6901 0.8838
vt 0.8878 0.9035
vt 0.6833 0.8614
vt 0.696 0.2374
vt 0.7031 0.1872
vt 0.5034 0.1872
vt 0.4968 0.2269
vt 0.696 0.2374
vt 0.5034 0.1872
vt 0.904 0.1195
vt 0.8979 0.1528
vt 0.9626 0.1619
vt 0.9729 0.1195
vt 0.904 0.1195
vt 0.9626 0.1619
vt 0.7049 0.1727
vt 0.7155 0.2221
vt 0.7672 0.2374
vt 0.791 0.1727
vt 0.7049 0.1727
vt 0.7672 0.2374
vt 0.7782 0.3115
vt 0.7725 0.2456
vt 0.698 0.2868
vt 0.698 0.3719
vt 0.7782 0.3115
vt 0.698 0.2868
vt 0.6056 0.6059
vt 0.6764 0.6606
vt 0.7551 0.6606
vt 0.6709 0.5775
vt 0.6056 0.6059
vt 0.7551 0.6606
vt 0.9463 0.5832
vt 0.8495 0.6177
vt 0.9678 0.6177
vt 0.892 0.0496
vt 0.9332 0.0566
vt 0.9657 0.0009
vt 0.8757 0.0009
vt 0.892 0.0496
vt 0.9657 0.0009
vt 0.4544 0.4664
vt 0.4556 0.5282
vt 0.4938 0.5282
vt 0.4955 0.4769
vt 0.4544 0.4664
vt 0.4938 0.5282
vt 0.7044 0.4265
vt 0.7689 0.4265
vt 0.7651 0.3916
vt 0.698 0.3807
vt 0.7044 0.4265
vt 0.7651 0.3916
vt 0.4782 0.8295
vt 0.3795 0.8183
vt 0.4195 0.893
vt 0.497 0.893
vt 0.4782 0.8295
vt 0.4195 0.893
vt 0.9253 0.4867
vt 0.9012 0.4231
vt 0.8491 0.4272
vt 0.8326 0.4867
vt 0.9253 0.4867
vt 0.8491 0.4272
vt 0.3948 0.128
vt 0.2448 0.128
vt 0.3412 0.2289
vt 0.4925 0.21
vt 0.3948 0.128
vt 0.3412 0.2289
vt 0.2319 0.9122
vt 0.3482 0.8976
vt 0.2785 0.8677
vt 0.1781 0.8677
vt 0.2319 0.9122
vt 0.2785 0.8677
vt 0.8623 0.4072
vt 0.9485 0.4072
vt 0.93 0.3518
vt 0.8621 0.3434
vt 0.8623 0.4072
vt 0.93 0.3518
vt 0.5021 0.9249
vt 0.5635 0.9695
vt 0.6103 0.9249
vt 0.6758 0.9702
vt 0.612 0.9702
vt 0.6385 0.9957
vt 0.9928 0.3434
vt 0.9502 0.3469
vt 0.9928 0.387
vt 0.4544 0.4647
vt 0.4994 0.4565
vt 0.4996 0.4059
vt 0.4544 0.4074
vt 0.4544 0.4647
vt 0.4996 0.4059
vt 0.0516 0.7983
vt 0.1586 0.8334
vt 0.1586 0.7674
vt 0.0009 0.7734
vt 0.0516 0.7983
vt 0.1586 0.7674
vt 0.3421 0.8165
vt 0.3372 0.7526
vt 0.2311 0.7861
vt 0.1781 0.8165
vt 0.3421 0.8165
vt 0.2311 0.7861
vt 0.7676 0.4804
vt 0.7911 0.4282
vt 0.6176 0.4282
vt 0.5981 0.4676
vt 0.7676 0.4804
vt 0.6176 0.4282
vt 0.8621 0.1705
vt 0.8621 0.2546
vt 0.9123 0.2756
vt 0.9166 0.1862
vt 0.8621 0.1705
vt 0.9123 0.2756
vt 0.7466 0.9052
vt 0.7037 0.9111
vt 0.6833 0.9647
vt 0.7735 0.9647
vt 0.7466 0.9052
vt 0.6833 0.9647
vt 0.0469 0.4037
vt 0.1472 0.3928
vt 0.1764 0.2456
vt 0.0009 0.2456
vt 0.0469 0.4037
vt 0.1764 0.2456
vt 0.1017 0.4055
vt 0.0009 0.4055
vt 0.0527 0.583
vt 0.109 0.5899
vt 0.1017 0.4055
vt 0.0527 0.583
vt 0.6962 0.2456
vt 0.5981 0.2479
vt 0.5981 0.4265
vt 0.6471 0.4227
vt 0.6962 0.2456
vt 0.5981 0.4265
vt 0.8871 0.8567
vt 0.9113 0.7863
vt 0.8189 0.7948
vt 0.8189 0.8597
vt 0.8871 0.8567
vt 0.8189 0.7948
vt 0.3778 0.866
vt 0.3742 0.8183
vt 0.1912 0.8297
vt 0.1781 0.866
vt 0.3778 0.866
vt 0.1912 0.8297
vt 0.5436 0.638
vt 0.6039 0.6708
vt 0.6039 0.4922
vt 0.5021 0.587
vt 0.5436 0.638
vt 0.6039 0.4922
vt 0.6833 0.7856
vt 0.7924 0.779
vt 0.7377 0.6734
vt 0.6833 0.6725
vt 0.6833 0.7856
vt 0.7377 0.6734
vt 0.0009 0.9687
vt 0.0304 0.9991
vt 0.0657 0.9687
vt 0.3869 0.5729
vt 0.4527 0.5908
vt 0.4527 0.4059
vt 0.3499 0.5164
vt 0.3869 0.5729
vt 0.4527 0.4059
vt 0.7645 0.5006
vt 0.6056 0.4922
vt 0.6056 0.5758
vt 0.7676 0.5426
vt 0.7645 0.5006
vt 0.6056 0.5758
vt 0.6455 0.8829
vt 0.5908 0.8298
vt 0.5021 0.8195
vt 0.5282 0.8829
vt 0.6455 0.8829
vt 0.5021 0.8195
vt 0.7961 0.1156
vt 0.8675 0.1156
vt 0.8249 0.0935
vt 0.9529 0.3417
vt 0.9817 0.2984
vt 0.9529 0.2688
vt 0.9588 0.4432
vt 0.9857 0.4837
vt 0.9857 0.4109
vt 0.3499 0.4042
vt 0.5004 0.3462
vt 0.4525 0.2833
vt 0.3499 0.2456
vt 0.3499 0.4042
vt 0.4525 0.2833
vt 0.1518 0.0009
vt 0.0009 0.0029
vt 0.11 0.1263
vt 0.2386 0.1263
vt 0.1518 0.0009
vt 0.11 0.1263
vt 0.5021 0.9712
vt 0.5306 0.9943
vt 0.5676 0.9712
vt 0.1781 0.6941
vt 0.334 0.7509
vt 0.334 0.653
vt 0.598 0.0009
vt 0.598 0.1846
vt 0.6571 0.1634
vt 0.6957 0.1102
vt 0.598 0.0009
vt 0.6571 0.1634
vt 0.8757 0.0583
vt 0.8807 0.1046
vt 0.9706 0.1099
vt 0.9439 0.0583
vt 0.8757 0.0583
vt 0.9706 0.1099
vt 0.4644 0.9461
vt 0.3823 0.9645
vt 0.3795 0.987
vt 0.4877 0.987
vt 0.4644 0.9461
vt 0.3795 0.987
vt 0.918 0.5792
vt 0.898 0.4922
vt 0.8495 0.4922
vt 0.8955 0.5815
vt 0.918 0.5792
vt 0.8495 0.4922
vt 0.4481 0.8947
vt 0.3795 0.9444
vt 0.4876 0.9444
vt 0.4637 0.9022
vt 0.4481 0.8947
vt 0.4876 0.9444
vt 0.7752 0.9052
vt 0.8454 0.9532
vt 0.8603 0.9462
vt 0.8833 0.9052
vt 0.7752 0.9052
vt 0.8603 0.9462
vt 0.3297 0.1241
vt 0.3186 0.1044
vt 0.2411 0.1069
vt 0.2403 0.1241
vt 0.3297 0.1241
vt 0.2411 0.1069
vt 0.8059 0.7397
vt 0.7941 0.7699
vt 0.952 0.7699
vt 0.7725 0.6606
vt 0.9208 0.6205
vt 0.7568 0.6205
vt 0.9747 0.8808
vt 0.8896 0.8808
vt 0.8901 0.9035
vt 0.9741 0.8972
vt 0.9747 0.8808
vt 0.8901 0.9035
vt 0.9961 0.564
vt 0.9811 0.53
vt 0.9266 0.53
vt 0.9197 0.564
vt 0.9961 0.564
vt 0.9266 0.53
vt 0.084 0.967
vt 0.1181 0.9278
vt 0.0009 0.9278
vt 0.0295 0.967
vt 0.084 0.967
vt 0.0009 0.9278
vt 0.0009 0.685
vt 0.1764 0.685
vt 0.0894 0.5917
vt 0.3589 0.1027
vt 0.4951 0.1027
vt 0.3783 0.0009
vt 0.2403 0.0188
vt 0.3589 0.1027
vt 0.3783 0.0009
vt 0.9487 0.4922
vt 0.9197 0.5282
vt 0.9943 0.5282
vt 0.9225 0.6266
vt 0.9352 0.6606
vt 0.9907 0.6266
vt 0.8564 0.9664
vt 0.6833 0.9898
vt 0.8587 0.9898
vt 0.1762 0.8909
vt 0.0009 0.8976
vt 0.1762 0.926
vt 0.6779 0.9232
vt 0.6779 0.8846
vt 0.5021 0.9099
vt 0.0009 0.6867
vt 0.0009 0.7656
vt 0.1645 0.7508
vt 0.1676 0.711
vt 0.0009 0.6867
vt 0.1645 0.7508
vt 0.4968 0.0009
vt 0.4968 0.1855
vt 0.5621 0.157
vt 0.5963 0.0987
vt 0.4968 0.0009
vt 0.5621 0.157
vt 0.3499 0.6047
vt 0.4855 0.7073
vt 0.4855 0.5926
vt 0.6668 0.9525
vt 0.612 0.9249
vt 0.612 0.9685
vt 0.885 0.9626
vt 0.9641 0.9626
vt 0.9218 0.9052
vt 0.9974 0.1705
vt 0.9183 0.1705
vt 0.9701 0.21
vt 0.4909 0.587
vt 0.4909 0.53
vt 0.4544 0.5336
vt 0.9621 0.8755
vt 0.9626 0.7863
vt 0.913 0.804
vt 0.913 0.8765
vt 0.9621 0.8755
vt 0.913 0.804
vt 0.1696 0.128
vt 0.0009 0.128
vt 0.0906 0.2439
vt 0.243 0.2161
vt 0.1696 0.128
vt 0.0906 0.2439
vt 0.3148 0.9971
vt 0.349 0.9726
vt 0.2902 0.9726
vt 0.8183 0.4878
vt 0.8183 0.4282
vt 0.7928 0.4607
vt 0.3665 0.914
vt 0.2902 0.914
vt 0.3052 0.9708
vt 0.3488 0.9708
vt 0.3665 0.914
vt 0.3052 0.9708
vt 0.8633 0.6828
vt 0.7941 0.6725
vt 0.8023 0.738
vt 0.9109 0.738
vt 0.8633 0.6828
vt 0.8023 0.738
vt 0.8074 0.6155
vt 0.8478 0.565
vt 0.8478 0.4922
vt 0.7694 0.5639
vt 0.8074 0.6155
vt 0.8478 0.4922
vt 0.8593 0.076
vt 0.874 0.0009
vt 0.7961 0.014
vt 0.7961 0.0917
vt 0.8593 0.076
vt 0.7961 0.014
vt 0.8621 0.2773
vt 0.8713 0.3417
vt 0.9512 0.3417
vt 0.927 0.2815
vt 0.8621 0.2773
vt 0.9512 0.3417
vt 0.9429 0.2117
vt 0.9183 0.246
vt 0.9972 0.246
vt 0.9063 0.9981
vt 0.9649 0.9644
vt 0.885 0.9644
vt 0.2885 0.914
vt 0.1781 0.914
vt 0.2353 0.9606
vt 0.2709 0.5733
vt 0.2709 0.6491
vt 0.3412 0.625
vt 0.5765 0.7507
vt 0.5021 0.8178
vt 0.6706 0.8178
vt 0.5688 0.7327
vt 0.6816 0.7489
vt 0.6675 0.6725
vt 0.5021 0.6725
vt 0.5688 0.7327
vt 0.6675 0.6725
vt 0.3705 0.7938
vt 0.4861 0.7938
vt 0.4611 0.7338
vt 0.3499 0.709
vt 0.3705 0.7938
vt 0.4611 0.7338
vt 0.9571 0.4109
vt 0.927 0.4323
vt 0.9571 0.4867
vt 0.0675 0.9946
vt 0.1417 0.9946
vt 0.0885 0.9687
vt 0.9126 0.7262
vt 0.9781 0.7262
vt 0.9486 0.6725
vt 0.8308 0.4265
vt 0.8308 0.1705
vt 0.7928 0.1847
vt 0.8326 0.1705
vt 0.8326 0.4214
vt 0.8604 0.175
vt 0.1264 0.5731
vt 0.1764 0.4631
vt 0.1264 0.4055
vt 0.1781 0.6513
vt 0.2692 0.544
vt 0.1781 0.4033
vt 0.6975 0.1178
vt 0.7944 0.1041
vt 0.7944 0.0009
vt 0.7419 0.0055
vt 0.6975 0.1178
vt 0.7944 0.0009
vt 0.7373 0.8597
vt 0.8172 0.8597
vt 0.7412 0.7873
vt 0.6833 0.8114
vt 0.7373 0.8597
vt 0.7412 0.7873
vt 0.2885 0.9623
vt 0.1712 0.9623
vt 0.2734 0.9862
vt 0.5964 0.4904
vt 0.5964 0.2456
vt 0.5021 0.3849
vt 0.3213 0.5715
vt 0.3213 0.4033
vt 0.2709 0.4637
vt 0.1463 0.8892
vt 0.085 0.8351
vt 0.0009 0.836
vt 0.0435 0.8892
vt 0.1463 0.8892
vt 0.0009 0.836

# 900 Vertex Normals
vn -0.621638 -0.781269 -0.056436
vn 0.074709 0.108806 -0.991252
vn -0.711673 0.6911 0.126106
vn 0.316778 -0.514766 -0.796661
vn 0.655221 -0.75521 -0.018528
vn 0.074709 0.108806 -0.991252
vn -0.621638 -0.781269 -0.056436
vn -0.373164 -0.458116 -0.80677
vn 0.074709 0.108806 -0.991252
vn 0.551366 -0.242053 -0.798377
vn -0.755334 -0.044387 -0.653835
vn -0.618707 -0.359473 -0.698557
vn 0.615625 0.219834 -0.756755
vn 0.551366 -0.242053 -0.798377
vn -0.618707 -0.359473 -0.698557
vn -0.698894 -0.239022 0.674104
vn -0.844181 0.139778 0.517514
vn 0.674785 0.17164 0.717778
vn 0.640903 0.10983 0.759724
vn -0.698894 -0.239022 0.674104
vn 0.674785 0.17164 0.717778
vn 0.000467 0.998377 0.056955
vn -0.333426 0.847254 -0.413507
vn -0.583365 0.80635 0.097389
vn 0.000555 0.972781 0.231726
vn 0.000467 0.998377 0.056955
vn -0.583365 0.80635 0.097389
vn 0.663836 0.739735 0.110067
vn 0.355484 0.839195 -0.411561
vn 0.000467 0.998377 0.056955
vn 0.000555 0.972781 0.231726
vn 0.663836 0.739735 0.110067
vn 0.000467 0.998377 0.056955
vn -0.876357 0.435697 -0.205344
vn -0.612666 0.302933 -0.729981
vn -0.373164 -0.458116 -0.80677
vn -0.623406 -0.731825 -0.275313
vn -0.876357 0.435697 -0.205344
vn -0.373164 -0.458116 -0.80677
vn -0.333426 0.847254 -0.413507
vn 0.355484 0.839195 -0.411561
vn 0.001578 0.203828 -0.979005
vn -0.612666 0.302933 -0.729981
vn -0.333426 0.847254 -0.413507
vn 0.001578 0.203828 -0.979005
vn -0.373164 -0.458116 -0.80677
vn -0.612666 0.302933 -0.729981
vn 0.001578 0.203828 -0.979005
vn 0.656753 -0.097966 -0.747715
vn -0.902173 -0.135953 -0.40939
vn -0.528026 0.074022 -0.845996
vn 0.786095 -0.313366 -0.532782
vn 0.656753 -0.097966 -0.747715
vn -0.528026 0.074022 -0.845996
vn 0.877444 0.136214 0.459932
vn 0.656753 -0.097966 -0.747715
vn 0.786095 -0.313366 -0.532782
vn 0.537324 -0.276617 0.796722
vn 0.877444 0.136214 0.459932
vn 0.786095 -0.313366 -0.532782
vn 0.355484 0.839195 -0.411561
vn 0.672878 0.736732 -0.066792
vn 0.594878 0.24362 -0.766009
vn 0.001578 0.203828 -0.979005
vn 0.355484 0.839195 -0.411561
vn 0.594878 0.24362 -0.766009
vn 0.316778 -0.514766 -0.796661
vn -0.373164 -0.458116 -0.80677
vn 0.001578 0.203828 -0.979005
vn 0.594878 0.24362 -0.766009
vn 0.316778 -0.514766 -0.796661
vn 0.001578 0.203828 -0.979005
vn -0.902173 -0.135953 -0.40939
vn -0.41492 0.300039 0.858963
vn -0.767606 0.051884 0.638819
vn -0.528026 0.074022 -0.845996
vn -0.902173 -0.135953 -0.40939
vn -0.767606 0.051884 0.638819
vn 0.537324 -0.276617 0.796722
vn -0.767606 0.051884 0.638819
vn -0.41492 0.300039 0.858963
vn 0.877444 0.136214 0.459932
vn 0.537324 -0.276617 0.796722
vn -0.41492 0.300039 0.858963
vn -0.880282 -0.431696 0.196828
vn 0.016822 -0.568319 0.822636
vn -0.404813 -0.698163 0.590504
vn 0.594878 0.24362 -0.766009
vn 0.955913 -0.06707 -0.285888
vn 0.6316 -0.693174 -0.347262
vn 0.316778 -0.514766 -0.796661
vn 0.594878 0.24362 -0.766009
vn 0.6316 -0.693174 -0.347262
vn -0.404813 -0.698163 0.590504
vn 0.331867 -0.822926 -0.461147
vn -0.119774 -0.181949 -0.975986
vn -0.880282 -0.431696 0.196828
vn -0.404813 -0.698163 0.590504
vn -0.119774 -0.181949 -0.975986
vn 0.316778 -0.514766 -0.796661
vn 0.6316 -0.693174 -0.347262
vn 0.655221 -0.75521 -0.018528
vn -0.981538 0.186605 -0.041982
vn -0.992796 0.119561 0.007884
vn -0.976751 0.211283 -0.036291
vn -0.986997 0.160227 -0.012818
vn -0.981538 0.186605 -0.041982
vn -0.976751 0.211283 -0.036291
vn -0.632733 0.56987 0.524307
vn 0.120276 -0.098428 0.987849
vn -0.022732 0.708131 0.705715
vn -0.711673 0.6911 0.126106
vn -0.632733 0.56987 0.524307
vn -0.022732 0.708131 0.705715
vn 0.074709 0.108806 -0.991252
vn 0.262816 0.515691 -0.81547
vn -0.184582 -0.536634 -0.823379
vn -0.119774 -0.181949 -0.975986
vn 0.074709 0.108806 -0.991252
vn -0.184582 -0.536634 -0.823379
vn -0.831044 0.298182 -0.469525
vn -0.915301 0.360353 -0.179916
vn 0.025785 0.548523 -0.835738
vn 0.186718 0.835966 -0.516041
vn -0.831044 0.298182 -0.469525
vn 0.025785 0.548523 -0.835738
vn 0.025785 0.548523 -0.835738
vn 0.957574 0.285904 -0.03619
vn 0.849792 0.199855 -0.487762
vn 0.186718 0.835966 -0.516041
vn 0.025785 0.548523 -0.835738
vn 0.849792 0.199855 -0.487762
vn 0.016822 -0.568319 0.822636
vn 0.120276 -0.098428 0.987849
vn -0.632733 0.56987 0.524307
vn -0.404813 -0.698163 0.590504
vn 0.016822 -0.568319 0.822636
vn -0.632733 0.56987 0.524307
vn -0.632733 0.56987 0.524307
vn -0.711673 0.6911 0.126106
vn 0.074709 0.108806 -0.991252
vn -0.149511 0.270849 -0.95094
vn -0.632733 0.56987 0.524307
vn 0.074709 0.108806 -0.991252
vn -0.119774 -0.181949 -0.975986
vn 0.799969 -0.595385 -0.074603
vn 0.957574 0.285904 -0.03619
vn 0.025785 0.548523 -0.835738
vn -0.119774 -0.181949 -0.975986
vn 0.957574 0.285904 -0.03619
vn -0.149511 0.270849 -0.95094
vn 0.074709 0.108806 -0.991252
vn -0.119774 -0.181949 -0.975986
vn 0.331867 -0.822926 -0.461147
vn -0.149511 0.270849 -0.95094
vn -0.119774 -0.181949 -0.975986
vn 0.331867 -0.822926 -0.461147
vn -0.404813 -0.698163 0.590504
vn 0.537324 -0.276617 0.796722
vn 0.786095 -0.313366 -0.532782
vn 0.331867 -0.822926 -0.461147
vn 0.537324 -0.276617 0.796722
vn -0.184582 -0.536634 -0.823379
vn -0.618707 -0.359473 -0.698557
vn -0.698894 -0.239022 0.674104
vn 0.322361 -0.597653 0.734094
vn -0.184582 -0.536634 -0.823379
vn -0.698894 -0.239022 0.674104
vn -0.149511 0.270849 -0.95094
vn 0.331867 -0.822926 -0.461147
vn 0.786095 -0.313366 -0.532782
vn -0.528026 0.074022 -0.845996
vn -0.149511 0.270849 -0.95094
vn 0.786095 -0.313366 -0.532782
vn -0.632733 0.56987 0.524307
vn -0.149511 0.270849 -0.95094
vn -0.528026 0.074022 -0.845996
vn -0.767606 0.051884 0.638819
vn -0.632733 0.56987 0.524307
vn -0.528026 0.074022 -0.845996
vn -0.404813 -0.698163 0.590504
vn -0.632733 0.56987 0.524307
vn -0.767606 0.051884 0.638819
vn 0.537324 -0.276617 0.796722
vn -0.404813 -0.698163 0.590504
vn -0.767606 0.051884 0.638819
vn -0.915301 0.360353 -0.179916
vn -0.880282 -0.431696 0.196828
vn -0.119774 -0.181949 -0.975986
vn 0.025785 0.548523 -0.835738
vn -0.915301 0.360353 -0.179916
vn -0.119774 -0.181949 -0.975986
vn 0.674785 0.17164 0.717778
vn 0.551366 -0.242053 -0.798377
vn 0.615625 0.219834 -0.756755
vn 0.640903 0.10983 0.759724
vn 0.674785 0.17164 0.717778
vn 0.615625 0.219834 -0.756755
vn -0.039463 -0.854573 -0.51783
vn -0.20419 -0.973422 -0.103711
vn 0.976702 -0.200989 -0.075211
vn 0.849792 0.199855 -0.487762
vn -0.039463 -0.854573 -0.51783
vn 0.976702 -0.200989 -0.075211
vn -0.022732 0.708131 0.705715
vn 0.120276 -0.098428 0.987849
vn 0.574426 0.677863 0.458842
vn 0.681943 0.70066 0.209832
vn -0.022732 0.708131 0.705715
vn 0.574426 0.677863 0.458842
vn -0.831044 0.298182 -0.469525
vn 0.186718 0.835966 -0.516041
vn -0.134871 0.989026 -0.060313
vn -0.999889 -0.006623 0.013324
vn -0.831044 0.298182 -0.469525
vn -0.134871 0.989026 -0.060313
vn 0.186718 0.835966 -0.516041
vn 0.849792 0.199855 -0.487762
vn 0.976702 -0.200989 -0.075211
vn -0.134871 0.989026 -0.060313
vn 0.186718 0.835966 -0.516041
vn 0.976702 -0.200989 -0.075211
vn 0.074709 0.108806 -0.991252
vn -0.373164 -0.458116 -0.80677
vn 0.316778 -0.514766 -0.796661
vn 0.016822 -0.568319 0.822636
vn -0.076384 0.017853 0.996919
vn 0.957574 0.285904 -0.03619
vn 0.799969 -0.595385 -0.074603
vn 0.016822 -0.568319 0.822636
vn 0.957574 0.285904 -0.03619
vn 0.400342 0.109882 0.909754
vn -0.076384 0.017853 0.996919
vn -0.319026 0.010167 0.947692
vn 0.322361 -0.597653 0.734094
vn -0.698894 -0.239022 0.674104
vn 0.640903 0.10983 0.759724
vn 0.574426 0.677863 0.458842
vn 0.322361 -0.597653 0.734094
vn 0.640903 0.10983 0.759724
vn -0.623406 -0.731825 -0.275313
vn -0.373164 -0.458116 -0.80677
vn -0.621638 -0.781269 -0.056436
vn 0.355484 0.839195 -0.411561
vn -0.333426 0.847254 -0.413507
vn 0.000467 0.998377 0.056955
vn 0.779598 0.27718 0.561604
vn 0.955913 -0.06707 -0.285888
vn -0.876357 0.435697 -0.205344
vn -0.867183 0.319958 0.381603
vn 0.779598 0.27718 0.561604
vn -0.876357 0.435697 -0.205344
vn 0.120276 -0.098428 0.987849
vn 0.016822 -0.568319 0.822636
vn 0.322361 -0.597653 0.734094
vn 0.574426 0.677863 0.458842
vn 0.120276 -0.098428 0.987849
vn 0.322361 -0.597653 0.734094
vn -0.698894 -0.239022 0.674104
vn -0.618707 -0.359473 -0.698557
vn -0.755334 -0.044387 -0.653835
vn -0.844181 0.139778 0.517514
vn -0.698894 -0.239022 0.674104
vn -0.755334 -0.044387 -0.653835
vn 0.322361 -0.597653 0.734094
vn 0.016822 -0.568319 0.822636
vn 0.799969 -0.595385 -0.074603
vn -0.488068 -0.766602 0.417266
vn -0.487053 -0.849317 0.203567
vn 0.414043 -0.900707 0.131513
vn 0.72019 -0.522088 0.456892
vn -0.488068 -0.766602 0.417266
vn 0.414043 -0.900707 0.131513
vn -0.487053 -0.849317 0.203567
vn -0.430105 -0.897641 -0.096184
vn 0.407651 -0.911804 -0.049342
vn 0.414043 -0.900707 0.131513
vn -0.487053 -0.849317 0.203567
vn 0.407651 -0.911804 -0.049342
vn -0.612666 0.302933 -0.729981
vn -0.876357 0.435697 -0.205344
vn -0.648596 0.75914 -0.055041
vn 0.955913 -0.06707 -0.285888
vn 0.594878 0.24362 -0.766009
vn 0.672878 0.736732 -0.066792
vn -0.583365 0.80635 0.097389
vn -0.333426 0.847254 -0.413507
vn -0.648596 0.75914 -0.055041
vn -0.809904 0.246789 0.532118
vn -0.583365 0.80635 0.097389
vn -0.648596 0.75914 -0.055041
vn -0.333426 0.847254 -0.413507
vn -0.612666 0.302933 -0.729981
vn -0.648596 0.75914 -0.055041
vn 0.672878 0.736732 -0.066792
vn 0.355484 0.839195 -0.411561
vn 0.663836 0.739735 0.110067
vn 0.812243 0.241489 0.530984
vn 0.672878 0.736732 -0.066792
vn 0.663836 0.739735 0.110067
vn -0.184582 -0.536634 -0.823379
vn 0.322361 -0.597653 0.734094
vn 0.799969 -0.595385 -0.074603
vn -0.119774 -0.181949 -0.975986
vn -0.184582 -0.536634 -0.823379
vn 0.799969 -0.595385 -0.074603
vn -0.947534 0.188143 -0.25842
vn -0.319026 0.010167 0.947692
vn -0.915301 0.360353 -0.179916
vn 0.400342 0.109882 0.909754
vn 0.941208 0.151319 -0.302043
vn 0.957574 0.285904 -0.03619
vn -0.184582 -0.536634 -0.823379
vn 0.262816 0.515691 -0.81547
vn 0.615625 0.219834 -0.756755
vn -0.618707 -0.359473 -0.698557
vn -0.184582 -0.536634 -0.823379
vn 0.615625 0.219834 -0.756755
vn 0.615625 0.219834 -0.756755
vn 0.262816 0.515691 -0.81547
vn 0.574426 0.677863 0.458842
vn 0.640903 0.10983 0.759724
vn 0.615625 0.219834 -0.756755
vn 0.574426 0.677863 0.458842
vn -0.076384 0.017853 0.996919
vn 0.016822 -0.568319 0.822636
vn -0.880282 -0.431696 0.196828
vn -0.915301 0.360353 -0.179916
vn -0.076384 0.017853 0.996919
vn -0.880282 -0.431696 0.196828
vn -0.947534 0.188143 -0.25842
vn -0.831044 0.298182 -0.469525
vn -0.039463 -0.854573 -0.51783
vn -0.143627 -0.377615 -0.914756
vn -0.947534 0.188143 -0.25842
vn -0.039463 -0.854573 -0.51783
vn 0.928821 0.367741 -0.045371
vn -0.696659 0.168687 -0.697288
vn -0.319435 0.947596 -0.004687
vn -0.039463 -0.854573 -0.51783
vn 0.849792 0.199855 -0.487762
vn 0.941208 0.151319 -0.302043
vn 0.173459 -0.431689 -0.885187
vn -0.039463 -0.854573 -0.51783
vn 0.941208 0.151319 -0.302043
vn 0.074709 0.108806 -0.991252
vn 0.681943 0.70066 0.209832
vn 0.574426 0.677863 0.458842
vn 0.262816 0.515691 -0.81547
vn 0.074709 0.108806 -0.991252
vn 0.574426 0.677863 0.458842
vn 0.074709 0.108806 -0.991252
vn 0.655221 -0.75521 -0.018528
vn 0.681943 0.70066 0.209832
vn -0.915301 0.360353 -0.179916
vn -0.831044 0.298182 -0.469525
vn -0.947534 0.188143 -0.25842
vn 0.849792 0.199855 -0.487762
vn 0.957574 0.285904 -0.03619
vn 0.941208 0.151319 -0.302043
vn -0.076384 0.017853 0.996919
vn -0.915301 0.360353 -0.179916
vn -0.319026 0.010167 0.947692
vn -0.076384 0.017853 0.996919
vn 0.400342 0.109882 0.909754
vn 0.957574 0.285904 -0.03619
vn -0.430105 -0.897641 -0.096184
vn -0.876357 0.435697 -0.205344
vn 0.955913 -0.06707 -0.285888
vn 0.407651 -0.911804 -0.049342
vn -0.430105 -0.897641 -0.096184
vn 0.955913 -0.06707 -0.285888
vn 0.189902 -0.404334 0.894679
vn 0.001131 -0.617622 0.786474
vn -0.005914 -0.462418 0.886643
vn 0.094832 -0.250357 0.963498
vn 0.189902 -0.404334 0.894679
vn -0.005914 -0.462418 0.886643
vn -0.005914 -0.462418 0.886643
vn 0.001131 -0.617622 0.786474
vn -0.201816 -0.50123 0.841451
vn -0.119708 -0.340649 0.932539
vn -0.005914 -0.462418 0.886643
vn -0.201816 -0.50123 0.841451
vn -0.319026 0.010167 0.947692
vn 0.597335 -0.80126 -0.03427
vn -0.576423 -0.816874 -0.021286
vn 0.400342 0.109882 0.909754
vn -0.319026 0.010167 0.947692
vn -0.576423 -0.816874 -0.021286
vn 0.01041 -0.980556 -0.195964
vn 0.085934 -0.995151 -0.047849
vn -0.908713 -0.264326 0.323068
vn 0.922149 -0.116357 0.36892
vn 0.085934 -0.995151 -0.047849
vn 0.01041 -0.980556 -0.195964
vn 0.085934 -0.995151 -0.047849
vn 0.032879 -0.001945 0.999457
vn -0.908713 -0.264326 0.323068
vn 0.032879 -0.001945 0.999457
vn 0.085934 -0.995151 -0.047849
vn 0.922149 -0.116357 0.36892
vn 0.922149 -0.116357 0.36892
vn 0.779598 0.27718 0.561604
vn -0.867183 0.319958 0.381603
vn -0.908713 -0.264326 0.323068
vn 0.922149 -0.116357 0.36892
vn -0.867183 0.319958 0.381603
vn -0.82435 0.232296 -0.516222
vn -0.947534 0.188143 -0.25842
vn -0.143627 -0.377615 -0.914756
vn -0.897519 -0.228485 0.377167
vn -0.947534 0.188143 -0.25842
vn -0.82435 0.232296 -0.516222
vn -0.319026 0.010167 0.947692
vn -0.947534 0.188143 -0.25842
vn -0.897519 -0.228485 0.377167
vn 0.941208 0.151319 -0.302043
vn 0.863344 -0.257971 0.433691
vn 0.706716 0.185973 -0.682618
vn 0.173459 -0.431689 -0.885187
vn 0.941208 0.151319 -0.302043
vn 0.706716 0.185973 -0.682618
vn 0.941208 0.151319 -0.302043
vn 0.400342 0.109882 0.909754
vn 0.863344 -0.257971 0.433691
vn -0.884098 -0.454123 -0.110197
vn 0.843974 0.239588 -0.479901
vn 0.591507 -0.798351 0.112934
vn -0.85589 -0.462012 0.232374
vn -0.884098 -0.454123 -0.110197
vn 0.591507 -0.798351 0.112934
vn -0.20419 -0.973422 -0.103711
vn -0.999889 -0.006623 0.013324
vn -0.970814 -0.206992 -0.121141
vn 0.126034 -0.980125 -0.153202
vn -0.20419 -0.973422 -0.103711
vn -0.970814 -0.206992 -0.121141
vn -0.999889 -0.006623 0.013324
vn -0.134871 0.989026 -0.060313
vn -0.319435 0.947596 -0.004687
vn -0.970814 -0.206992 -0.121141
vn -0.999889 -0.006623 0.013324
vn -0.319435 0.947596 -0.004687
vn -0.134871 0.989026 -0.060313
vn 0.976702 -0.200989 -0.075211
vn 0.928821 0.367741 -0.045371
vn -0.319435 0.947596 -0.004687
vn -0.134871 0.989026 -0.060313
vn 0.928821 0.367741 -0.045371
vn 0.674785 0.17164 0.717778
vn -0.844181 0.139778 0.517514
vn -0.767105 0.199977 0.609556
vn 0.54293 -0.418616 0.728003
vn 0.674785 0.17164 0.717778
vn -0.767105 0.199977 0.609556
vn 0.739557 -0.279474 -0.612332
vn 0.551366 -0.242053 -0.798377
vn 0.674785 0.17164 0.717778
vn 0.54293 -0.418616 0.728003
vn 0.739557 -0.279474 -0.612332
vn 0.674785 0.17164 0.717778
vn 0.000555 0.972781 0.231726
vn -0.016163 0.561236 0.827498
vn 0.361344 0.710334 0.604033
vn 0.663836 0.739735 0.110067
vn 0.000555 0.972781 0.231726
vn 0.361344 0.710334 0.604033
vn 0.971867 -0.008664 -0.235371
vn 0.777357 0.070338 -0.625115
vn 0.676829 -0.603311 0.421803
vn -0.041576 -0.690747 0.7219
vn 0.971867 -0.008664 -0.235371
vn 0.676829 -0.603311 0.421803
vn -0.897519 -0.228485 0.377167
vn -0.041576 -0.690747 0.7219
vn 0.676829 -0.603311 0.421803
vn 0.656753 -0.097966 -0.747715
vn 0.877444 0.136214 0.459932
vn 0.825568 0.235226 0.512938
vn 0.665605 0.289883 -0.687705
vn 0.656753 -0.097966 -0.747715
vn 0.825568 0.235226 0.512938
vn -0.536842 -0.270914 -0.799003
vn -0.902173 -0.135953 -0.40939
vn 0.656753 -0.097966 -0.747715
vn 0.665605 0.289883 -0.687705
vn -0.536842 -0.270914 -0.799003
vn 0.656753 -0.097966 -0.747715
vn 0.825568 0.235226 0.512938
vn 0.877444 0.136214 0.459932
vn -0.41492 0.300039 0.858963
vn -0.779299 -0.25072 0.574311
vn 0.825568 0.235226 0.512938
vn -0.41492 0.300039 0.858963
vn 0.000555 0.972781 0.231726
vn -0.583365 0.80635 0.097389
vn -0.509715 0.697311 0.503932
vn -0.016163 0.561236 0.827498
vn 0.000555 0.972781 0.231726
vn -0.509715 0.697311 0.503932
vn -0.779299 -0.25072 0.574311
vn -0.41492 0.300039 0.858963
vn -0.902173 -0.135953 -0.40939
vn -0.536842 -0.270914 -0.799003
vn -0.779299 -0.25072 0.574311
vn -0.902173 -0.135953 -0.40939
vn 0.618636 -0.779947 0.094717
vn 0.885425 -0.023499 -0.464188
vn 0.082386 0.936774 0.340099
vn 0.149489 0.516504 0.843135
vn 0.618636 -0.779947 0.094717
vn 0.082386 0.936774 0.340099
vn -0.503626 0.619448 0.6022
vn 0.414334 0.698771 0.583135
vn 0.076631 0.485747 0.870734
vn -0.809904 0.246789 0.532118
vn -0.503626 0.619448 0.6022
vn 0.076631 0.485747 0.870734
vn 0.739557 -0.279474 -0.612332
vn 0.54293 -0.418616 0.728003
vn -0.069607 -0.917663 0.391216
vn -0.779543 -0.244068 -0.576839
vn 0.739557 -0.279474 -0.612332
vn -0.069607 -0.917663 0.391216
vn 0.076631 0.485747 0.870734
vn 0.414334 0.698771 0.583135
vn 0.812243 0.241489 0.530984
vn 0.739557 -0.279474 -0.612332
vn -0.779543 -0.244068 -0.576839
vn -0.803641 0.197652 -0.561334
vn -0.767105 0.199977 0.609556
vn -0.069607 -0.917663 0.391216
vn 0.54293 -0.418616 0.728003
vn -0.755334 -0.044387 -0.653835
vn 0.551366 -0.242053 -0.798377
vn 0.739557 -0.279474 -0.612332
vn -0.803641 0.197652 -0.561334
vn -0.755334 -0.044387 -0.653835
vn 0.739557 -0.279474 -0.612332
vn -0.430105 -0.897641 -0.096184
vn -0.487053 -0.849317 0.203567
vn -0.809904 0.246789 0.532118
vn -0.876357 0.435697 -0.205344
vn -0.430105 -0.897641 -0.096184
vn -0.809904 0.246789 0.532118
vn 0.812243 0.241489 0.530984
vn 0.414043 -0.900707 0.131513
vn 0.407651 -0.911804 -0.049342
vn 0.955913 -0.06707 -0.285888
vn 0.812243 0.241489 0.530984
vn 0.407651 -0.911804 -0.049342
vn -0.039463 -0.854573 -0.51783
vn -0.831044 0.298182 -0.469525
vn -0.999889 -0.006623 0.013324
vn -0.20419 -0.973422 -0.103711
vn -0.039463 -0.854573 -0.51783
vn -0.999889 -0.006623 0.013324
vn -0.649319 0.562286 -0.512074
vn -0.82435 0.232296 -0.516222
vn 0.777357 0.070338 -0.625115
vn 0.971867 -0.008664 -0.235371
vn -0.649319 0.562286 -0.512074
vn 0.777357 0.070338 -0.625115
vn -0.844181 0.139778 0.517514
vn -0.755334 -0.044387 -0.653835
vn -0.803641 0.197652 -0.561334
vn -0.767105 0.199977 0.609556
vn -0.844181 0.139778 0.517514
vn -0.803641 0.197652 -0.561334
vn -0.958781 -0.262869 -0.107886
vn 0.885425 -0.023499 -0.464188
vn 0.618636 -0.779947 0.094717
vn -0.875778 -0.378455 0.299639
vn -0.958781 -0.262869 -0.107886
vn 0.618636 -0.779947 0.094717
vn 0.885425 -0.023499 -0.464188
vn -0.958781 -0.262869 -0.107886
vn -0.649319 0.562286 -0.512074
vn 0.971867 -0.008664 -0.235371
vn 0.885425 -0.023499 -0.464188
vn -0.649319 0.562286 -0.512074
vn 0.843974 0.239588 -0.479901
vn -0.884098 -0.454123 -0.110197
vn -0.760316 0.375373 -0.530108
vn 0.837802 0.448326 -0.311595
vn 0.843974 0.239588 -0.479901
vn -0.760316 0.375373 -0.530108
vn 0.014976 -0.913658 0.406209
vn -0.779299 -0.25072 0.574311
vn -0.536842 -0.270914 -0.799003
vn 0.803868 -0.074159 -0.590167
vn 0.014976 -0.913658 0.406209
vn -0.536842 -0.270914 -0.799003
vn 0.976702 -0.200989 -0.075211
vn -0.20419 -0.973422 -0.103711
vn 0.126034 -0.980125 -0.153202
vn 0.928821 0.367741 -0.045371
vn 0.976702 -0.200989 -0.075211
vn 0.126034 -0.980125 -0.153202
vn 0.428194 -0.578525 0.694232
vn -0.760316 0.375373 -0.530108
vn -0.884098 -0.454123 -0.110197
vn -0.103727 0.933104 0.344323
vn 0.428194 -0.578525 0.694232
vn -0.884098 -0.454123 -0.110197
vn -0.143627 -0.377615 -0.914756
vn 0.597335 -0.80126 -0.03427
vn 0.777357 0.070338 -0.625115
vn -0.82435 0.232296 -0.516222
vn -0.143627 -0.377615 -0.914756
vn 0.777357 0.070338 -0.625115
vn -0.536842 -0.270914 -0.799003
vn 0.665605 0.289883 -0.687705
vn 0.803868 -0.074159 -0.590167
vn -0.041576 -0.690747 0.7219
vn -0.649319 0.562286 -0.512074
vn -0.958781 -0.262869 -0.107886
vn 0.082386 0.936774 0.340099
vn -0.041576 -0.690747 0.7219
vn -0.958781 -0.262869 -0.107886
vn -0.867183 0.319958 0.381603
vn -0.876357 0.435697 -0.205344
vn -0.623406 -0.731825 -0.275313
vn -0.453878 -0.879053 0.145812
vn -0.867183 0.319958 0.381603
vn -0.623406 -0.731825 -0.275313
vn -0.661377 -0.586477 0.467574
vn -0.908751 -0.000418 -0.417338
vn -0.760316 0.375373 -0.530108
vn 0.428194 -0.578525 0.694232
vn -0.661377 -0.586477 0.467574
vn -0.760316 0.375373 -0.530108
vn 0.250338 -0.278213 -0.927323
vn -0.333426 0.847254 -0.413507
vn -0.176462 -0.977728 0.113617
vn 0.414334 0.698771 0.583135
vn 0.499835 0.819241 0.281084
vn 0.72019 -0.522088 0.456892
vn -0.559244 0.799493 0.219221
vn -0.503626 0.619448 0.6022
vn -0.488068 -0.766602 0.417266
vn -0.039463 -0.854573 -0.51783
vn -0.576423 -0.816874 -0.021286
vn 0.597335 -0.80126 -0.03427
vn -0.143627 -0.377615 -0.914756
vn -0.039463 -0.854573 -0.51783
vn 0.597335 -0.80126 -0.03427
vn 0.082386 0.936774 0.340099
vn -0.958781 -0.262869 -0.107886
vn -0.875778 -0.378455 0.299639
vn 0.149489 0.516504 0.843135
vn 0.082386 0.936774 0.340099
vn -0.875778 -0.378455 0.299639
vn -0.309005 -0.194484 -0.930963
vn 0.271016 -0.944509 0.185616
vn 0.355484 0.839195 -0.411561
vn -0.039463 -0.854573 -0.51783
vn 0.173459 -0.431689 -0.885187
vn -0.576423 -0.816874 -0.021286
vn 0.843974 0.239588 -0.479901
vn 0.837802 0.448326 -0.311595
vn 0.428194 -0.578525 0.694232
vn -0.103727 0.933104 0.344323
vn 0.843974 0.239588 -0.479901
vn 0.428194 -0.578525 0.694232
vn 0.803868 -0.074159 -0.590167
vn 0.665605 0.289883 -0.687705
vn 0.825568 0.235226 0.512938
vn 0.014976 -0.913658 0.406209
vn 0.803868 -0.074159 -0.590167
vn 0.825568 0.235226 0.512938
vn 0.609398 0.215427 0.763037
vn -0.007436 0.041544 0.999109
vn 0.076631 0.485747 0.870734
vn 0.812243 0.241489 0.530984
vn 0.609398 0.215427 0.763037
vn 0.076631 0.485747 0.870734
vn -0.007436 0.041544 0.999109
vn -0.505437 0.404509 0.762172
vn -0.809904 0.246789 0.532118
vn 0.076631 0.485747 0.870734
vn -0.007436 0.041544 0.999109
vn -0.809904 0.246789 0.532118
vn -0.509715 0.697311 0.503932
vn -0.583365 0.80635 0.097389
vn -0.809904 0.246789 0.532118
vn -0.505437 0.404509 0.762172
vn -0.509715 0.697311 0.503932
vn -0.809904 0.246789 0.532118
vn 0.663836 0.739735 0.110067
vn 0.361344 0.710334 0.604033
vn 0.609398 0.215427 0.763037
vn 0.812243 0.241489 0.530984
vn 0.663836 0.739735 0.110067
vn 0.609398 0.215427 0.763037
vn -0.007436 0.041544 0.999109
vn -0.016163 0.561236 0.827498
vn -0.509715 0.697311 0.503932
vn -0.505437 0.404509 0.762172
vn -0.007436 0.041544 0.999109
vn -0.509715 0.697311 0.503932
vn -0.648596 0.75914 -0.055041
vn -0.876357 0.435697 -0.205344
vn -0.809904 0.246789 0.532118
vn 0.672878 0.736732 -0.066792
vn 0.812243 0.241489 0.530984
vn 0.955913 -0.06707 -0.285888
vn 0.361344 0.710334 0.604033
vn -0.016163 0.561236 0.827498
vn -0.007436 0.041544 0.999109
vn 0.609398 0.215427 0.763037
vn 0.361344 0.710334 0.604033
vn -0.007436 0.041544 0.999109
vn 0.607143 0.399747 0.686716
vn 0.499835 0.819241 0.281084
vn -0.559244 0.799493 0.219221
vn -0.871756 0.123916 0.474011
vn 0.607143 0.399747 0.686716
vn -0.559244 0.799493 0.219221
vn 0.499835 0.819241 0.281084
vn 0.414334 0.698771 0.583135
vn -0.503626 0.619448 0.6022
vn -0.559244 0.799493 0.219221
vn 0.499835 0.819241 0.281084
vn -0.503626 0.619448 0.6022
vn -0.875778 -0.378455 0.299639
vn 0.618636 -0.779947 0.094717
vn 0.149489 0.516504 0.843135
vn -0.85589 -0.462012 0.232374
vn -0.149716 0.483085 0.862678
vn -0.103727 0.933104 0.344323
vn -0.884098 -0.454123 -0.110197
vn -0.85589 -0.462012 0.232374
vn -0.103727 0.933104 0.344323
vn 0.825568 0.235226 0.512938
vn -0.779299 -0.25072 0.574311
vn 0.014976 -0.913658 0.406209
vn 0.250338 -0.278213 -0.927323
vn -0.176462 -0.977728 0.113617
vn -0.837245 -0.352234 0.418272
vn -0.319435 0.947596 -0.004687
vn -0.696659 0.168687 -0.697288
vn -0.970814 -0.206992 -0.121141
vn -0.970814 -0.206992 -0.121141
vn -0.696659 0.168687 -0.697288
vn 0.126034 -0.980125 -0.153202
vn 0.928821 0.367741 -0.045371
vn 0.126034 -0.980125 -0.153202
vn -0.696659 0.168687 -0.697288
vn 0.6316 -0.693174 -0.347262
vn 0.955913 -0.06707 -0.285888
vn 0.779598 0.27718 0.561604
vn 0.471416 -0.8648 0.172881
vn 0.6316 -0.693174 -0.347262
vn 0.779598 0.27718 0.561604
vn 0.885425 -0.023499 -0.464188
vn 0.971867 -0.008664 -0.235371
vn -0.041576 -0.690747 0.7219
vn 0.082386 0.936774 0.340099
vn 0.885425 -0.023499 -0.464188
vn -0.041576 -0.690747 0.7219
vn -0.85589 -0.462012 0.232374
vn 0.591507 -0.798351 0.112934
vn -0.149716 0.483085 0.862678
vn 0.905702 -0.119781 0.406639
vn 0.355484 0.839195 -0.411561
vn 0.271016 -0.944509 0.185616
vn -0.837245 -0.352234 0.418272
vn -0.333426 0.847254 -0.413507
vn 0.250338 -0.278213 -0.927323
vn -0.333426 0.847254 -0.413507
vn -0.837245 -0.352234 0.418272
vn -0.176462 -0.977728 0.113617
vn 0.905702 -0.119781 0.406639
vn 0.271016 -0.944509 0.185616
vn -0.309005 -0.194484 -0.930963
vn -0.760316 0.375373 -0.530108
vn -0.908751 -0.000418 -0.417338
vn 0.706716 0.185973 -0.682618
vn 0.837802 0.448326 -0.311595
vn -0.760316 0.375373 -0.530108
vn 0.706716 0.185973 -0.682618
vn 0.591507 -0.798351 0.112934
vn 0.843974 0.239588 -0.479901
vn -0.103727 0.933104 0.344323
vn -0.149716 0.483085 0.862678
vn 0.591507 -0.798351 0.112934
vn -0.103727 0.933104 0.344323
vn -0.559244 0.799493 0.219221
vn -0.488068 -0.766602 0.417266
vn -0.871756 0.123916 0.474011
vn 0.607143 0.399747 0.686716
vn 0.72019 -0.522088 0.456892
vn 0.499835 0.819241 0.281084
vn 0.607143 0.399747 0.686716
vn -0.871756 0.123916 0.474011
vn -0.488068 -0.766602 0.417266
vn 0.72019 -0.522088 0.456892
vn 0.607143 0.399747 0.686716
vn -0.488068 -0.766602 0.417266
vn -0.503626 0.619448 0.6022
vn -0.809904 0.246789 0.532118
vn -0.487053 -0.849317 0.203567
vn -0.488068 -0.766602 0.417266
vn -0.503626 0.619448 0.6022
vn -0.487053 -0.849317 0.203567
vn 0.812243 0.241489 0.530984
vn 0.414334 0.698771 0.583135
vn 0.72019 -0.522088 0.456892
vn 0.414043 -0.900707 0.131513
vn 0.812243 0.241489 0.530984
vn 0.72019 -0.522088 0.456892
vn 0.01041 -0.980556 -0.195964
vn -0.908713 -0.264326 0.323068
vn -0.453878 -0.879053 0.145812
vn 0.110835 -0.989887 0.088537
vn 0.01041 -0.980556 -0.195964
vn -0.453878 -0.879053 0.145812
vn 0.110835 -0.989887 0.088537
vn 0.471416 -0.8648 0.172881
vn 0.922149 -0.116357 0.36892
vn 0.01041 -0.980556 -0.195964
vn 0.110835 -0.989887 0.088537
vn 0.922149 -0.116357 0.36892
vn -0.867183 0.319958 0.381603
vn -0.453878 -0.879053 0.145812
vn -0.908713 -0.264326 0.323068
vn 0.779598 0.27718 0.561604
vn 0.922149 -0.116357 0.36892
vn 0.471416 -0.8648 0.172881
vn 0.922149 -0.116357 0.36892
vn -0.908713 -0.264326 0.323068
vn 0.032879 -0.001945 0.999457
vn -0.621638 -0.781269 -0.056436
vn -0.022732 0.708131 0.705715
vn 0.655221 -0.75521 -0.018528
vn 0.655221 -0.75521 -0.018528
vn 0.6316 -0.693174 -0.347262
vn 0.471416 -0.8648 0.172881
vn -0.621638 -0.781269 -0.056436
vn 0.110835 -0.989887 0.088537
vn -0.453878 -0.879053 0.145812
vn -0.623406 -0.731825 -0.275313
vn -0.621638 -0.781269 -0.056436
vn -0.453878 -0.879053 0.145812
vn 0.655221 -0.75521 -0.018528
vn 0.471416 -0.8648 0.172881
vn 0.110835 -0.989887 0.088537
vn -0.621638 -0.781269 -0.056436
vn 0.655221 -0.75521 -0.018528
vn 0.110835 -0.989887 0.088537
vn -0.621638 -0.781269 -0.056436
vn -0.711673 0.6911 0.126106
vn -0.022732 0.708131 0.705715
vn 0.655221 -0.75521 -0.018528
vn -0.022732 0.708131 0.705715
vn 0.681943 0.70066 0.209832
vn -0.309005 -0.194484 -0.930963
vn 0.355484 0.839195 -0.411561
vn 0.905702 -0.119781 0.406639
vn -0.319026 0.010167 0.947692
vn -0.897519 -0.228485 0.377167
vn 0.676829 -0.603311 0.421803
vn 0.863344 -0.257971 0.433691
vn 0.400342 0.109882 0.909754
vn -0.661377 -0.586477 0.467574
vn -0.576423 -0.816874 -0.021286
vn -0.908751 -0.000418 -0.417338
vn -0.661377 -0.586477 0.467574
vn 0.400342 0.109882 0.909754
vn -0.576423 -0.816874 -0.021286
vn -0.661377 -0.586477 0.467574
vn -0.576423 -0.816874 -0.021286
vn 0.173459 -0.431689 -0.885187
vn 0.706716 0.185973 -0.682618
vn -0.908751 -0.000418 -0.417338
vn -0.576423 -0.816874 -0.021286
vn 0.706716 0.185973 -0.682618
vn 0.706716 0.185973 -0.682618
vn 0.863344 -0.257971 0.433691
vn 0.428194 -0.578525 0.694232
vn 0.837802 0.448326 -0.311595
vn 0.706716 0.185973 -0.682618
vn 0.428194 -0.578525 0.694232
vn -0.661377 -0.586477 0.467574
vn 0.428194 -0.578525 0.694232
vn 0.863344 -0.257971 0.433691
vn -0.319026 0.010167 0.947692
vn 0.676829 -0.603311 0.421803
vn 0.597335 -0.80126 -0.03427
vn 0.597335 -0.80126 -0.03427
vn 0.676829 -0.603311 0.421803
vn 0.777357 0.070338 -0.625115
vn -0.897519 -0.228485 0.377167
vn -0.82435 0.232296 -0.516222
vn -0.649319 0.562286 -0.512074
vn -0.041576 -0.690747 0.7219
vn -0.897519 -0.228485 0.377167
vn -0.649319 0.562286 -0.512074

# 2 Ungrouped triangles

o ungrouped
g ungrouped

f 73/103/103 69/104/104 19/105/105
f 20/106/106 73/107/107 19/108/108
# hunter, 159 grouped triangles

usemtl huntercolor
o hunter
g hunter

f 81/337/337 80/338/338 5/339/339
f 106/427/427 105/428/428 126/429/429
f 123/430/430 106/431/431 126/432/432
f 79/433/433 3/434/434 147/435/435
f 146/436/436 79/437/437 147/438/438
f 3/439/439 4/440/440 5/441/441
f 147/442/442 3/443/443 5/444/444
f 4/445/445 2/446/446 81/447/447
f 5/448/448 4/449/449 81/450/450
f 72/451/451 71/452/452 73/453/453
f 137/454/454 72/455/455 73/456/456
f 136/457/457 68/458/458 72/459/459
f 137/460/460 136/461/461 72/462/462
f 82/463/463 156/464/464 115/465/465
f 83/466/466 82/467/467 115/468/468
f 109/469/469 108/470/470 107/471/471
f 145/472/472 109/473/473 107/474/474
f 77/475/475 145/476/476 107/477/477
f 55/478/478 54/479/479 128/480/480
f 129/481/481 55/482/482 128/483/483
f 130/484/484 56/485/485 55/486/486
f 129/487/487 130/488/488 55/489/489
f 128/490/490 54/491/491 53/492/492
f 127/493/493 128/494/494 53/495/495
f 82/496/496 85/497/497 114/498/498
f 156/499/499 82/500/500 114/501/501
f 127/502/502 53/503/503 56/504/504
f 130/505/505 127/506/506 56/507/507
f 125/508/508 110/509/509 141/510/510
f 144/511/511 125/512/512 141/513/513
f 131/514/514 134/515/515 158/516/516
f 37/517/517 131/518/518 158/519/519
f 136/520/520 137/521/521 20/522/522
f 19/523/523 136/524/524 20/525/525
f 158/526/526 134/527/527 35/528/528
f 136/529/529 19/530/530 69/531/531
f 73/532/532 20/533/533 137/534/534
f 70/535/535 68/536/536 136/537/537
f 69/538/538 70/539/539 136/540/540
f 95/541/541 57/542/542 37/543/543
f 34/544/544 95/545/545 37/546/546
f 35/547/547 60/548/548 94/549/549
f 29/550/550 35/551/551 94/552/552
f 78/553/553 74/554/554 3/555/555
f 79/556/556 78/557/557 3/558/558
f 138/559/559 1/560/560 108/561/561
f 109/562/562 138/563/563 108/564/564
f 71/565/565 70/566/566 69/567/567
f 73/568/568 71/569/569 69/570/570
f 111/571/571 110/572/572 125/573/573
f 124/574/574 111/575/575 125/576/576
f 110/577/577 111/578/578 138/579/579
f 109/580/580 110/581/581 138/582/582
f 105/583/583 106/584/584 112/585/585
f 139/586/586 105/587/587 112/588/588
f 121/589/589 127/590/590 130/591/591
f 120/592/592 121/593/593 130/594/594
f 2/595/595 79/596/596 146/597/597
f 81/598/598 2/599/599 146/600/600
f 140/601/601 112/602/602 106/603/603
f 142/604/604 140/605/605 106/606/606
f 75/607/607 10/608/608 108/609/609
f 1/610/610 75/611/611 108/612/612
f 130/613/613 129/614/614 120/615/615
f 145/616/616 138/617/617 111/618/618
f 141/619/619 145/620/620 111/621/621
f 100/622/622 34/623/623 33/624/624
f 117/625/625 100/626/626 33/627/627
f 122/628/628 113/629/629 112/630/630
f 140/631/631 122/632/632 112/633/633
f 155/634/634 31/635/635 153/636/636
f 134/637/637 118/638/638 38/639/639
f 119/640/640 131/641/641 39/642/642
f 78/643/643 8/644/644 10/645/645
f 75/646/646 78/647/647 10/648/648
f 141/649/649 111/650/650 124/651/651
f 144/652/652 141/653/653 124/654/654
f 151/655/655 150/656/656 30/657/657
f 78/658/658 67/659/659 8/660/660
f 105/661/661 139/662/662 140/663/663
f 142/664/664 105/665/665 140/666/666
f 120/667/667 129/668/668 128/669/669
f 121/670/670 120/671/671 128/672/672
f 149/673/673 148/674/674 158/675/675
f 35/676/676 149/677/677 158/678/678
f 148/679/679 157/680/680 37/681/681
f 158/682/682 148/683/683 37/684/684
f 114/685/685 85/686/686 37/687/687
f 157/688/688 114/689/689 37/690/690
f 83/691/691 115/692/692 149/693/693
f 35/694/694 83/695/695 149/696/696
f 148/697/697 156/698/698 114/699/699
f 157/700/700 148/701/701 114/702/702
f 86/703/703 34/704/704 37/705/705
f 93/706/706 35/707/707 29/708/708
f 115/709/709 156/710/710 148/711/711
f 149/712/712 115/713/713 148/714/714
f 133/715/715 118/716/716 119/717/717
f 132/718/718 133/719/719 119/720/720
f 118/721/721 134/722/722 131/723/723
f 119/724/724 118/725/725 131/726/726
f 124/727/727 125/728/728 144/729/729
f 123/730/730 143/731/731 142/732/732
f 106/733/733 123/734/734 142/735/735
f 128/736/736 127/737/737 121/738/738
f 155/739/739 153/740/740 154/741/741
f 5/742/742 80/743/743 147/744/744
f 147/745/745 80/746/746 146/747/747
f 81/748/748 146/749/749 80/750/750
f 28/751/751 29/752/752 61/753/753
f 116/754/754 28/755/755 61/756/756
f 110/757/757 109/758/758 145/759/759
f 141/760/760 110/761/761 145/762/762
f 123/763/763 126/764/764 143/765/765
f 152/766/766 30/767/767 150/768/768
f 154/769/769 31/770/770 155/771/771
f 31/772/772 154/773/773 153/774/774
f 152/775/775 150/776/776 151/777/777
f 112/778/778 113/779/779 52/780/780
f 139/781/781 112/782/782 52/783/783
f 126/784/784 105/785/785 142/786/786
f 143/787/787 126/788/788 142/789/789
f 119/790/790 39/791/791 132/792/792
f 133/793/793 38/794/794 118/795/795
f 133/796/796 132/797/797 39/798/798
f 38/799/799 133/800/800 39/801/801
f 131/802/802 37/803/803 57/804/804
f 39/805/805 131/806/806 57/807/807
f 35/808/808 134/809/809 38/810/810
f 60/811/811 35/812/812 38/813/813
f 36/814/814 101/815/815 117/816/816
f 135/817/817 36/818/818 117/819/819
f 135/820/820 116/821/821 104/822/822
f 36/823/823 135/824/824 104/825/825
f 100/826/826 117/827/827 101/828/828
f 61/829/829 104/830/830 116/831/831
f 104/832/832 101/833/833 102/834/834
f 89/835/835 40/836/836 90/837/837
f 90/838/838 28/839/839 116/840/840
f 89/841/841 135/842/842 117/843/843
f 33/844/844 89/845/845 117/846/846
f 90/847/847 116/848/848 135/849/849
f 89/850/850 90/851/851 135/852/852
f 89/853/853 41/854/854 40/855/855
f 90/856/856 40/857/857 26/858/858
f 151/859/859 30/860/860 152/861/861
f 11/862/862 77/863/863 107/864/864
f 76/865/865 9/866/866 122/867/867
f 8/868/868 113/869/869 122/870/870
f 9/871/871 8/872/872 122/873/873
f 8/874/874 67/875/875 52/876/876
f 113/877/877 8/878/878 52/879/879
f 52/880/880 76/881/881 140/882/882
f 139/883/883 52/884/884 140/885/885
f 122/886/886 140/887/887 76/888/888
f 11/889/889 107/890/890 10/891/891
f 10/892/892 107/893/893 108/894/894
f 77/895/895 1/896/896 138/897/897
f 145/898/898 77/899/899 138/900/900
# huntertex, 139 grouped triangles

usemtl hunter
o huntertex
g huntertex

f 89/1/1 27/2/2 41/3/3
f 91/4/4 90/5/5 27/6/6
f 89/7/7 88/8/8 27/9/9
f 68/10/10 70/11/11 21/12/12
f 22/13/13 68/14/14 21/15/15
f 18/16/16 71/17/17 72/18/18
f 23/19/19 18/20/20 72/21/21
f 84/22/22 31/23/23 85/24/24
f 82/25/25 84/26/26 85/27/27
f 83/28/28 30/29/29 84/30/30
f 82/31/31 83/32/32 84/33/33
f 34/34/34 87/35/35 88/36/36
f 33/37/37 34/38/38 88/39/39
f 31/40/40 30/41/41 32/42/42
f 87/43/43 31/44/44 32/45/45
f 88/46/46 87/47/47 32/48/48
f 55/49/49 56/50/50 48/51/51
f 47/52/52 55/53/53 48/54/54
f 54/55/55 55/56/56 47/57/57
f 45/58/58 54/59/59 47/60/60
f 30/61/61 93/62/62 92/63/63
f 32/64/64 30/65/65 92/66/66
f 91/67/67 88/68/68 32/69/69
f 92/70/70 91/71/71 32/72/72
f 56/73/73 53/74/74 46/75/75
f 48/76/76 56/77/77 46/78/78
f 45/79/79 46/80/80 53/81/81
f 54/82/82 45/83/83 53/84/84
f 62/85/85 64/86/86 44/87/87
f 92/88/88 29/89/89 28/90/90
f 91/91/91 92/92/92 28/93/93
f 44/94/94 50/95/95 65/96/96
f 62/97/97 44/98/98 65/99/99
f 91/100/100 28/101/101 90/102/102
f 43/109/109 49/110/110 40/111/111
f 41/112/112 43/113/113 40/114/114
f 27/115/115 25/116/116 16/117/117
f 65/118/118 27/119/119 16/120/120
f 74/121/121 14/122/122 13/123/123
f 6/124/124 74/125/125 13/126/126
f 13/127/127 15/128/128 66/129/129
f 6/130/130 13/131/131 66/132/132
f 64/133/133 49/134/134 43/135/135
f 44/136/136 64/137/137 43/138/138
f 43/139/139 41/140/140 27/141/141
f 42/142/142 43/143/143 27/144/144
f 65/145/145 63/146/146 15/147/147
f 13/148/148 65/149/149 15/150/150
f 42/151/151 27/152/152 65/153/153
f 50/154/154 42/155/155 65/156/156
f 50/157/157 44/158/158 45/159/159
f 47/160/160 50/161/161 45/162/162
f 16/163/163 21/164/164 18/165/165
f 17/166/166 16/167/167 18/168/168
f 42/169/169 50/170/170 47/171/171
f 48/172/172 42/173/173 47/174/174
f 43/175/175 42/176/176 48/177/177
f 46/178/178 43/179/179 48/180/180
f 44/181/181 43/182/182 46/183/183
f 45/184/184 44/185/185 46/186/186
f 14/187/187 62/188/188 65/189/189
f 13/190/190 14/191/191 65/192/192
f 72/193/193 68/194/194 22/195/195
f 23/196/196 72/197/197 22/198/198
f 78/199/199 79/200/200 2/201/201
f 66/202/202 78/203/203 2/204/204
f 40/205/205 49/206/206 24/207/207
f 26/208/208 40/209/209 24/210/210
f 74/211/211 6/212/212 4/213/213
f 3/214/214 74/215/215 4/216/216
f 6/217/217 66/218/218 2/219/219
f 4/220/220 6/221/221 2/222/222
f 27/223/223 88/224/224 91/225/225
f 64/226/226 51/227/227 15/228/228
f 63/229/229 64/230/230 15/231/231
f 9/232/232 51/233/233 11/234/234
f 17/235/235 18/236/236 23/237/237
f 24/238/238 17/239/239 23/240/240
f 33/241/241 88/242/242 89/243/243
f 30/244/244 31/245/245 84/246/246
f 61/247/247 29/248/248 34/249/249
f 100/250/250 61/251/251 34/252/252
f 49/253/253 64/254/254 17/255/255
f 24/256/256 49/257/257 17/258/258
f 18/259/259 21/260/260 70/261/261
f 71/262/262 18/263/263 70/264/264
f 17/265/265 64/266/266 63/267/267
f 39/268/268 57/269/269 60/270/270
f 38/271/271 39/272/272 60/273/273
f 57/274/274 95/275/275 94/276/276
f 60/277/277 57/278/278 94/279/279
f 87/280/280 34/281/281 86/282/282
f 29/283/283 92/284/284 93/285/285
f 85/286/286 31/287/287 86/288/288
f 37/289/289 85/290/290 86/291/291
f 31/292/292 87/293/293 86/294/294
f 93/295/295 30/296/296 83/297/297
f 35/298/298 93/299/299 83/300/300
f 16/301/301 17/302/302 63/303/303
f 65/304/304 16/305/305 63/306/306
f 12/307/307 11/308/308 14/309/309
f 9/310/310 7/311/311 15/312/312
f 16/313/313 25/314/314 22/315/315
f 21/316/316 16/317/317 22/318/318
f 22/319/319 25/320/320 24/321/321
f 23/322/322 22/323/323 24/324/324
f 51/325/325 64/326/326 62/327/327
f 14/328/328 51/329/329 62/330/330
f 12/331/331 74/332/332 78/333/333
f 75/334/334 12/335/335 78/336/336
f 78/340/340 66/341/341 7/342/342
f 67/343/343 78/344/344 7/345/345
f 27/346/346 26/347/347 24/348/348
f 25/349/349 27/350/350 24/351/351
f 27/352/352 90/353/353 26/354/354
f 14/355/355 74/356/356 12/357/357
f 66/358/358 15/359/359 7/360/360
f 51/361/361 14/362/362 11/363/363
f 51/364/364 9/365/365 15/366/366
f 95/367/367 34/368/368 29/369/369
f 94/370/370 95/371/371 29/372/372
f 96/373/373 98/374/374 58/375/375
f 59/376/376 96/377/377 58/378/378
f 58/379/379 98/380/380 97/381/381
f 99/382/382 58/383/383 97/384/384
f 11/385/385 10/386/386 8/387/387
f 9/388/388 11/389/389 8/390/390
f 36/391/391 103/392/392 101/393/393
f 104/394/394 103/395/395 36/396/396
f 103/397/397 102/398/398 101/399/399
f 102/400/400 103/401/401 104/402/402
f 104/403/403 61/404/404 100/405/405
f 101/406/406 104/407/407 100/408/408
f 1/409/409 12/410/410 75/411/411
f 77/412/412 12/413/413 1/414/414
f 11/415/415 12/416/416 77/417/417
f 7/418/418 76/419/419 52/420/420
f 67/421/421 7/422/422 52/423/423
f 7/424/424 9/425/425 76/426/426
